%YAML 1.1
%TAG !u! tag:unity3d.com,2011:
--- !u!21 &2100000
Material:
  serializedVersion: 6
  m_ObjectHideFlags: 0
  m_PrefabParentObject: {fileID: 0}
  m_PrefabInternal: {fileID: 0}
  m_Name: BlackHole
  m_Shader: {fileID: 203, guid: 0000000000000000f000000000000000, type: 0}
  m_ShaderKeywords: 
  m_LightmapFlags: 5
  m_CustomRenderQueue: -1
  stringTagMap: {}
  m_SavedProperties:
    serializedVersion: 2
    m_TexEnvs:
    - first:
        name: _MainTex
      second:
        m_Texture: {fileID: 10300, guid: 0000000000000000f000000000000000, type: 0}
        m_Scale: {x: 1, y: 1}
        m_Offset: {x: 0, y: 0}
    m_Floats:
    - first:
        name: _ColorStrB
      second: 4
    - first:
        name: _ColorStrG
      second: 0.01
    - first:
        name: _ColorStrR
      second: 0.01
    - first:
        name: _CoreStrength
      second: 1
    - first:
        name: _CutOutLightCore
      second: 0.5
    - first:
        name: _InvFade
      second: 3
    - first:
        name: _Shininess
      second: 1
    - first:
        name: _TintStrength
      second: 1
    m_Colors:
    - first:
        name: _Color
      second: {r: 0, g: 0, b: 0, a: 1}
    - first:
        name: _CoreColor
      second: {r: 0, g: 0, b: 0, a: 0.5019608}
    - first:
        name: _EmisColor
      second: {r: 0, g: 0, b: 0, a: 0}
    - first:
        name: _Emission
      second: {r: 0, g: 0, b: 0, a: 0}
    - first:
        name: _SpecColor
      second: {r: 1, g: 1, b: 1, a: 1}
    - first:
        name: _TintColor
      second: {r: 0, g: 0, b: 0, a: 1}
    - first:
        name: _TintColorB
      second: {r: 0, g: 0, b: 0, a: 1}
    - first:
        name: _TintColorG
      second: {r: 0, g: 0, b: 0, a: 1}
    - first:
        name: _TintColorR
      second: {r: 0, g: 0, b: 0, a: 1}
