%YAML 1.1
%TAG !u! tag:unity3d.com,2011:
--- !u!29 &1
SceneSettings:
  m_ObjectHideFlags: 0
  m_PVSData: 
  m_PVSObjectsArray: []
  m_PVSPortalsArray: []
  m_OcclusionBakeSettings:
    smallestOccluder: 5
    smallestHole: 0.25
    backfaceThreshold: 100
--- !u!104 &2
RenderSettings:
  m_ObjectHideFlags: 0
  serializedVersion: 7
  m_Fog: 0
  m_FogColor: {r: 0.45522386, g: 0.45522386, b: 0.45522386, a: 1}
  m_FogMode: 3
  m_FogDensity: 0.01
  m_LinearFogStart: 0
  m_LinearFogEnd: 300
  m_AmbientSkyColor: {r: 0.2, g: 0.2, b: 0.2, a: 1}
  m_AmbientEquatorColor: {r: 0.2, g: 0.2, b: 0.2, a: 1}
  m_AmbientGroundColor: {r: 0.2, g: 0.2, b: 0.2, a: 1}
  m_AmbientIntensity: 1
  m_AmbientMode: 3
  m_SkyboxMaterial: {fileID: 0}
  m_HaloStrength: 0.5
  m_FlareStrength: 1
  m_FlareFadeSpeed: 3
  m_HaloTexture: {fileID: 0}
  m_SpotCookie: {fileID: 10001, guid: 0000000000000000e000000000000000, type: 0}
  m_DefaultReflectionMode: 0
  m_DefaultReflectionResolution: 128
  m_ReflectionBounces: 1
  m_ReflectionIntensity: 1
  m_CustomReflection: {fileID: 0}
  m_Sun: {fileID: 0}
  m_IndirectSpecularColor: {r: 0, g: 0, b: 0, a: 1}
--- !u!157 &4
LightmapSettings:
  m_ObjectHideFlags: 0
  serializedVersion: 7
  m_GIWorkflowMode: 1
  m_GISettings:
    serializedVersion: 2
    m_BounceScale: 1
    m_IndirectOutputScale: 1
    m_AlbedoBoost: 1
    m_TemporalCoherenceThreshold: 1
    m_EnvironmentLightingMode: 0
    m_EnableBakedLightmaps: 1
    m_EnableRealtimeLightmaps: 0
  m_LightmapEditorSettings:
    serializedVersion: 4
    m_Resolution: 1
    m_BakeResolution: 50
    m_TextureWidth: 1024
    m_TextureHeight: 1024
    m_AO: 1
    m_AOMaxDistance: 1
    m_CompAOExponent: 1
    m_CompAOExponentDirect: 0
    m_Padding: 2
    m_LightmapParameters: {fileID: 0}
    m_LightmapsBakeMode: 1
    m_TextureCompression: 0
    m_DirectLightInLightProbes: 1
    m_FinalGather: 0
    m_FinalGatherFiltering: 1
    m_FinalGatherRayCount: 256
    m_ReflectionCompression: 2
  m_LightingDataAsset: {fileID: 0}
  m_RuntimeCPUUsage: 25
--- !u!196 &5
NavMeshSettings:
  serializedVersion: 2
  m_ObjectHideFlags: 0
  m_BuildSettings:
    serializedVersion: 2
    agentRadius: 0.5
    agentHeight: 2
    agentSlope: 45
    agentClimb: 0.4
    ledgeDropHeight: 0
    maxJumpAcrossDistance: 0
    accuratePlacement: 0
    minRegionArea: 2
    cellSize: 0.16666666
    manualCellSize: 0
  m_NavMeshData: {fileID: 0}
--- !u!1 &12507661
GameObject:
  m_ObjectHideFlags: 0
  m_PrefabParentObject: {fileID: 100086, guid: 1ce912aac112cfc408d5685f68b40e56, type: 2}
  m_PrefabInternal: {fileID: 728433630}
  serializedVersion: 4
  m_Component:
  - 4: {fileID: 12507662}
  m_Layer: 0
  m_Name: Merchant R Toe0
  m_TagString: Untagged
  m_Icon: {fileID: 0}
  m_NavMeshLayer: 0
  m_StaticEditorFlags: 0
  m_IsActive: 1
--- !u!4 &12507662
Transform:
  m_ObjectHideFlags: 0
  m_PrefabParentObject: {fileID: 400086, guid: 1ce912aac112cfc408d5685f68b40e56, type: 2}
  m_PrefabInternal: {fileID: 728433630}
  m_GameObject: {fileID: 12507661}
  m_LocalRotation: {x: 0.000000015454312, y: -0.000000015454312, z: -0.7071068, w: 0.7071068}
  m_LocalPosition: {x: -0.18232974, y: 0.10904718, z: 0}
  m_LocalScale: {x: 0.99999994, y: 1, z: 0.99999994}
  m_LocalEulerAnglesHint: {x: 0, y: 0, z: 0}
  m_Children:
  - {fileID: 103393830}
  m_Father: {fileID: 886690507}
  m_RootOrder: 0
--- !u!1 &14428625
GameObject:
  m_ObjectHideFlags: 0
  m_PrefabParentObject: {fileID: 100062, guid: 1ce912aac112cfc408d5685f68b40e56, type: 2}
  m_PrefabInternal: {fileID: 728433630}
  serializedVersion: 4
  m_Component:
  - 4: {fileID: 14428626}
  m_Layer: 0
  m_Name: R_chest
  m_TagString: Untagged
  m_Icon: {fileID: 0}
  m_NavMeshLayer: 0
  m_StaticEditorFlags: 0
  m_IsActive: 1
--- !u!4 &14428626
Transform:
  m_ObjectHideFlags: 0
  m_PrefabParentObject: {fileID: 400062, guid: 1ce912aac112cfc408d5685f68b40e56, type: 2}
  m_PrefabInternal: {fileID: 728433630}
  m_GameObject: {fileID: 14428625}
  m_LocalRotation: {x: -0.5970217, y: -0.3800431, z: 0.40987584, w: 0.57544255}
  m_LocalPosition: {x: -0.05918556, y: -0.0008061981, z: -0.069102935}
  m_LocalScale: {x: -0.62482005, y: -2.3259673, z: -1.0000004}
  m_LocalEulerAnglesHint: {x: 0, y: 0, z: 0}
  m_Children: []
  m_Father: {fileID: 1280246668}
  m_RootOrder: 3
--- !u!1 &36462657
GameObject:
  m_ObjectHideFlags: 0
  m_PrefabParentObject: {fileID: 100000, guid: 1ce912aac112cfc408d5685f68b40e56, type: 2}
  m_PrefabInternal: {fileID: 728433630}
  serializedVersion: 4
  m_Component:
  - 4: {fileID: 36462658}
  m_Layer: 0
  m_Name: Particle View 01 3
  m_TagString: Untagged
  m_Icon: {fileID: 0}
  m_NavMeshLayer: 0
  m_StaticEditorFlags: 0
  m_IsActive: 1
--- !u!4 &36462658
Transform:
  m_ObjectHideFlags: 0
  m_PrefabParentObject: {fileID: 400000, guid: 1ce912aac112cfc408d5685f68b40e56, type: 2}
  m_PrefabInternal: {fileID: 728433630}
  m_GameObject: {fileID: 36462657}
  m_LocalRotation: {x: 0.7071069, y: 0, z: 0, w: 0.70710677}
  m_LocalPosition: {x: -0.8047526, y: 0, z: -0.003837881}
  m_LocalScale: {x: 1, y: 1, z: 1}
  m_LocalEulerAnglesHint: {x: 0, y: 0, z: 0}
  m_Children: []
  m_Father: {fileID: 1806800732}
  m_RootOrder: 15
--- !u!1 &103393829
GameObject:
  m_ObjectHideFlags: 0
  m_PrefabParentObject: {fileID: 100088, guid: 1ce912aac112cfc408d5685f68b40e56, type: 2}
  m_PrefabInternal: {fileID: 728433630}
  serializedVersion: 4
  m_Component:
  - 4: {fileID: 103393830}
  m_Layer: 0
  m_Name: Merchant R Toe0Nub
  m_TagString: Untagged
  m_Icon: {fileID: 0}
  m_NavMeshLayer: 0
  m_StaticEditorFlags: 0
  m_IsActive: 1
--- !u!4 &103393830
Transform:
  m_ObjectHideFlags: 0
  m_PrefabParentObject: {fileID: 400088, guid: 1ce912aac112cfc408d5685f68b40e56, type: 2}
  m_PrefabInternal: {fileID: 728433630}
  m_GameObject: {fileID: 103393829}
  m_LocalRotation: {x: -1.697032e-30, y: 9.553441e-16, z: 1.776357e-15, w: 1}
  m_LocalPosition: {x: -0.103939325, y: -5.9604643e-10, z: 0}
  m_LocalScale: {x: 0.99999994, y: 1, z: 0.99999994}
  m_LocalEulerAnglesHint: {x: 0, y: 0, z: 0}
  m_Children: []
  m_Father: {fileID: 12507662}
  m_RootOrder: 0
--- !u!1 &193072810
GameObject:
  m_ObjectHideFlags: 0
  m_PrefabParentObject: {fileID: 100034, guid: 1ce912aac112cfc408d5685f68b40e56, type: 2}
  m_PrefabInternal: {fileID: 728433630}
  serializedVersion: 4
  m_Component:
  - 4: {fileID: 193072811}
  m_Layer: 0
  m_Name: Merchant Neck
  m_TagString: Untagged
  m_Icon: {fileID: 0}
  m_NavMeshLayer: 0
  m_StaticEditorFlags: 0
  m_IsActive: 1
--- !u!4 &193072811
Transform:
  m_ObjectHideFlags: 0
  m_PrefabParentObject: {fileID: 400034, guid: 1ce912aac112cfc408d5685f68b40e56, type: 2}
  m_PrefabInternal: {fileID: 728433630}
  m_GameObject: {fileID: 193072810}
  m_LocalRotation: {x: -4.2816787e-14, y: 0.00000018811842, z: -0.067824624, w: 0.9976973}
  m_LocalPosition: {x: -0.12295952, y: -0.0072876355, z: -0.0000000067615473}
  m_LocalScale: {x: 1.0000001, y: 1.0000001, z: 1}
  m_LocalEulerAnglesHint: {x: 0, y: 0, z: 0}
  m_Children:
  - {fileID: 1783829209}
  - {fileID: 1981864351}
  - {fileID: 754088421}
  m_Father: {fileID: 1280246668}
  m_RootOrder: 2
--- !u!1 &217816693
GameObject:
  m_ObjectHideFlags: 0
  m_PrefabParentObject: {fileID: 100050, guid: 1ce912aac112cfc408d5685f68b40e56, type: 2}
  m_PrefabInternal: {fileID: 728433630}
  serializedVersion: 4
  m_Component:
  - 4: {fileID: 217816694}
  m_Layer: 0
  m_Name: Merchant L Hand
  m_TagString: Untagged
  m_Icon: {fileID: 0}
  m_NavMeshLayer: 0
  m_StaticEditorFlags: 0
  m_IsActive: 1
--- !u!4 &217816694
Transform:
  m_ObjectHideFlags: 0
  m_PrefabParentObject: {fileID: 400050, guid: 1ce912aac112cfc408d5685f68b40e56, type: 2}
  m_PrefabInternal: {fileID: 728433630}
  m_GameObject: {fileID: 217816693}
  m_LocalRotation: {x: -0.70682526, y: 0.000000011857471, z: 0.000000009214903, w: 0.7073883}
  m_LocalPosition: {x: -0.23989105, y: -0.0000000023841857, z: 0}
  m_LocalScale: {x: 1.0000001, y: 1.0000001, z: 1}
  m_LocalEulerAnglesHint: {x: 0, y: 0, z: 0}
  m_Children: []
  m_Father: {fileID: 243125904}
  m_RootOrder: 0
--- !u!1 &243125903
GameObject:
  m_ObjectHideFlags: 0
  m_PrefabParentObject: {fileID: 100048, guid: 1ce912aac112cfc408d5685f68b40e56, type: 2}
  m_PrefabInternal: {fileID: 728433630}
  serializedVersion: 4
  m_Component:
  - 4: {fileID: 243125904}
  m_Layer: 0
  m_Name: Merchant L Forearm
  m_TagString: Untagged
  m_Icon: {fileID: 0}
  m_NavMeshLayer: 0
  m_StaticEditorFlags: 0
  m_IsActive: 1
--- !u!4 &243125904
Transform:
  m_ObjectHideFlags: 0
  m_PrefabParentObject: {fileID: 400048, guid: 1ce912aac112cfc408d5685f68b40e56, type: 2}
  m_PrefabInternal: {fileID: 728433630}
  m_GameObject: {fileID: 243125903}
  m_LocalRotation: {x: -9.660088e-10, y: -0.000000014986025, z: 0.05994742, w: 0.99820155}
  m_LocalPosition: {x: -0.20720527, y: 0, z: 0}
  m_LocalScale: {x: 0.9999999, y: 1.0000001, z: 1}
  m_LocalEulerAnglesHint: {x: 0, y: 0, z: 0}
  m_Children:
  - {fileID: 217816694}
  m_Father: {fileID: 1235395608}
  m_RootOrder: 0
--- !u!1 &328583721
GameObject:
  m_ObjectHideFlags: 0
  m_PrefabParentObject: {fileID: 100080, guid: 1ce912aac112cfc408d5685f68b40e56, type: 2}
  m_PrefabInternal: {fileID: 728433630}
  serializedVersion: 4
  m_Component:
  - 4: {fileID: 328583722}
  m_Layer: 0
  m_Name: Merchant R Thigh
  m_TagString: Untagged
  m_Icon: {fileID: 0}
  m_NavMeshLayer: 0
  m_StaticEditorFlags: 0
  m_IsActive: 1
--- !u!4 &328583722
Transform:
  m_ObjectHideFlags: 0
  m_PrefabParentObject: {fileID: 400080, guid: 1ce912aac112cfc408d5685f68b40e56, type: 2}
  m_PrefabInternal: {fileID: 728433630}
  m_GameObject: {fileID: 328583721}
  m_LocalRotation: {x: 0.09412166, y: 0.9955248, z: -0.0006817252, w: 0.008430117}
  m_LocalPosition: {x: 0.07741027, y: -0.0036613129, z: -0.08030294}
  m_LocalScale: {x: 1, y: 1, z: 1.0000001}
  m_LocalEulerAnglesHint: {x: 0, y: 0, z: 0}
  m_Children:
  - {fileID: 1487289243}
  m_Father: {fileID: 532458786}
  m_RootOrder: 1
--- !u!1 &374560761
GameObject:
  m_ObjectHideFlags: 0
  m_PrefabParentObject: {fileID: 100010, guid: 1ce912aac112cfc408d5685f68b40e56, type: 2}
  m_PrefabInternal: {fileID: 728433630}
  serializedVersion: 4
  m_Component:
  - 4: {fileID: 374560762}
  m_Layer: 0
  m_Name: Particle VieDSw 01
  m_TagString: Untagged
  m_Icon: {fileID: 0}
  m_NavMeshLayer: 0
  m_StaticEditorFlags: 0
  m_IsActive: 1
--- !u!4 &374560762
Transform:
  m_ObjectHideFlags: 0
  m_PrefabParentObject: {fileID: 400010, guid: 1ce912aac112cfc408d5685f68b40e56, type: 2}
  m_PrefabInternal: {fileID: 728433630}
  m_GameObject: {fileID: 374560761}
  m_LocalRotation: {x: 0.7071069, y: 0, z: 0, w: 0.70710677}
  m_LocalPosition: {x: 0.91522, y: 0.027692027, z: -0.029286861}
  m_LocalScale: {x: 0.589673, y: 0.589673, z: 0.589673}
  m_LocalEulerAnglesHint: {x: 0, y: 0, z: 0}
  m_Children: []
  m_Father: {fileID: 1806800732}
  m_RootOrder: 10
--- !u!1 &393939561
GameObject:
  m_ObjectHideFlags: 0
  m_PrefabParentObject: {fileID: 100006, guid: 1ce912aac112cfc408d5685f68b40e56, type: 2}
  m_PrefabInternal: {fileID: 728433630}
  serializedVersion: 4
  m_Component:
  - 4: {fileID: 393939562}
  m_Layer: 0
  m_Name: Particle View 01
  m_TagString: Untagged
  m_Icon: {fileID: 0}
  m_NavMeshLayer: 0
  m_StaticEditorFlags: 0
  m_IsActive: 1
--- !u!4 &393939562
Transform:
  m_ObjectHideFlags: 0
  m_PrefabParentObject: {fileID: 400006, guid: 1ce912aac112cfc408d5685f68b40e56, type: 2}
  m_PrefabInternal: {fileID: 728433630}
  m_GameObject: {fileID: 393939561}
  m_LocalRotation: {x: 0.7071069, y: 0, z: 0, w: 0.70710677}
  m_LocalPosition: {x: 1.5628489, y: 0.027692031, z: -0.01944334}
  m_LocalScale: {x: 0.589673, y: 0.589673, z: 0.589673}
  m_LocalEulerAnglesHint: {x: 0, y: 0, z: 0}
  m_Children: []
  m_Father: {fileID: 1806800732}
  m_RootOrder: 12
--- !u!1 &449827894
GameObject:
  m_ObjectHideFlags: 0
  m_PrefabParentObject: {fileID: 100040, guid: 1ce912aac112cfc408d5685f68b40e56, type: 2}
  m_PrefabInternal: {fileID: 728433630}
  serializedVersion: 4
  m_Component:
  - 4: {fileID: 449827895}
  m_Layer: 0
  m_Name: L_ear
  m_TagString: Untagged
  m_Icon: {fileID: 0}
  m_NavMeshLayer: 0
  m_StaticEditorFlags: 0
  m_IsActive: 1
--- !u!4 &449827895
Transform:
  m_ObjectHideFlags: 0
  m_PrefabParentObject: {fileID: 400040, guid: 1ce912aac112cfc408d5685f68b40e56, type: 2}
  m_PrefabInternal: {fileID: 728433630}
  m_GameObject: {fileID: 449827894}
  m_LocalRotation: {x: -0.70706403, y: 0.21502157, z: 0.0077077444, w: 0.67362213}
  m_LocalPosition: {x: -0.216147, y: -0.018709006, z: 0.070348665}
  m_LocalScale: {x: 1.0000001, y: 3.598766, z: 1}
  m_LocalEulerAnglesHint: {x: 0, y: 0, z: 0}
  m_Children: []
  m_Father: {fileID: 1783829209}
  m_RootOrder: 0
--- !u!1 &499747701
GameObject:
  m_ObjectHideFlags: 0
  m_PrefabParentObject: {fileID: 100098, guid: 1ce912aac112cfc408d5685f68b40e56, type: 2}
  m_PrefabInternal: {fileID: 728433630}
  serializedVersion: 4
  m_Component:
  - 4: {fileID: 499747702}
  m_Layer: 0
  m_Name: Object016
  m_TagString: Untagged
  m_Icon: {fileID: 0}
  m_NavMeshLayer: 0
  m_StaticEditorFlags: 0
  m_IsActive: 1
--- !u!4 &499747702
Transform:
  m_ObjectHideFlags: 0
  m_PrefabParentObject: {fileID: 400098, guid: 1ce912aac112cfc408d5685f68b40e56, type: 2}
  m_PrefabInternal: {fileID: 728433630}
  m_GameObject: {fileID: 499747701}
  m_LocalRotation: {x: -0.7071068, y: 0, z: -0, w: 0.7071068}
  m_LocalPosition: {x: 0, y: 1.5347222, z: -0.046826757}
  m_LocalScale: {x: 1, y: 1, z: 1}
  m_LocalEulerAnglesHint: {x: 0, y: 0, z: 0}
  m_Children: []
  m_Father: {fileID: 1806800732}
  m_RootOrder: 4
--- !u!1 &532202765
GameObject:
  m_ObjectHideFlags: 0
  m_PrefabParentObject: {fileID: 100076, guid: 1ce912aac112cfc408d5685f68b40e56, type: 2}
  m_PrefabInternal: {fileID: 728433630}
  serializedVersion: 4
  m_Component:
  - 4: {fileID: 532202766}
  m_Layer: 0
  m_Name: Merchant L Toe0
  m_TagString: Untagged
  m_Icon: {fileID: 0}
  m_NavMeshLayer: 0
  m_StaticEditorFlags: 0
  m_IsActive: 1
--- !u!4 &532202766
Transform:
  m_ObjectHideFlags: 0
  m_PrefabParentObject: {fileID: 400076, guid: 1ce912aac112cfc408d5685f68b40e56, type: 2}
  m_PrefabInternal: {fileID: 728433630}
  m_GameObject: {fileID: 532202765}
  m_LocalRotation: {x: -0.00000001545431, y: 0.00000001545431, z: -0.7071068, w: 0.7071068}
  m_LocalPosition: {x: -0.18232974, y: 0.10904718, z: 0}
  m_LocalScale: {x: 0.99999994, y: 1, z: 0.99999994}
  m_LocalEulerAnglesHint: {x: 0, y: 0, z: 0}
  m_Children:
  - {fileID: 1695356133}
  m_Father: {fileID: 1990940556}
  m_RootOrder: 0
--- !u!1 &532458785
GameObject:
  m_ObjectHideFlags: 0
  m_PrefabParentObject: {fileID: 100028, guid: 1ce912aac112cfc408d5685f68b40e56, type: 2}
  m_PrefabInternal: {fileID: 728433630}
  serializedVersion: 4
  m_Component:
  - 4: {fileID: 532458786}
  m_Layer: 0
  m_Name: Merchant Spine
  m_TagString: Untagged
  m_Icon: {fileID: 0}
  m_NavMeshLayer: 0
  m_StaticEditorFlags: 0
  m_IsActive: 1
--- !u!4 &532458786
Transform:
  m_ObjectHideFlags: 0
  m_PrefabParentObject: {fileID: 400028, guid: 1ce912aac112cfc408d5685f68b40e56, type: 2}
  m_PrefabInternal: {fileID: 728433630}
  m_GameObject: {fileID: 532458785}
  m_LocalRotation: {x: -0.0000020628597, y: 0.00000064201515, z: 0.024151752, w: 0.99970835}
  m_LocalPosition: {x: -0.0774968, y: -0.00008079171, z: 0.00000010758478}
  m_LocalScale: {x: 1, y: 1, z: 0.99999994}
  m_LocalEulerAnglesHint: {x: 0, y: 0, z: 0}
  m_Children:
  - {fileID: 1190500448}
  - {fileID: 328583722}
  - {fileID: 2117223480}
  - {fileID: 1230871172}
  m_Father: {fileID: 864527955}
  m_RootOrder: 0
--- !u!1 &599925172
GameObject:
  m_ObjectHideFlags: 0
  m_PrefabParentObject: {fileID: 100066, guid: 1ce912aac112cfc408d5685f68b40e56, type: 2}
  m_PrefabInternal: {fileID: 728433630}
  serializedVersion: 4
  m_Component:
  - 4: {fileID: 599925173}
  m_Layer: 0
  m_Name: M_bag02
  m_TagString: Untagged
  m_Icon: {fileID: 0}
  m_NavMeshLayer: 0
  m_StaticEditorFlags: 0
  m_IsActive: 1
--- !u!4 &599925173
Transform:
  m_ObjectHideFlags: 0
  m_PrefabParentObject: {fileID: 400066, guid: 1ce912aac112cfc408d5685f68b40e56, type: 2}
  m_PrefabInternal: {fileID: 728433630}
  m_GameObject: {fileID: 599925172}
  m_LocalRotation: {x: 0.000000020016781, y: 0.91586244, z: -0.000000008774879, w: 0.40149224}
  m_LocalPosition: {x: -0.30000007, y: 0, z: -0.000000076293944}
  m_LocalScale: {x: 1, y: 1, z: 1}
  m_LocalEulerAnglesHint: {x: 0, y: 0, z: 0}
  m_Children:
  - {fileID: 1204302624}
  m_Father: {fileID: 1375019719}
  m_RootOrder: 0
--- !u!1 &608052987
GameObject:
  m_ObjectHideFlags: 0
  m_PrefabParentObject: {fileID: 100012, guid: 1ce912aac112cfc408d5685f68b40e56, type: 2}
  m_PrefabInternal: {fileID: 728433630}
  serializedVersion: 4
  m_Component:
  - 4: {fileID: 608052988}
  m_Layer: 0
  m_Name: Particle VieADw 01
  m_TagString: Untagged
  m_Icon: {fileID: 0}
  m_NavMeshLayer: 0
  m_StaticEditorFlags: 0
  m_IsActive: 1
--- !u!4 &608052988
Transform:
  m_ObjectHideFlags: 0
  m_PrefabParentObject: {fileID: 400012, guid: 1ce912aac112cfc408d5685f68b40e56, type: 2}
  m_PrefabInternal: {fileID: 728433630}
  m_GameObject: {fileID: 608052987}
  m_LocalRotation: {x: 0.7071069, y: 0, z: 0, w: 0.70710677}
  m_LocalPosition: {x: -0.15712364, y: 0, z: 0.0060056397}
  m_LocalScale: {x: 1, y: 1, z: 1}
  m_LocalEulerAnglesHint: {x: 0, y: 0, z: 0}
  m_Children: []
  m_Father: {fileID: 1806800732}
  m_RootOrder: 9
--- !u!1 &645458201
GameObject:
  m_ObjectHideFlags: 0
  m_PrefabParentObject: {fileID: 100042, guid: 1ce912aac112cfc408d5685f68b40e56, type: 2}
  m_PrefabInternal: {fileID: 728433630}
  serializedVersion: 4
  m_Component:
  - 4: {fileID: 645458202}
  m_Layer: 0
  m_Name: R_ear
  m_TagString: Untagged
  m_Icon: {fileID: 0}
  m_NavMeshLayer: 0
  m_StaticEditorFlags: 0
  m_IsActive: 1
--- !u!4 &645458202
Transform:
  m_ObjectHideFlags: 0
  m_PrefabParentObject: {fileID: 400042, guid: 1ce912aac112cfc408d5685f68b40e56, type: 2}
  m_PrefabInternal: {fileID: 728433630}
  m_GameObject: {fileID: 645458201}
  m_LocalRotation: {x: 0.216484, y: 0.70708025, z: -0.6731524, w: 0.006171546}
  m_LocalPosition: {x: -0.216147, y: -0.018708806, z: -0.07267058}
  m_LocalScale: {x: -1, y: -3.5987659, z: -0.9999999}
  m_LocalEulerAnglesHint: {x: 0, y: 0, z: 0}
  m_Children: []
  m_Father: {fileID: 1783829209}
  m_RootOrder: 2
--- !u!1 &681327259
GameObject:
  m_ObjectHideFlags: 0
  m_PrefabParentObject: {fileID: 100096, guid: 1ce912aac112cfc408d5685f68b40e56, type: 2}
  m_PrefabInternal: {fileID: 728433630}
  serializedVersion: 4
  m_Component:
  - 4: {fileID: 681327260}
  m_Layer: 0
  m_Name: Merchant TailNub
  m_TagString: Untagged
  m_Icon: {fileID: 0}
  m_NavMeshLayer: 0
  m_StaticEditorFlags: 0
  m_IsActive: 1
--- !u!4 &681327260
Transform:
  m_ObjectHideFlags: 0
  m_PrefabParentObject: {fileID: 400096, guid: 1ce912aac112cfc408d5685f68b40e56, type: 2}
  m_PrefabInternal: {fileID: 728433630}
  m_GameObject: {fileID: 681327259}
  m_LocalRotation: {x: 0.7073883, y: -0.7068252, z: -0.0000009802253, w: -0.0000009810061}
  m_LocalPosition: {x: -0.42326453, y: 0, z: 1.4551915e-13}
  m_LocalScale: {x: 1.0000001, y: 1.0000001, z: 1}
  m_LocalEulerAnglesHint: {x: 0, y: 0, z: 0}
  m_Children: []
  m_Father: {fileID: 799184601}
  m_RootOrder: 0
--- !u!1001 &728433630
Prefab:
  m_ObjectHideFlags: 0
  serializedVersion: 2
  m_Modification:
    m_TransformParent: {fileID: 0}
    m_Modifications:
    - target: {fileID: 400106, guid: 1ce912aac112cfc408d5685f68b40e56, type: 2}
      propertyPath: m_LocalPosition.x
      value: 0
      objectReference: {fileID: 0}
    - target: {fileID: 400106, guid: 1ce912aac112cfc408d5685f68b40e56, type: 2}
      propertyPath: m_LocalPosition.y
      value: 0
      objectReference: {fileID: 0}
    - target: {fileID: 400106, guid: 1ce912aac112cfc408d5685f68b40e56, type: 2}
      propertyPath: m_LocalPosition.z
      value: 0
      objectReference: {fileID: 0}
    - target: {fileID: 400106, guid: 1ce912aac112cfc408d5685f68b40e56, type: 2}
      propertyPath: m_LocalRotation.x
      value: 0
      objectReference: {fileID: 0}
    - target: {fileID: 400106, guid: 1ce912aac112cfc408d5685f68b40e56, type: 2}
      propertyPath: m_LocalRotation.y
      value: 0
      objectReference: {fileID: 0}
    - target: {fileID: 400106, guid: 1ce912aac112cfc408d5685f68b40e56, type: 2}
      propertyPath: m_LocalRotation.z
      value: 0
      objectReference: {fileID: 0}
    - target: {fileID: 400106, guid: 1ce912aac112cfc408d5685f68b40e56, type: 2}
      propertyPath: m_LocalRotation.w
      value: 1
      objectReference: {fileID: 0}
    - target: {fileID: 11100000, guid: 1ce912aac112cfc408d5685f68b40e56, type: 2}
      propertyPath: m_Animation
      value: 
      objectReference: {fileID: 7400000, guid: 1b1ba3abc8af647429caf3eaaef04574, type: 3}
    - target: {fileID: 11100000, guid: 1ce912aac112cfc408d5685f68b40e56, type: 2}
      propertyPath: m_Animations.Array.size
      value: 6
      objectReference: {fileID: 0}
    - target: {fileID: 11100000, guid: 1ce912aac112cfc408d5685f68b40e56, type: 2}
      propertyPath: m_Animations.Array.data[0]
      value: 
      objectReference: {fileID: 7400000, guid: 1b1ba3abc8af647429caf3eaaef04574, type: 3}
    - target: {fileID: 11100000, guid: 1ce912aac112cfc408d5685f68b40e56, type: 2}
      propertyPath: m_Animations.Array.data[4]
      value: 
      objectReference: {fileID: 7400000, guid: 97ca074d5ea524e4f8db518bd0a9813b, type: 3}
    - target: {fileID: 11100000, guid: 1ce912aac112cfc408d5685f68b40e56, type: 2}
      propertyPath: m_Animations.Array.data[1]
      value: 
      objectReference: {fileID: 7400000, guid: 5b3618f8796f13340878e380d2294c83, type: 3}
    - target: {fileID: 11100000, guid: 1ce912aac112cfc408d5685f68b40e56, type: 2}
      propertyPath: m_Animations.Array.data[2]
      value: 
      objectReference: {fileID: 7400000, guid: 28c57e1ee1df4f44fac946cd58f48165, type: 3}
    - target: {fileID: 11100000, guid: 1ce912aac112cfc408d5685f68b40e56, type: 2}
      propertyPath: m_Animations.Array.data[3]
      value: 
      objectReference: {fileID: 7400000, guid: e1787ce659ae2744599b2624b6a0ef34, type: 3}
    - target: {fileID: 11100000, guid: 1ce912aac112cfc408d5685f68b40e56, type: 2}
      propertyPath: m_Animations.Array.data[5]
      value: 
      objectReference: {fileID: 7400000, guid: 7cfdc0b2d96ee9c469aa67ee9dad27d0, type: 3}
    - target: {fileID: 13700004, guid: 1ce912aac112cfc408d5685f68b40e56, type: 2}
      propertyPath: m_Quality
      value: 4
      objectReference: {fileID: 0}
    - target: {fileID: 13700000, guid: 1ce912aac112cfc408d5685f68b40e56, type: 2}
      propertyPath: m_Quality
      value: 4
      objectReference: {fileID: 0}
    - target: {fileID: 13700002, guid: 1ce912aac112cfc408d5685f68b40e56, type: 2}
      propertyPath: m_Quality
      value: 4
      objectReference: {fileID: 0}
    - target: {fileID: 13700006, guid: 1ce912aac112cfc408d5685f68b40e56, type: 2}
      propertyPath: m_Quality
      value: 4
      objectReference: {fileID: 0}
    - target: {fileID: 13700008, guid: 1ce912aac112cfc408d5685f68b40e56, type: 2}
      propertyPath: m_Quality
      value: 4
      objectReference: {fileID: 0}
    - target: {fileID: 13700010, guid: 1ce912aac112cfc408d5685f68b40e56, type: 2}
      propertyPath: m_Quality
      value: 4
      objectReference: {fileID: 0}
    m_RemovedComponents: []
  m_ParentPrefab: {fileID: 100100000, guid: 1ce912aac112cfc408d5685f68b40e56, type: 2}
  m_RootGameObject: {fileID: 1806800731}
  m_IsPrefabParent: 0
--- !u!1 &754088420
GameObject:
  m_ObjectHideFlags: 0
  m_PrefabParentObject: {fileID: 100052, guid: 1ce912aac112cfc408d5685f68b40e56, type: 2}
  m_PrefabInternal: {fileID: 728433630}
  serializedVersion: 4
  m_Component:
  - 4: {fileID: 754088421}
  m_Layer: 0
  m_Name: Merchant R Clavicle
  m_TagString: Untagged
  m_Icon: {fileID: 0}
  m_NavMeshLayer: 0
  m_StaticEditorFlags: 0
  m_IsActive: 1
--- !u!4 &754088421
Transform:
  m_ObjectHideFlags: 0
  m_PrefabParentObject: {fileID: 400052, guid: 1ce912aac112cfc408d5685f68b40e56, type: 2}
  m_PrefabInternal: {fileID: 728433630}
  m_GameObject: {fileID: 754088420}
  m_LocalRotation: {x: 0.6565911, y: 0.14052078, z: 0.740179, w: 0.03573596}
  m_LocalPosition: {x: 0.004779358, y: 0.008008213, z: -0.028801778}
  m_LocalScale: {x: 1, y: 0.99999994, z: 1}
  m_LocalEulerAnglesHint: {x: 0, y: 0, z: 0}
  m_Children:
  - {fileID: 1300321061}
  m_Father: {fileID: 193072811}
  m_RootOrder: 2
--- !u!1 &791422797
GameObject:
  m_ObjectHideFlags: 0
  m_PrefabParentObject: {fileID: 100102, guid: 1ce912aac112cfc408d5685f68b40e56, type: 2}
  m_PrefabInternal: {fileID: 728433630}
  serializedVersion: 4
  m_Component:
  - 4: {fileID: 791422798}
  - 137: {fileID: 791422799}
  m_Layer: 0
  m_Name: Object018
  m_TagString: Untagged
  m_Icon: {fileID: 0}
  m_NavMeshLayer: 0
  m_StaticEditorFlags: 0
  m_IsActive: 1
--- !u!4 &791422798
Transform:
  m_ObjectHideFlags: 0
  m_PrefabParentObject: {fileID: 400102, guid: 1ce912aac112cfc408d5685f68b40e56, type: 2}
  m_PrefabInternal: {fileID: 728433630}
  m_GameObject: {fileID: 791422797}
  m_LocalRotation: {x: -0.7071068, y: 0, z: -0, w: 0.7071068}
  m_LocalPosition: {x: -1.1844037e-10, y: 1.5634166, z: 0.08281636}
  m_LocalScale: {x: 1, y: 1, z: 1}
  m_LocalEulerAnglesHint: {x: 0, y: 0, z: 0}
  m_Children: []
  m_Father: {fileID: 1806800732}
  m_RootOrder: 6
--- !u!137 &791422799
SkinnedMeshRenderer:
  m_ObjectHideFlags: 0
  m_PrefabParentObject: {fileID: 13700008, guid: 1ce912aac112cfc408d5685f68b40e56,
    type: 2}
  m_PrefabInternal: {fileID: 728433630}
  m_GameObject: {fileID: 791422797}
  m_Enabled: 1
  m_CastShadows: 1
  m_ReceiveShadows: 1
  m_MotionVectors: 1
  m_LightProbeUsage: 0
  m_ReflectionProbeUsage: 1
  m_Materials:
  - {fileID: 2100000, guid: 33fe0076a00c01543837d8e7fb0e33b6, type: 2}
  m_SubsetIndices: 
  m_StaticBatchRoot: {fileID: 0}
  m_ProbeAnchor: {fileID: 0}
  m_LightProbeVolumeOverride: {fileID: 0}
  m_ScaleInLightmap: 1
  m_PreserveUVs: 0
  m_IgnoreNormalsForChartDetection: 0
  m_ImportantGI: 0
  m_SelectedWireframeHidden: 0
  m_MinimumChartSize: 4
  m_AutoUVMaxDistance: 0.5
  m_AutoUVMaxAngle: 89
  m_LightmapParameters: {fileID: 0}
  m_SortingLayerID: 0
  m_SortingOrder: 0
  serializedVersion: 2
  m_Quality: 4
  m_UpdateWhenOffscreen: 0
  m_SkinnedMotionVectors: 1
  m_Mesh: {fileID: 4300008, guid: d9399e58d9da71f40ad89c9a0728a0e1, type: 3}
  m_Bones:
  - {fileID: 1230871172}
  - {fileID: 900518975}
  - {fileID: 864527955}
  - {fileID: 799184601}
  m_BlendShapeWeights: []
  m_RootBone: {fileID: 864527955}
  m_AABB:
    m_Center: {x: 0.3430671, y: -0.2846632, z: 0.00000040233135}
    m_Extent: {x: 0.40525025, y: 0.29343593, z: 0.23549025}
  m_DirtyAABB: 0
--- !u!1 &799184600
GameObject:
  m_ObjectHideFlags: 0
  m_PrefabParentObject: {fileID: 100094, guid: 1ce912aac112cfc408d5685f68b40e56, type: 2}
  m_PrefabInternal: {fileID: 728433630}
  serializedVersion: 4
  m_Component:
  - 4: {fileID: 799184601}
  m_Layer: 0
  m_Name: Merchant Tail2
  m_TagString: Untagged
  m_Icon: {fileID: 0}
  m_NavMeshLayer: 0
  m_StaticEditorFlags: 0
  m_IsActive: 1
--- !u!4 &799184601
Transform:
  m_ObjectHideFlags: 0
  m_PrefabParentObject: {fileID: 400094, guid: 1ce912aac112cfc408d5685f68b40e56, type: 2}
  m_PrefabInternal: {fileID: 728433630}
  m_GameObject: {fileID: 799184600}
  m_LocalRotation: {x: -2.3969593e-13, y: -0.0000007680157, z: 0.27690205, w: 0.96089816}
  m_LocalPosition: {x: -0.25375378, y: -0.00028518678, z: -7.913331e-10}
  m_LocalScale: {x: 0.9999999, y: 0.9999999, z: 1}
  m_LocalEulerAnglesHint: {x: 0, y: 0, z: 0}
  m_Children:
  - {fileID: 681327260}
  m_Father: {fileID: 900518975}
  m_RootOrder: 0
--- !u!1 &858572330
GameObject:
  m_ObjectHideFlags: 0
  m_PrefabParentObject: {fileID: 100018, guid: 1ce912aac112cfc408d5685f68b40e56, type: 2}
  m_PrefabInternal: {fileID: 728433630}
  serializedVersion: 4
  m_Component:
  - 4: {fileID: 858572331}
  - 137: {fileID: 858572332}
  m_Layer: 0
  m_Name: Object015
  m_TagString: Untagged
  m_Icon: {fileID: 0}
  m_NavMeshLayer: 0
  m_StaticEditorFlags: 0
  m_IsActive: 1
--- !u!4 &858572331
Transform:
  m_ObjectHideFlags: 0
  m_PrefabParentObject: {fileID: 400018, guid: 1ce912aac112cfc408d5685f68b40e56, type: 2}
  m_PrefabInternal: {fileID: 728433630}
  m_GameObject: {fileID: 858572330}
  m_LocalRotation: {x: -0.7071068, y: 0, z: -0, w: 0.7071068}
  m_LocalPosition: {x: 0, y: 1.5347222, z: -0.045311265}
  m_LocalScale: {x: 1, y: 1, z: 1}
  m_LocalEulerAnglesHint: {x: 0, y: 0, z: 0}
  m_Children: []
  m_Father: {fileID: 1806800732}
  m_RootOrder: 3
--- !u!137 &858572332
SkinnedMeshRenderer:
  m_ObjectHideFlags: 0
  m_PrefabParentObject: {fileID: 13700002, guid: 1ce912aac112cfc408d5685f68b40e56,
    type: 2}
  m_PrefabInternal: {fileID: 728433630}
  m_GameObject: {fileID: 858572330}
  m_Enabled: 1
  m_CastShadows: 1
  m_ReceiveShadows: 1
  m_MotionVectors: 1
  m_LightProbeUsage: 0
  m_ReflectionProbeUsage: 1
  m_Materials:
  - {fileID: 2100000, guid: 24318b9e635469743a9393ae2f2e930b, type: 2}
  m_SubsetIndices: 
  m_StaticBatchRoot: {fileID: 0}
  m_ProbeAnchor: {fileID: 0}
  m_LightProbeVolumeOverride: {fileID: 0}
  m_ScaleInLightmap: 1
  m_PreserveUVs: 0
  m_IgnoreNormalsForChartDetection: 0
  m_ImportantGI: 0
  m_SelectedWireframeHidden: 0
  m_MinimumChartSize: 4
  m_AutoUVMaxDistance: 0.5
  m_AutoUVMaxAngle: 89
  m_LightmapParameters: {fileID: 0}
  m_SortingLayerID: 0
  m_SortingOrder: 0
  serializedVersion: 2
  m_Quality: 4
  m_UpdateWhenOffscreen: 0
  m_SkinnedMotionVectors: 1
  m_Mesh: {fileID: 4300002, guid: d9399e58d9da71f40ad89c9a0728a0e1, type: 3}
  m_Bones:
  - {fileID: 1783829209}
  - {fileID: 1280246668}
  - {fileID: 193072811}
  m_BlendShapeWeights: []
  m_RootBone: {fileID: 1280246668}
  m_AABB:
    m_Center: {x: -0.28210294, y: 0.04643576, z: 0.00000027567148}
    m_Extent: {x: 0.13864964, y: 0.12009372, z: 0.090937704}
  m_DirtyAABB: 0
--- !u!1 &864527954
GameObject:
  m_ObjectHideFlags: 0
  m_PrefabParentObject: {fileID: 100026, guid: 1ce912aac112cfc408d5685f68b40e56, type: 2}
  m_PrefabInternal: {fileID: 728433630}
  serializedVersion: 4
  m_Component:
  - 4: {fileID: 864527955}
  m_Layer: 0
  m_Name: Merchant Pelvis
  m_TagString: Untagged
  m_Icon: {fileID: 0}
  m_NavMeshLayer: 0
  m_StaticEditorFlags: 0
  m_IsActive: 1
--- !u!4 &864527955
Transform:
  m_ObjectHideFlags: 0
  m_PrefabParentObject: {fileID: 400026, guid: 1ce912aac112cfc408d5685f68b40e56, type: 2}
  m_PrefabInternal: {fileID: 728433630}
  m_GameObject: {fileID: 864527954}
  m_LocalRotation: {x: -0.49999964, y: 0.50000036, z: 0.49999964, w: 0.50000036}
  m_LocalPosition: {x: -0, y: 0, z: 0}
  m_LocalScale: {x: 1, y: 0.99999994, z: 0.99999994}
  m_LocalEulerAnglesHint: {x: 0, y: 0, z: 0}
  m_Children:
  - {fileID: 532458786}
  m_Father: {fileID: 1204437044}
  m_RootOrder: 1
--- !u!1 &886690506
GameObject:
  m_ObjectHideFlags: 0
  m_PrefabParentObject: {fileID: 100084, guid: 1ce912aac112cfc408d5685f68b40e56, type: 2}
  m_PrefabInternal: {fileID: 728433630}
  serializedVersion: 4
  m_Component:
  - 4: {fileID: 886690507}
  m_Layer: 0
  m_Name: Merchant R Foot
  m_TagString: Untagged
  m_Icon: {fileID: 0}
  m_NavMeshLayer: 0
  m_StaticEditorFlags: 0
  m_IsActive: 1
--- !u!4 &886690507
Transform:
  m_ObjectHideFlags: 0
  m_PrefabParentObject: {fileID: 400084, guid: 1ce912aac112cfc408d5685f68b40e56, type: 2}
  m_PrefabInternal: {fileID: 728433630}
  m_GameObject: {fileID: 886690506}
  m_LocalRotation: {x: -0.00047346615, y: 0.008444648, z: -0.070739344, w: 0.997459}
  m_LocalPosition: {x: -0.41145405, y: 0.000000009536743, z: 0}
  m_LocalScale: {x: 1.0000001, y: 1.0000001, z: 1.0000001}
  m_LocalEulerAnglesHint: {x: 0, y: 0, z: 0}
  m_Children:
  - {fileID: 12507662}
  m_Father: {fileID: 1487289243}
  m_RootOrder: 0
--- !u!1 &900518974
GameObject:
  m_ObjectHideFlags: 0
  m_PrefabParentObject: {fileID: 100092, guid: 1ce912aac112cfc408d5685f68b40e56, type: 2}
  m_PrefabInternal: {fileID: 728433630}
  serializedVersion: 4
  m_Component:
  - 4: {fileID: 900518975}
  m_Layer: 0
  m_Name: Merchant Tail1
  m_TagString: Untagged
  m_Icon: {fileID: 0}
  m_NavMeshLayer: 0
  m_StaticEditorFlags: 0
  m_IsActive: 1
--- !u!4 &900518975
Transform:
  m_ObjectHideFlags: 0
  m_PrefabParentObject: {fileID: 400092, guid: 1ce912aac112cfc408d5685f68b40e56, type: 2}
  m_PrefabInternal: {fileID: 728433630}
  m_GameObject: {fileID: 900518974}
  m_LocalRotation: {x: -8.730637e-14, y: 0.00000041227636, z: -0.14864302, w: 0.98889095}
  m_LocalPosition: {x: -0.10703751, y: -0.000193367, z: -5.3623805e-10}
  m_LocalScale: {x: 1.0000001, y: 1.0000001, z: 1}
  m_LocalEulerAnglesHint: {x: 0, y: 0, z: 0}
  m_Children:
  - {fileID: 799184601}
  m_Father: {fileID: 1230871172}
  m_RootOrder: 0
--- !u!1 &980558147
GameObject:
  m_ObjectHideFlags: 0
  m_PrefabParentObject: {fileID: 100104, guid: 1ce912aac112cfc408d5685f68b40e56, type: 2}
  m_PrefabInternal: {fileID: 728433630}
  serializedVersion: 4
  m_Component:
  - 4: {fileID: 980558148}
  - 137: {fileID: 980558149}
  m_Layer: 0
  m_Name: Object019
  m_TagString: Untagged
  m_Icon: {fileID: 0}
  m_NavMeshLayer: 0
  m_StaticEditorFlags: 0
  m_IsActive: 1
--- !u!4 &980558148
Transform:
  m_ObjectHideFlags: 0
  m_PrefabParentObject: {fileID: 400104, guid: 1ce912aac112cfc408d5685f68b40e56, type: 2}
  m_PrefabInternal: {fileID: 728433630}
  m_GameObject: {fileID: 980558147}
  m_LocalRotation: {x: -0.7071068, y: 0, z: -0, w: 0.7071068}
  m_LocalPosition: {x: -1.1844037e-10, y: 1.5634166, z: 0.08281636}
  m_LocalScale: {x: 1, y: 1, z: 1}
  m_LocalEulerAnglesHint: {x: 0, y: 0, z: 0}
  m_Children: []
  m_Father: {fileID: 1806800732}
  m_RootOrder: 7
--- !u!137 &980558149
SkinnedMeshRenderer:
  m_ObjectHideFlags: 0
  m_PrefabParentObject: {fileID: 13700010, guid: 1ce912aac112cfc408d5685f68b40e56,
    type: 2}
  m_PrefabInternal: {fileID: 728433630}
  m_GameObject: {fileID: 980558147}
  m_Enabled: 1
  m_CastShadows: 1
  m_ReceiveShadows: 1
  m_MotionVectors: 1
  m_LightProbeUsage: 0
  m_ReflectionProbeUsage: 1
  m_Materials:
  - {fileID: 2100000, guid: 33fe0076a00c01543837d8e7fb0e33b6, type: 2}
  m_SubsetIndices: 
  m_StaticBatchRoot: {fileID: 0}
  m_ProbeAnchor: {fileID: 0}
  m_LightProbeVolumeOverride: {fileID: 0}
  m_ScaleInLightmap: 1
  m_PreserveUVs: 0
  m_IgnoreNormalsForChartDetection: 0
  m_ImportantGI: 0
  m_SelectedWireframeHidden: 0
  m_MinimumChartSize: 4
  m_AutoUVMaxDistance: 0.5
  m_AutoUVMaxAngle: 89
  m_LightmapParameters: {fileID: 0}
  m_SortingLayerID: 0
  m_SortingOrder: 0
  serializedVersion: 2
  m_Quality: 4
  m_UpdateWhenOffscreen: 0
  m_SkinnedMotionVectors: 1
  m_Mesh: {fileID: 4300010, guid: d9399e58d9da71f40ad89c9a0728a0e1, type: 3}
  m_Bones:
  - {fileID: 449827895}
  - {fileID: 645458202}
  - {fileID: 1783829209}
  m_BlendShapeWeights: []
  m_RootBone: {fileID: 1783829209}
  m_AABB:
    m_Center: {x: -0.34257075, y: 0.031187236, z: -0.00000059604645}
    m_Extent: {x: 0.20147178, y: 0.08655083, z: 0.21813446}
  m_DirtyAABB: 0
--- !u!1 &1002193760
GameObject:
  m_ObjectHideFlags: 0
  m_PrefabParentObject: {fileID: 0}
  m_PrefabInternal: {fileID: 0}
  serializedVersion: 4
  m_Component:
  - 4: {fileID: 1002193761}
  - 20: {fileID: 1002193762}
  - 92: {fileID: 1002193764}
  - 124: {fileID: 1002193765}
  - 81: {fileID: 1002193763}
  - 114: {fileID: 1002193767}
  - 114: {fileID: 1002193766}
  m_Layer: 0
  m_Name: Main Camera
  m_TagString: MainCamera
  m_Icon: {fileID: 0}
  m_NavMeshLayer: 0
  m_StaticEditorFlags: 0
  m_IsActive: 1
--- !u!4 &1002193761
Transform:
  m_ObjectHideFlags: 0
  m_PrefabParentObject: {fileID: 0}
  m_PrefabInternal: {fileID: 0}
  m_GameObject: {fileID: 1002193760}
  m_LocalRotation: {x: 0.00762974, y: 0.99201924, z: -0.10124892, w: -0.07475493}
  m_LocalPosition: {x: 0.5558802, y: 2.0203319, z: 4.542149}
  m_LocalScale: {x: 1, y: 1, z: 1}
  m_LocalEulerAnglesHint: {x: 0, y: 0, z: 0}
  m_Children: []
  m_Father: {fileID: 0}
  m_RootOrder: 0
--- !u!20 &1002193762
Camera:
  m_ObjectHideFlags: 0
  m_PrefabParentObject: {fileID: 0}
  m_PrefabInternal: {fileID: 0}
  m_GameObject: {fileID: 1002193760}
  m_Enabled: 1
  serializedVersion: 2
  m_ClearFlags: 1
  m_BackGroundColor: {r: 0.092670955, g: 0.09436027, b: 0.097014904, a: 0.019607844}
  m_NormalizedViewPortRect:
    serializedVersion: 2
    x: 0
    y: 0
    width: 1
    height: 1
  near clip plane: 0.3
  far clip plane: 1000
  field of view: 27.626778
  orthographic: 0
  orthographic size: 100
  m_Depth: -1
  m_CullingMask:
    serializedVersion: 2
    m_Bits: 4294967295
  m_RenderingPath: -1
  m_TargetTexture: {fileID: 0}
  m_TargetDisplay: 0
  m_TargetEye: 3
  m_HDR: 0
  m_OcclusionCulling: 1
  m_StereoConvergence: 10
  m_StereoSeparation: 0.022
  m_StereoMirrorMode: 0
--- !u!81 &1002193763
AudioListener:
  m_ObjectHideFlags: 0
  m_PrefabParentObject: {fileID: 0}
  m_PrefabInternal: {fileID: 0}
  m_GameObject: {fileID: 1002193760}
  m_Enabled: 1
--- !u!92 &1002193764
Behaviour:
  m_ObjectHideFlags: 0
  m_PrefabParentObject: {fileID: 0}
  m_PrefabInternal: {fileID: 0}
  m_GameObject: {fileID: 1002193760}
  m_Enabled: 1
--- !u!124 &1002193765
Behaviour:
  m_ObjectHideFlags: 0
  m_PrefabParentObject: {fileID: 0}
  m_PrefabInternal: {fileID: 0}
  m_GameObject: {fileID: 1002193760}
  m_Enabled: 1
--- !u!114 &1002193766
MonoBehaviour:
  m_ObjectHideFlags: 0
  m_PrefabParentObject: {fileID: 0}
  m_PrefabInternal: {fileID: 0}
  m_GameObject: {fileID: 1002193760}
  m_Enabled: 1
  m_EditorHideFlags: 0
  m_Script: {fileID: 11500000, guid: 9510a9105623f48489803c4207b14594, type: 3}
  m_Name: 
  m_EditorClassIdentifier: 
  guiObject: {fileID: 1806800731}
--- !u!114 &1002193767
MonoBehaviour:
  m_ObjectHideFlags: 0
  m_PrefabParentObject: {fileID: 0}
  m_PrefabInternal: {fileID: 0}
  m_GameObject: {fileID: 1002193760}
  m_Enabled: 1
  m_EditorHideFlags: 0
  m_Script: {fileID: 11500000, guid: 4afc52a580b24624ea257b886faff589, type: 3}
  m_Name: 
  m_EditorClassIdentifier: 
  frog: {fileID: 1806800731}
  gameObjArray:
  - {fileID: 0}
  - {fileID: 0}
  - {fileID: 0}
  - {fileID: 0}
  - {fileID: 0}
  - {fileID: 0}
  - {fileID: 0}
  - {fileID: 0}
  - {fileID: 0}
  - {fileID: 0}
  AniList:
  - {fileID: 7400000, guid: 1b1ba3abc8af647429caf3eaaef04574, type: 3}
  - {fileID: 7400000, guid: 5b3618f8796f13340878e380d2294c83, type: 3}
  - {fileID: 7400000, guid: 28c57e1ee1df4f44fac946cd58f48165, type: 3}
  - {fileID: 7400000, guid: e1787ce659ae2744599b2624b6a0ef34, type: 3}
  - {fileID: 7400000, guid: 97ca074d5ea524e4f8db518bd0a9813b, type: 3}
  - {fileID: 7400000, guid: 7cfdc0b2d96ee9c469aa67ee9dad27d0, type: 3}
--- !u!1 &1005808452
GameObject:
  m_ObjectHideFlags: 0
  m_PrefabParentObject: {fileID: 100058, guid: 1ce912aac112cfc408d5685f68b40e56, type: 2}
  m_PrefabInternal: {fileID: 728433630}
  serializedVersion: 4
  m_Component:
  - 4: {fileID: 1005808453}
  m_Layer: 0
  m_Name: Merchant R Hand
  m_TagString: Untagged
  m_Icon: {fileID: 0}
  m_NavMeshLayer: 0
  m_StaticEditorFlags: 0
  m_IsActive: 1
--- !u!4 &1005808453
Transform:
  m_ObjectHideFlags: 0
  m_PrefabParentObject: {fileID: 400058, guid: 1ce912aac112cfc408d5685f68b40e56, type: 2}
  m_PrefabInternal: {fileID: 728433630}
  m_GameObject: {fileID: 1005808452}
  m_LocalRotation: {x: 0.70682526, y: -0.000000009224343, z: 0.000000011850131, w: 0.7073883}
  m_LocalPosition: {x: -0.23989098, y: -0.0000000023841857, z: 0}
  m_LocalScale: {x: 1, y: 1.0000001, z: 1.0000001}
  m_LocalEulerAnglesHint: {x: 0, y: 0, z: 0}
  m_Children: []
  m_Father: {fileID: 1747797281}
  m_RootOrder: 0
--- !u!1 &1070375605
GameObject:
  m_ObjectHideFlags: 0
  m_PrefabParentObject: {fileID: 100016, guid: 1ce912aac112cfc408d5685f68b40e56, type: 2}
  m_PrefabInternal: {fileID: 728433630}
  serializedVersion: 4
  m_Component:
  - 4: {fileID: 1070375606}
  - 137: {fileID: 1070375607}
  m_Layer: 0
  m_Name: Object01
  m_TagString: Untagged
  m_Icon: {fileID: 0}
  m_NavMeshLayer: 0
  m_StaticEditorFlags: 0
  m_IsActive: 1
--- !u!4 &1070375606
Transform:
  m_ObjectHideFlags: 0
  m_PrefabParentObject: {fileID: 400016, guid: 1ce912aac112cfc408d5685f68b40e56, type: 2}
  m_PrefabInternal: {fileID: 728433630}
  m_GameObject: {fileID: 1070375605}
  m_LocalRotation: {x: -0.7071068, y: 0, z: -0, w: 0.7071068}
  m_LocalPosition: {x: -1.1844037e-10, y: 1.5634166, z: 0.08281636}
  m_LocalScale: {x: 1, y: 1, z: 1}
  m_LocalEulerAnglesHint: {x: 0, y: 0, z: 0}
  m_Children: []
  m_Father: {fileID: 1806800732}
  m_RootOrder: 2
--- !u!137 &1070375607
SkinnedMeshRenderer:
  m_ObjectHideFlags: 0
  m_PrefabParentObject: {fileID: 13700000, guid: 1ce912aac112cfc408d5685f68b40e56,
    type: 2}
  m_PrefabInternal: {fileID: 728433630}
  m_GameObject: {fileID: 1070375605}
  m_Enabled: 1
  m_CastShadows: 1
  m_ReceiveShadows: 1
  m_MotionVectors: 1
  m_LightProbeUsage: 0
  m_ReflectionProbeUsage: 1
  m_Materials:
  - {fileID: 2100000, guid: 33fe0076a00c01543837d8e7fb0e33b6, type: 2}
  m_SubsetIndices: 
  m_StaticBatchRoot: {fileID: 0}
  m_ProbeAnchor: {fileID: 0}
  m_LightProbeVolumeOverride: {fileID: 0}
  m_ScaleInLightmap: 1
  m_PreserveUVs: 0
  m_IgnoreNormalsForChartDetection: 0
  m_ImportantGI: 0
  m_SelectedWireframeHidden: 0
  m_MinimumChartSize: 4
  m_AutoUVMaxDistance: 0.5
  m_AutoUVMaxAngle: 89
  m_LightmapParameters: {fileID: 0}
  m_SortingLayerID: 0
  m_SortingOrder: 0
  serializedVersion: 2
  m_Quality: 4
  m_UpdateWhenOffscreen: 0
  m_SkinnedMotionVectors: 1
  m_Mesh: {fileID: 4300000, guid: d9399e58d9da71f40ad89c9a0728a0e1, type: 3}
  m_Bones:
  - {fileID: 1783829209}
  - {fileID: 1280246668}
  m_BlendShapeWeights: []
  m_RootBone: {fileID: 1280246668}
  m_AABB:
    m_Center: {x: -0.28984568, y: 0.03480901, z: 0.0000002682209}
    m_Extent: {x: 0.17952195, y: 0.16113432, z: 0.15299836}
  m_DirtyAABB: 0
--- !u!1 &1183929071
GameObject:
  m_ObjectHideFlags: 0
  m_PrefabParentObject: {fileID: 100038, guid: 1ce912aac112cfc408d5685f68b40e56, type: 2}
  m_PrefabInternal: {fileID: 728433630}
  serializedVersion: 4
  m_Component:
  - 4: {fileID: 1183929072}
  m_Layer: 0
  m_Name: Merchant HeadNub
  m_TagString: Untagged
  m_Icon: {fileID: 0}
  m_NavMeshLayer: 0
  m_StaticEditorFlags: 0
  m_IsActive: 1
--- !u!4 &1183929072
Transform:
  m_ObjectHideFlags: 0
  m_PrefabParentObject: {fileID: 400038, guid: 1ce912aac112cfc408d5685f68b40e56, type: 2}
  m_PrefabInternal: {fileID: 728433630}
  m_GameObject: {fileID: 1183929071}
  m_LocalRotation: {x: -4.1174657e-20, y: -3.3881318e-21, z: -1.39505e-40, w: 1}
  m_LocalPosition: {x: -0.26054108, y: 0, z: 1.8189894e-14}
  m_LocalScale: {x: 1, y: 0.99999994, z: 0.99999994}
  m_LocalEulerAnglesHint: {x: 0, y: 0, z: 0}
  m_Children: []
  m_Father: {fileID: 1783829209}
  m_RootOrder: 1
--- !u!1 &1190500447
GameObject:
  m_ObjectHideFlags: 0
  m_PrefabParentObject: {fileID: 100070, guid: 1ce912aac112cfc408d5685f68b40e56, type: 2}
  m_PrefabInternal: {fileID: 728433630}
  serializedVersion: 4
  m_Component:
  - 4: {fileID: 1190500448}
  m_Layer: 0
  m_Name: Merchant L Thigh
  m_TagString: Untagged
  m_Icon: {fileID: 0}
  m_NavMeshLayer: 0
  m_StaticEditorFlags: 0
  m_IsActive: 1
--- !u!4 &1190500448
Transform:
  m_ObjectHideFlags: 0
  m_PrefabParentObject: {fileID: 400070, guid: 1ce912aac112cfc408d5685f68b40e56, type: 2}
  m_PrefabInternal: {fileID: 728433630}
  m_GameObject: {fileID: 1190500447}
  m_LocalRotation: {x: 0.09412162, y: 0.9955248, z: 0.00068447745, w: -0.008430534}
  m_LocalPosition: {x: 0.07741027, y: -0.0036617564, z: 0.080302924}
  m_LocalScale: {x: 1, y: 1, z: 1.0000001}
  m_LocalEulerAnglesHint: {x: 0, y: 0, z: 0}
  m_Children:
  - {fileID: 1272061942}
  m_Father: {fileID: 532458786}
  m_RootOrder: 0
--- !u!1 &1204302623
GameObject:
  m_ObjectHideFlags: 0
  m_PrefabParentObject: {fileID: 100068, guid: 1ce912aac112cfc408d5685f68b40e56, type: 2}
  m_PrefabInternal: {fileID: 728433630}
  serializedVersion: 4
  m_Component:
  - 4: {fileID: 1204302624}
  m_Layer: 0
  m_Name: M_bag_end
  m_TagString: Untagged
  m_Icon: {fileID: 0}
  m_NavMeshLayer: 0
  m_StaticEditorFlags: 0
  m_IsActive: 1
--- !u!4 &1204302624
Transform:
  m_ObjectHideFlags: 0
  m_PrefabParentObject: {fileID: 400068, guid: 1ce912aac112cfc408d5685f68b40e56, type: 2}
  m_PrefabInternal: {fileID: 728433630}
  m_GameObject: {fileID: 1204302623}
  m_LocalRotation: {x: 0, y: 0, z: -1.4210853e-14, w: 1}
  m_LocalPosition: {x: -0.50408196, y: -3.6379787e-14, z: 0.000000019073486}
  m_LocalScale: {x: 1.0000001, y: 1, z: 1.0000001}
  m_LocalEulerAnglesHint: {x: 0, y: 0, z: 0}
  m_Children: []
  m_Father: {fileID: 599925173}
  m_RootOrder: 0
--- !u!1 &1204437043
GameObject:
  m_ObjectHideFlags: 0
  m_PrefabParentObject: {fileID: 100022, guid: 1ce912aac112cfc408d5685f68b40e56, type: 2}
  m_PrefabInternal: {fileID: 728433630}
  serializedVersion: 4
  m_Component:
  - 4: {fileID: 1204437044}
  m_Layer: 0
  m_Name: Merchant
  m_TagString: Untagged
  m_Icon: {fileID: 0}
  m_NavMeshLayer: 0
  m_StaticEditorFlags: 0
  m_IsActive: 1
--- !u!4 &1204437044
Transform:
  m_ObjectHideFlags: 0
  m_PrefabParentObject: {fileID: 400022, guid: 1ce912aac112cfc408d5685f68b40e56, type: 2}
  m_PrefabInternal: {fileID: 728433630}
  m_GameObject: {fileID: 1204437043}
  m_LocalRotation: {x: -0.5, y: 0.5, z: 0.5, w: 0.5}
  m_LocalPosition: {x: 0, y: 0.9687558, z: 0.013590996}
  m_LocalScale: {x: 0.99999994, y: 0.99999994, z: 1}
  m_LocalEulerAnglesHint: {x: 0, y: 0, z: 0}
  m_Children:
  - {fileID: 1760635489}
  - {fileID: 864527955}
  m_Father: {fileID: 1806800732}
  m_RootOrder: 0
--- !u!1 &1208025968
GameObject:
  m_ObjectHideFlags: 0
  m_PrefabParentObject: {fileID: 100100, guid: 1ce912aac112cfc408d5685f68b40e56, type: 2}
  m_PrefabInternal: {fileID: 728433630}
  serializedVersion: 4
  m_Component:
  - 4: {fileID: 1208025969}
  - 137: {fileID: 1208025970}
  m_Layer: 0
  m_Name: Object017
  m_TagString: Untagged
  m_Icon: {fileID: 0}
  m_NavMeshLayer: 0
  m_StaticEditorFlags: 0
  m_IsActive: 1
--- !u!4 &1208025969
Transform:
  m_ObjectHideFlags: 0
  m_PrefabParentObject: {fileID: 400100, guid: 1ce912aac112cfc408d5685f68b40e56, type: 2}
  m_PrefabInternal: {fileID: 728433630}
  m_GameObject: {fileID: 1208025968}
  m_LocalRotation: {x: -0.7071068, y: 0, z: -0, w: 0.7071068}
  m_LocalPosition: {x: 0, y: 1.5347222, z: -0.046826757}
  m_LocalScale: {x: 1, y: 1, z: 1}
  m_LocalEulerAnglesHint: {x: 0, y: 0, z: 0}
  m_Children: []
  m_Father: {fileID: 1806800732}
  m_RootOrder: 5
--- !u!137 &1208025970
SkinnedMeshRenderer:
  m_ObjectHideFlags: 0
  m_PrefabParentObject: {fileID: 13700006, guid: 1ce912aac112cfc408d5685f68b40e56,
    type: 2}
  m_PrefabInternal: {fileID: 728433630}
  m_GameObject: {fileID: 1208025968}
  m_Enabled: 1
  m_CastShadows: 1
  m_ReceiveShadows: 1
  m_MotionVectors: 1
  m_LightProbeUsage: 0
  m_ReflectionProbeUsage: 1
  m_Materials:
  - {fileID: 2100000, guid: ad464337691faa843a3159e90f1bacde, type: 2}
  m_SubsetIndices: 
  m_StaticBatchRoot: {fileID: 0}
  m_ProbeAnchor: {fileID: 0}
  m_LightProbeVolumeOverride: {fileID: 0}
  m_ScaleInLightmap: 1
  m_PreserveUVs: 0
  m_IgnoreNormalsForChartDetection: 0
  m_ImportantGI: 0
  m_SelectedWireframeHidden: 0
  m_MinimumChartSize: 4
  m_AutoUVMaxDistance: 0.5
  m_AutoUVMaxAngle: 89
  m_LightmapParameters: {fileID: 0}
  m_SortingLayerID: 0
  m_SortingOrder: 0
  serializedVersion: 2
  m_Quality: 4
  m_UpdateWhenOffscreen: 0
  m_SkinnedMotionVectors: 1
  m_Mesh: {fileID: 4300006, guid: d9399e58d9da71f40ad89c9a0728a0e1, type: 3}
  m_Bones:
  - {fileID: 1235395608}
  - {fileID: 1375019719}
  - {fileID: 599925173}
  - {fileID: 1981864351}
  - {fileID: 1280246668}
  - {fileID: 1300321061}
  - {fileID: 754088421}
  m_BlendShapeWeights: []
  m_RootBone: {fileID: 1280246668}
  m_AABB:
    m_Center: {x: -0.18574488, y: -0.25677735, z: -0.00000014901161}
    m_Extent: {x: 0.450814, y: 0.41787112, z: 0.3737353}
  m_DirtyAABB: 0
--- !u!1 &1230871171
GameObject:
  m_ObjectHideFlags: 0
  m_PrefabParentObject: {fileID: 100090, guid: 1ce912aac112cfc408d5685f68b40e56, type: 2}
  m_PrefabInternal: {fileID: 728433630}
  serializedVersion: 4
  m_Component:
  - 4: {fileID: 1230871172}
  m_Layer: 0
  m_Name: Merchant Tail
  m_TagString: Untagged
  m_Icon: {fileID: 0}
  m_NavMeshLayer: 0
  m_StaticEditorFlags: 0
  m_IsActive: 1
--- !u!4 &1230871172
Transform:
  m_ObjectHideFlags: 0
  m_PrefabParentObject: {fileID: 400090, guid: 1ce912aac112cfc408d5685f68b40e56, type: 2}
  m_PrefabInternal: {fileID: 728433630}
  m_GameObject: {fileID: 1230871171}
  m_LocalRotation: {x: 0.0000000336481, y: -0.0000026875302, z: 0.9716089, w: 0.23659289}
  m_LocalPosition: {x: 0.05764923, y: -0.14229715, z: -0.00000031629932}
  m_LocalScale: {x: 1.0000001, y: 1.0000001, z: 1}
  m_LocalEulerAnglesHint: {x: 0, y: 0, z: 0}
  m_Children:
  - {fileID: 900518975}
  m_Father: {fileID: 532458786}
  m_RootOrder: 3
--- !u!1 &1235395607
GameObject:
  m_ObjectHideFlags: 0
  m_PrefabParentObject: {fileID: 100046, guid: 1ce912aac112cfc408d5685f68b40e56, type: 2}
  m_PrefabInternal: {fileID: 728433630}
  serializedVersion: 4
  m_Component:
  - 4: {fileID: 1235395608}
  m_Layer: 0
  m_Name: Merchant L UpperArm
  m_TagString: Untagged
  m_Icon: {fileID: 0}
  m_NavMeshLayer: 0
  m_StaticEditorFlags: 0
  m_IsActive: 1
--- !u!4 &1235395608
Transform:
  m_ObjectHideFlags: 0
  m_PrefabParentObject: {fileID: 400046, guid: 1ce912aac112cfc408d5685f68b40e56, type: 2}
  m_PrefabInternal: {fileID: 728433630}
  m_GameObject: {fileID: 1235395607}
  m_LocalRotation: {x: 0.20060809, y: -0.42638677, z: 0.0058428035, w: 0.8819958}
  m_LocalPosition: {x: -0.10697807, y: 0, z: 0}
  m_LocalScale: {x: 0.99999994, y: 0.99999994, z: 0.9999999}
  m_LocalEulerAnglesHint: {x: 0, y: 0, z: 0}
  m_Children:
  - {fileID: 243125904}
  m_Father: {fileID: 1981864351}
  m_RootOrder: 0
--- !u!1 &1251574028
GameObject:
  m_ObjectHideFlags: 0
  m_PrefabParentObject: {fileID: 100060, guid: 1ce912aac112cfc408d5685f68b40e56, type: 2}
  m_PrefabInternal: {fileID: 728433630}
  serializedVersion: 4
  m_Component:
  - 4: {fileID: 1251574029}
  m_Layer: 0
  m_Name: L_chest
  m_TagString: Untagged
  m_Icon: {fileID: 0}
  m_NavMeshLayer: 0
  m_StaticEditorFlags: 0
  m_IsActive: 1
--- !u!4 &1251574029
Transform:
  m_ObjectHideFlags: 0
  m_PrefabParentObject: {fileID: 400060, guid: 1ce912aac112cfc408d5685f68b40e56, type: 2}
  m_PrefabInternal: {fileID: 728433630}
  m_GameObject: {fileID: 1251574028}
  m_LocalRotation: {x: -0.38004294, y: 0.5970228, z: -0.5754415, w: 0.409876}
  m_LocalPosition: {x: -0.059185486, y: -0.0008064651, z: 0.06602555}
  m_LocalScale: {x: 0.62482, y: 2.325967, z: 1.0000005}
  m_LocalEulerAnglesHint: {x: 0, y: 0, z: 0}
  m_Children: []
  m_Father: {fileID: 1280246668}
  m_RootOrder: 0
--- !u!1 &1272061941
GameObject:
  m_ObjectHideFlags: 0
  m_PrefabParentObject: {fileID: 100072, guid: 1ce912aac112cfc408d5685f68b40e56, type: 2}
  m_PrefabInternal: {fileID: 728433630}
  serializedVersion: 4
  m_Component:
  - 4: {fileID: 1272061942}
  m_Layer: 0
  m_Name: Merchant L Calf
  m_TagString: Untagged
  m_Icon: {fileID: 0}
  m_NavMeshLayer: 0
  m_StaticEditorFlags: 0
  m_IsActive: 1
--- !u!4 &1272061942
Transform:
  m_ObjectHideFlags: 0
  m_PrefabParentObject: {fileID: 400072, guid: 1ce912aac112cfc408d5685f68b40e56, type: 2}
  m_PrefabInternal: {fileID: 728433630}
  m_GameObject: {fileID: 1272061941}
  m_LocalRotation: {x: 1.1577213e-10, y: 9.314027e-10, z: 0.000690587, w: 0.99999976}
  m_LocalPosition: {x: -0.37623844, y: 0.000000009536743, z: 0}
  m_LocalScale: {x: 1.0000001, y: 1.0000001, z: 1}
  m_LocalEulerAnglesHint: {x: 0, y: 0, z: 0}
  m_Children:
  - {fileID: 1990940556}
  m_Father: {fileID: 1190500448}
  m_RootOrder: 0
--- !u!1 &1280246667
GameObject:
  m_ObjectHideFlags: 0
  m_PrefabParentObject: {fileID: 100032, guid: 1ce912aac112cfc408d5685f68b40e56, type: 2}
  m_PrefabInternal: {fileID: 728433630}
  serializedVersion: 4
  m_Component:
  - 4: {fileID: 1280246668}
  m_Layer: 0
  m_Name: Merchant Spine2
  m_TagString: Untagged
  m_Icon: {fileID: 0}
  m_NavMeshLayer: 0
  m_StaticEditorFlags: 0
  m_IsActive: 1
--- !u!4 &1280246668
Transform:
  m_ObjectHideFlags: 0
  m_PrefabParentObject: {fileID: 400032, guid: 1ce912aac112cfc408d5685f68b40e56, type: 2}
  m_PrefabInternal: {fileID: 728433630}
  m_GameObject: {fileID: 1280246667}
  m_LocalRotation: {x: 0.000000018966983, y: -0.00000042823763, z: 0.10125031, w: 0.994861}
  m_LocalPosition: {x: -0.105168454, y: -0.000091352464, z: -2.5407643e-10}
  m_LocalScale: {x: 1, y: 1, z: 0.99999994}
  m_LocalEulerAnglesHint: {x: 0, y: 0, z: 0}
  m_Children:
  - {fileID: 1251574029}
  - {fileID: 1375019719}
  - {fileID: 193072811}
  - {fileID: 14428626}
  m_Father: {fileID: 2117223480}
  m_RootOrder: 0
--- !u!1 &1300321060
GameObject:
  m_ObjectHideFlags: 0
  m_PrefabParentObject: {fileID: 100054, guid: 1ce912aac112cfc408d5685f68b40e56, type: 2}
  m_PrefabInternal: {fileID: 728433630}
  serializedVersion: 4
  m_Component:
  - 4: {fileID: 1300321061}
  m_Layer: 0
  m_Name: Merchant R UpperArm
  m_TagString: Untagged
  m_Icon: {fileID: 0}
  m_NavMeshLayer: 0
  m_StaticEditorFlags: 0
  m_IsActive: 1
--- !u!4 &1300321061
Transform:
  m_ObjectHideFlags: 0
  m_PrefabParentObject: {fileID: 400054, guid: 1ce912aac112cfc408d5685f68b40e56, type: 2}
  m_PrefabInternal: {fileID: 728433630}
  m_GameObject: {fileID: 1300321060}
  m_LocalRotation: {x: -0.20060804, y: 0.42638642, z: 0.0058428156, w: 0.881996}
  m_LocalPosition: {x: -0.10697808, y: 0, z: -0.00000015258789}
  m_LocalScale: {x: 1.0000001, y: 1, z: 1}
  m_LocalEulerAnglesHint: {x: 0, y: 0, z: 0}
  m_Children:
  - {fileID: 1747797281}
  m_Father: {fileID: 754088421}
  m_RootOrder: 0
--- !u!1 &1375019718
GameObject:
  m_ObjectHideFlags: 0
  m_PrefabParentObject: {fileID: 100064, guid: 1ce912aac112cfc408d5685f68b40e56, type: 2}
  m_PrefabInternal: {fileID: 728433630}
  serializedVersion: 4
  m_Component:
  - 4: {fileID: 1375019719}
  m_Layer: 0
  m_Name: M_bag01
  m_TagString: Untagged
  m_Icon: {fileID: 0}
  m_NavMeshLayer: 0
  m_StaticEditorFlags: 0
  m_IsActive: 1
--- !u!4 &1375019719
Transform:
  m_ObjectHideFlags: 0
  m_PrefabParentObject: {fileID: 400064, guid: 1ce912aac112cfc408d5685f68b40e56, type: 2}
  m_PrefabInternal: {fileID: 728433630}
  m_GameObject: {fileID: 1375019718}
  m_LocalRotation: {x: 0.64315563, y: 0.29385662, z: 0.29385635, w: 0.6431544}
  m_LocalPosition: {x: -0.127844, y: -0.10465252, z: 0.00000015258789}
  m_LocalScale: {x: 1.0000001, y: 1, z: 1.0000002}
  m_LocalEulerAnglesHint: {x: 0, y: 0, z: 0}
  m_Children:
  - {fileID: 599925173}
  m_Father: {fileID: 1280246668}
  m_RootOrder: 1
--- !u!1 &1487289242
GameObject:
  m_ObjectHideFlags: 0
  m_PrefabParentObject: {fileID: 100082, guid: 1ce912aac112cfc408d5685f68b40e56, type: 2}
  m_PrefabInternal: {fileID: 728433630}
  serializedVersion: 4
  m_Component:
  - 4: {fileID: 1487289243}
  m_Layer: 0
  m_Name: Merchant R Calf
  m_TagString: Untagged
  m_Icon: {fileID: 0}
  m_NavMeshLayer: 0
  m_StaticEditorFlags: 0
  m_IsActive: 1
--- !u!4 &1487289243
Transform:
  m_ObjectHideFlags: 0
  m_PrefabParentObject: {fileID: 400082, guid: 1ce912aac112cfc408d5685f68b40e56, type: 2}
  m_PrefabInternal: {fileID: 728433630}
  m_GameObject: {fileID: 1487289242}
  m_LocalRotation: {x: 6.4315225e-13, y: -9.313223e-10, z: 0.00069057953, w: 0.99999976}
  m_LocalPosition: {x: -0.3762384, y: 0.000000019073486, z: 0}
  m_LocalScale: {x: 1.0000001, y: 1, z: 1}
  m_LocalEulerAnglesHint: {x: 0, y: 0, z: 0}
  m_Children:
  - {fileID: 886690507}
  m_Father: {fileID: 328583722}
  m_RootOrder: 0
--- !u!1 &1695356132
GameObject:
  m_ObjectHideFlags: 0
  m_PrefabParentObject: {fileID: 100078, guid: 1ce912aac112cfc408d5685f68b40e56, type: 2}
  m_PrefabInternal: {fileID: 728433630}
  serializedVersion: 4
  m_Component:
  - 4: {fileID: 1695356133}
  m_Layer: 0
  m_Name: Merchant L Toe0Nub
  m_TagString: Untagged
  m_Icon: {fileID: 0}
  m_NavMeshLayer: 0
  m_StaticEditorFlags: 0
  m_IsActive: 1
--- !u!4 &1695356133
Transform:
  m_ObjectHideFlags: 0
  m_PrefabParentObject: {fileID: 400078, guid: 1ce912aac112cfc408d5685f68b40e56, type: 2}
  m_PrefabInternal: {fileID: 728433630}
  m_GameObject: {fileID: 1695356132}
  m_LocalRotation: {x: -9.553415e-16, y: -1.755525e-30, z: 1, w: -1.8375893e-15}
  m_LocalPosition: {x: -0.103939325, y: -5.9604643e-10, z: 0}
  m_LocalScale: {x: -0.99999994, y: -1, z: -0.99999994}
  m_LocalEulerAnglesHint: {x: 0, y: 0, z: 0}
  m_Children: []
  m_Father: {fileID: 532202766}
  m_RootOrder: 0
--- !u!1 &1718626122
GameObject:
  m_ObjectHideFlags: 0
  m_PrefabParentObject: {fileID: 100020, guid: 1ce912aac112cfc408d5685f68b40e56, type: 2}
  m_PrefabInternal: {fileID: 728433630}
  serializedVersion: 4
  m_Component:
  - 4: {fileID: 1718626123}
  - 137: {fileID: 1718626124}
  m_Layer: 0
  m_Name: Merchant_body
  m_TagString: Untagged
  m_Icon: {fileID: 0}
  m_NavMeshLayer: 0
  m_StaticEditorFlags: 0
  m_IsActive: 1
--- !u!4 &1718626123
Transform:
  m_ObjectHideFlags: 0
  m_PrefabParentObject: {fileID: 400020, guid: 1ce912aac112cfc408d5685f68b40e56, type: 2}
  m_PrefabInternal: {fileID: 728433630}
  m_GameObject: {fileID: 1718626122}
  m_LocalRotation: {x: -0.7071068, y: 0, z: -0, w: 0.7071068}
  m_LocalPosition: {x: 0, y: 1.5347222, z: -0.046826757}
  m_LocalScale: {x: 1, y: 1, z: 1}
  m_LocalEulerAnglesHint: {x: 0, y: 0, z: 0}
  m_Children: []
  m_Father: {fileID: 1806800732}
  m_RootOrder: 1
--- !u!137 &1718626124
SkinnedMeshRenderer:
  m_ObjectHideFlags: 0
  m_PrefabParentObject: {fileID: 13700004, guid: 1ce912aac112cfc408d5685f68b40e56,
    type: 2}
  m_PrefabInternal: {fileID: 728433630}
  m_GameObject: {fileID: 1718626122}
  m_Enabled: 1
  m_CastShadows: 1
  m_ReceiveShadows: 1
  m_MotionVectors: 1
  m_LightProbeUsage: 0
  m_ReflectionProbeUsage: 1
  m_Materials:
  - {fileID: 2100000, guid: ad464337691faa843a3159e90f1bacde, type: 2}
  m_SubsetIndices: 
  m_StaticBatchRoot: {fileID: 0}
  m_ProbeAnchor: {fileID: 0}
  m_LightProbeVolumeOverride: {fileID: 0}
  m_ScaleInLightmap: 1
  m_PreserveUVs: 0
  m_IgnoreNormalsForChartDetection: 0
  m_ImportantGI: 0
  m_SelectedWireframeHidden: 0
  m_MinimumChartSize: 4
  m_AutoUVMaxDistance: 0.5
  m_AutoUVMaxAngle: 89
  m_LightmapParameters: {fileID: 0}
  m_SortingLayerID: 0
  m_SortingOrder: 0
  serializedVersion: 2
  m_Quality: 4
  m_UpdateWhenOffscreen: 0
  m_SkinnedMotionVectors: 1
  m_Mesh: {fileID: 4300004, guid: d9399e58d9da71f40ad89c9a0728a0e1, type: 3}
  m_Bones:
  - {fileID: 1280246668}
  - {fileID: 1783829209}
  - {fileID: 2117223480}
  - {fileID: 532458786}
  - {fileID: 864527955}
  - {fileID: 1190500448}
  - {fileID: 328583722}
  - {fileID: 1251574029}
  - {fileID: 1235395608}
  - {fileID: 1981864351}
  - {fileID: 243125904}
  - {fileID: 217816694}
  - {fileID: 14428626}
  - {fileID: 1204437044}
  - {fileID: 1230871172}
  - {fileID: 1300321061}
  - {fileID: 754088421}
  - {fileID: 1005808453}
  - {fileID: 1747797281}
  - {fileID: 1272061942}
  - {fileID: 1487289243}
  - {fileID: 1990940556}
  - {fileID: 886690507}
  - {fileID: 532202766}
  - {fileID: 12507662}
  - {fileID: 193072811}
  m_BlendShapeWeights: []
  m_RootBone: {fileID: 1204437044}
  m_AABB:
    m_Center: {x: 0.06428817, y: -0.00000011920929, z: -0.11012238}
    m_Extent: {x: 0.21100762, y: 0.6352781, z: 0.8557369}
  m_DirtyAABB: 0
--- !u!1 &1747797280
GameObject:
  m_ObjectHideFlags: 0
  m_PrefabParentObject: {fileID: 100056, guid: 1ce912aac112cfc408d5685f68b40e56, type: 2}
  m_PrefabInternal: {fileID: 728433630}
  serializedVersion: 4
  m_Component:
  - 4: {fileID: 1747797281}
  m_Layer: 0
  m_Name: Merchant R Forearm
  m_TagString: Untagged
  m_Icon: {fileID: 0}
  m_NavMeshLayer: 0
  m_StaticEditorFlags: 0
  m_IsActive: 1
--- !u!4 &1747797281
Transform:
  m_ObjectHideFlags: 0
  m_PrefabParentObject: {fileID: 400056, guid: 1ce912aac112cfc408d5685f68b40e56, type: 2}
  m_PrefabInternal: {fileID: 728433630}
  m_GameObject: {fileID: 1747797280}
  m_LocalRotation: {x: 0.0000000037185903, y: 2.2332153e-10, z: 0.05994742, w: 0.99820155}
  m_LocalPosition: {x: -0.20720527, y: 0, z: 0}
  m_LocalScale: {x: 0.9999999, y: 1, z: 0.99999994}
  m_LocalEulerAnglesHint: {x: 0, y: 0, z: 0}
  m_Children:
  - {fileID: 1005808453}
  m_Father: {fileID: 1300321061}
  m_RootOrder: 0
--- !u!1 &1760635488
GameObject:
  m_ObjectHideFlags: 0
  m_PrefabParentObject: {fileID: 100024, guid: 1ce912aac112cfc408d5685f68b40e56, type: 2}
  m_PrefabInternal: {fileID: 728433630}
  serializedVersion: 4
  m_Component:
  - 4: {fileID: 1760635489}
  m_Layer: 0
  m_Name: Merchant Footsteps
  m_TagString: Untagged
  m_Icon: {fileID: 0}
  m_NavMeshLayer: 0
  m_StaticEditorFlags: 0
  m_IsActive: 1
--- !u!4 &1760635489
Transform:
  m_ObjectHideFlags: 0
  m_PrefabParentObject: {fileID: 400024, guid: 1ce912aac112cfc408d5685f68b40e56, type: 2}
  m_PrefabInternal: {fileID: 728433630}
  m_GameObject: {fileID: 1760635488}
  m_LocalRotation: {x: 0, y: 0, z: -0.70710635, w: 0.7071073}
  m_LocalPosition: {x: -0, y: 0, z: -0.96209943}
  m_LocalScale: {x: 1, y: 1, z: 1}
  m_LocalEulerAnglesHint: {x: 0, y: 0, z: 0}
  m_Children: []
  m_Father: {fileID: 1204437044}
  m_RootOrder: 0
--- !u!1 &1783829208
GameObject:
  m_ObjectHideFlags: 0
  m_PrefabParentObject: {fileID: 100036, guid: 1ce912aac112cfc408d5685f68b40e56, type: 2}
  m_PrefabInternal: {fileID: 728433630}
  serializedVersion: 4
  m_Component:
  - 4: {fileID: 1783829209}
  m_Layer: 0
  m_Name: Merchant Head
  m_TagString: Untagged
  m_Icon: {fileID: 0}
  m_NavMeshLayer: 0
  m_StaticEditorFlags: 0
  m_IsActive: 1
--- !u!4 &1783829209
Transform:
  m_ObjectHideFlags: 0
  m_PrefabParentObject: {fileID: 400036, guid: 1ce912aac112cfc408d5685f68b40e56, type: 2}
  m_PrefabInternal: {fileID: 728433630}
  m_GameObject: {fileID: 1783829208}
  m_LocalRotation: {x: -0.000000008631754, y: 0.00000037766696, z: -0.066938475, w: 0.99775714}
  m_LocalPosition: {x: -0.067599945, y: 0.000000009536743, z: 0}
  m_LocalScale: {x: 0.99999994, y: 0.99999994, z: 1}
  m_LocalEulerAnglesHint: {x: 0, y: 0, z: 0}
  m_Children:
  - {fileID: 449827895}
  - {fileID: 1183929072}
  - {fileID: 645458202}
  m_Father: {fileID: 193072811}
  m_RootOrder: 0
--- !u!1 &1801017431
GameObject:
  m_ObjectHideFlags: 0
  m_PrefabParentObject: {fileID: 100014, guid: 1ce912aac112cfc408d5685f68b40e56, type: 2}
  m_PrefabInternal: {fileID: 728433630}
  serializedVersion: 4
  m_Component:
  - 4: {fileID: 1801017432}
  m_Layer: 0
  m_Name: Particle VADSiew 01
  m_TagString: Untagged
  m_Icon: {fileID: 0}
  m_NavMeshLayer: 0
  m_StaticEditorFlags: 0
  m_IsActive: 1
--- !u!4 &1801017432
Transform:
  m_ObjectHideFlags: 0
  m_PrefabParentObject: {fileID: 400014, guid: 1ce912aac112cfc408d5685f68b40e56, type: 2}
  m_PrefabInternal: {fileID: 728433630}
  m_GameObject: {fileID: 1801017431}
  m_LocalRotation: {x: 0.7071069, y: 0, z: 0, w: 0.70710677}
  m_LocalPosition: {x: 1.5628489, y: 0.027692031, z: -0.01944334}
  m_LocalScale: {x: 0.589673, y: 0.589673, z: 0.589673}
  m_LocalEulerAnglesHint: {x: 0, y: 0, z: 0}
  m_Children: []
  m_Father: {fileID: 1806800732}
  m_RootOrder: 8
--- !u!1 &1806800731
GameObject:
  m_ObjectHideFlags: 0
  m_PrefabParentObject: {fileID: 100106, guid: 1ce912aac112cfc408d5685f68b40e56, type: 2}
  m_PrefabInternal: {fileID: 728433630}
  serializedVersion: 4
  m_Component:
  - 4: {fileID: 1806800732}
  - 111: {fileID: 1806800733}
  m_Layer: 0
  m_Name: Merchant_female_Prefab
  m_TagString: Untagged
  m_Icon: {fileID: 0}
  m_NavMeshLayer: 0
  m_StaticEditorFlags: 0
  m_IsActive: 1
--- !u!4 &1806800732
Transform:
  m_ObjectHideFlags: 0
  m_PrefabParentObject: {fileID: 400106, guid: 1ce912aac112cfc408d5685f68b40e56, type: 2}
  m_PrefabInternal: {fileID: 728433630}
  m_GameObject: {fileID: 1806800731}
  m_LocalRotation: {x: 0, y: 0, z: 0, w: 1}
  m_LocalPosition: {x: 0, y: 0, z: 0}
  m_LocalScale: {x: 1, y: 1, z: 1}
  m_LocalEulerAnglesHint: {x: 0, y: 0, z: 0}
  m_Children:
  - {fileID: 1204437044}
  - {fileID: 1718626123}
  - {fileID: 1070375606}
  - {fileID: 858572331}
  - {fileID: 499747702}
  - {fileID: 1208025969}
  - {fileID: 791422798}
  - {fileID: 980558148}
  - {fileID: 1801017432}
  - {fileID: 608052988}
  - {fileID: 374560762}
  - {fileID: 1983143600}
  - {fileID: 393939562}
  - {fileID: 1991810293}
  - {fileID: 2021855361}
  - {fileID: 36462658}
  m_Father: {fileID: 0}
  m_RootOrder: 1
--- !u!111 &1806800733
Animation:
  m_ObjectHideFlags: 0
  m_PrefabParentObject: {fileID: 11100000, guid: 1ce912aac112cfc408d5685f68b40e56,
    type: 2}
  m_PrefabInternal: {fileID: 728433630}
  m_GameObject: {fileID: 1806800731}
  m_Enabled: 1
  serializedVersion: 3
  m_Animation: {fileID: 7400000, guid: 1b1ba3abc8af647429caf3eaaef04574, type: 3}
  m_Animations:
  - {fileID: 7400000, guid: 1b1ba3abc8af647429caf3eaaef04574, type: 3}
  - {fileID: 7400000, guid: 5b3618f8796f13340878e380d2294c83, type: 3}
  - {fileID: 7400000, guid: 28c57e1ee1df4f44fac946cd58f48165, type: 3}
  - {fileID: 7400000, guid: e1787ce659ae2744599b2624b6a0ef34, type: 3}
  - {fileID: 7400000, guid: 97ca074d5ea524e4f8db518bd0a9813b, type: 3}
  - {fileID: 7400000, guid: 7cfdc0b2d96ee9c469aa67ee9dad27d0, type: 3}
  m_WrapMode: 0
  m_PlayAutomatically: 1
  m_AnimatePhysics: 0
  m_CullingType: 1
--- !u!1 &1981864350
GameObject:
  m_ObjectHideFlags: 0
  m_PrefabParentObject: {fileID: 100044, guid: 1ce912aac112cfc408d5685f68b40e56, type: 2}
  m_PrefabInternal: {fileID: 728433630}
  serializedVersion: 4
  m_Component:
  - 4: {fileID: 1981864351}
  m_Layer: 0
  m_Name: Merchant L Clavicle
  m_TagString: Untagged
  m_Icon: {fileID: 0}
  m_NavMeshLayer: 0
  m_StaticEditorFlags: 0
  m_IsActive: 1
--- !u!4 &1981864351
Transform:
  m_ObjectHideFlags: 0
  m_PrefabParentObject: {fileID: 400044, guid: 1ce912aac112cfc408d5685f68b40e56, type: 2}
  m_PrefabInternal: {fileID: 728433630}
  m_GameObject: {fileID: 1981864350}
  m_LocalRotation: {x: -0.656591, y: -0.14052285, z: 0.74017864, w: 0.03573776}
  m_LocalPosition: {x: 0.004779358, y: 0.008008051, z: 0.028801793}
  m_LocalScale: {x: 1, y: 1, z: 1}
  m_LocalEulerAnglesHint: {x: 0, y: 0, z: 0}
  m_Children:
  - {fileID: 1235395608}
  m_Father: {fileID: 193072811}
  m_RootOrder: 1
--- !u!1 &1983143599
GameObject:
  m_ObjectHideFlags: 0
  m_PrefabParentObject: {fileID: 100008, guid: 1ce912aac112cfc408d5685f68b40e56, type: 2}
  m_PrefabInternal: {fileID: 728433630}
  serializedVersion: 4
  m_Component:
  - 4: {fileID: 1983143600}
  m_Layer: 0
  m_Name: Particle View 0ASD1
  m_TagString: Untagged
  m_Icon: {fileID: 0}
  m_NavMeshLayer: 0
  m_StaticEditorFlags: 0
  m_IsActive: 1
--- !u!4 &1983143600
Transform:
  m_ObjectHideFlags: 0
  m_PrefabParentObject: {fileID: 400008, guid: 1ce912aac112cfc408d5685f68b40e56, type: 2}
  m_PrefabInternal: {fileID: 728433630}
  m_GameObject: {fileID: 1983143599}
  m_LocalRotation: {x: 0.7071069, y: 0, z: 0, w: 0.70710677}
  m_LocalPosition: {x: -0.8047526, y: 0, z: -0.003837881}
  m_LocalScale: {x: 1, y: 1, z: 1}
  m_LocalEulerAnglesHint: {x: 0, y: 0, z: 0}
  m_Children: []
  m_Father: {fileID: 1806800732}
  m_RootOrder: 11
--- !u!1 &1990940555
GameObject:
  m_ObjectHideFlags: 0
  m_PrefabParentObject: {fileID: 100074, guid: 1ce912aac112cfc408d5685f68b40e56, type: 2}
  m_PrefabInternal: {fileID: 728433630}
  serializedVersion: 4
  m_Component:
  - 4: {fileID: 1990940556}
  m_Layer: 0
  m_Name: Merchant L Foot
  m_TagString: Untagged
  m_Icon: {fileID: 0}
  m_NavMeshLayer: 0
  m_StaticEditorFlags: 0
  m_IsActive: 1
--- !u!4 &1990940556
Transform:
  m_ObjectHideFlags: 0
  m_PrefabParentObject: {fileID: 400074, guid: 1ce912aac112cfc408d5685f68b40e56, type: 2}
  m_PrefabInternal: {fileID: 728433630}
  m_GameObject: {fileID: 1990940555}
  m_LocalRotation: {x: 0.00047346, y: -0.008444736, z: -0.07073934, w: 0.997459}
  m_LocalPosition: {x: -0.411454, y: 0, z: -0.0000000047683715}
  m_LocalScale: {x: 1, y: 1, z: 0.99999994}
  m_LocalEulerAnglesHint: {x: 0, y: 0, z: 0}
  m_Children:
  - {fileID: 532202766}
  m_Father: {fileID: 1272061942}
  m_RootOrder: 0
--- !u!1 &1991810292
GameObject:
  m_ObjectHideFlags: 0
  m_PrefabParentObject: {fileID: 100004, guid: 1ce912aac112cfc408d5685f68b40e56, type: 2}
  m_PrefabInternal: {fileID: 728433630}
  serializedVersion: 4
  m_Component:
  - 4: {fileID: 1991810293}
  m_Layer: 0
  m_Name: Particle View 01 1
  m_TagString: Untagged
  m_Icon: {fileID: 0}
  m_NavMeshLayer: 0
  m_StaticEditorFlags: 0
  m_IsActive: 1
--- !u!4 &1991810293
Transform:
  m_ObjectHideFlags: 0
  m_PrefabParentObject: {fileID: 400004, guid: 1ce912aac112cfc408d5685f68b40e56, type: 2}
  m_PrefabInternal: {fileID: 728433630}
  m_GameObject: {fileID: 1991810292}
  m_LocalRotation: {x: 0.7071069, y: 0, z: 0, w: 0.70710677}
  m_LocalPosition: {x: -0.15712364, y: 0, z: 0.0060056397}
  m_LocalScale: {x: 1, y: 1, z: 1}
  m_LocalEulerAnglesHint: {x: 0, y: 0, z: 0}
  m_Children: []
  m_Father: {fileID: 1806800732}
  m_RootOrder: 13
--- !u!1 &2021855360
GameObject:
  m_ObjectHideFlags: 0
  m_PrefabParentObject: {fileID: 100002, guid: 1ce912aac112cfc408d5685f68b40e56, type: 2}
  m_PrefabInternal: {fileID: 728433630}
  serializedVersion: 4
  m_Component:
  - 4: {fileID: 2021855361}
  m_Layer: 0
  m_Name: Particle View 01 2
  m_TagString: Untagged
  m_Icon: {fileID: 0}
  m_NavMeshLayer: 0
  m_StaticEditorFlags: 0
  m_IsActive: 1
--- !u!4 &2021855361
Transform:
  m_ObjectHideFlags: 0
  m_PrefabParentObject: {fileID: 400002, guid: 1ce912aac112cfc408d5685f68b40e56, type: 2}
  m_PrefabInternal: {fileID: 728433630}
  m_GameObject: {fileID: 2021855360}
  m_LocalRotation: {x: 0.7071069, y: 0, z: 0, w: 0.70710677}
  m_LocalPosition: {x: 0.91522, y: 0.027692027, z: -0.029286861}
  m_LocalScale: {x: 0.589673, y: 0.589673, z: 0.589673}
  m_LocalEulerAnglesHint: {x: 0, y: 0, z: 0}
  m_Children: []
  m_Father: {fileID: 1806800732}
  m_RootOrder: 14
--- !u!1 &2117223479
GameObject:
  m_ObjectHideFlags: 0
  m_PrefabParentObject: {fileID: 100030, guid: 1ce912aac112cfc408d5685f68b40e56, type: 2}
  m_PrefabInternal: {fileID: 728433630}
  serializedVersion: 4
  m_Component:
  - 4: {fileID: 2117223480}
  m_Layer: 0
  m_Name: Merchant Spine1
  m_TagString: Untagged
  m_Icon: {fileID: 0}
  m_NavMeshLayer: 0
  m_StaticEditorFlags: 0
  m_IsActive: 1
--- !u!4 &2117223480
Transform:
  m_ObjectHideFlags: 0
  m_PrefabParentObject: {fileID: 400030, guid: 1ce912aac112cfc408d5685f68b40e56, type: 2}
  m_PrefabInternal: {fileID: 728433630}
  m_GameObject: {fileID: 2117223479}
  m_LocalRotation: {x: -0.000000023537915, y: -0.000000038847155, z: 0.009287628,
    w: 0.9999569}
  m_LocalPosition: {x: -0.10163795, y: -0.000083737374, z: -2.2830135e-10}
  m_LocalScale: {x: 1, y: 1, z: 1}
  m_LocalEulerAnglesHint: {x: 0, y: 0, z: 0}
  m_Children:
  - {fileID: 1280246668}
  m_Father: {fileID: 532458786}
  m_RootOrder: 2
