%YAML 1.1
%TAG !u! tag:unity3d.com,2011:
--- !u!74 &7400000
AnimationClip:
  m_ObjectHideFlags: 0
  m_PrefabParentObject: {fileID: 0}
  m_PrefabInternal: {fileID: 0}
  m_Name: takedamage
  serializedVersion: 6
  m_Legacy: 1
  m_Compressed: 0
  m_UseHighQualityCurve: 1
  m_RotationCurves:
  - curve:
      serializedVersion: 2
      m_Curve:
      - time: 0
        value: {x: 0.50000006, y: -0.50000006, z: -0.49999994, w: 0.49999994}
        inSlope: {x: 0, y: 0, z: 0, w: 0}
        outSlope: {x: 0, y: 0, z: 0, w: 0}
        tangentMode: 0
      - time: 0.5
        value: {x: 0.50000006, y: -0.50000006, z: -0.49999994, w: 0.49999994}
        inSlope: {x: 0, y: 0, z: 0, w: 0}
        outSlope: {x: 0, y: 0, z: 0, w: 0}
        tangentMode: 0
      m_PreInfinity: 2
      m_PostInfinity: 2
      m_RotationOrder: 4
    path: Rig
  - curve:
      serializedVersion: 2
      m_Curve:
      - time: 0
        value: {x: 0.48823738, y: -0.5114922, z: -0.48823738, w: 0.5114922}
        inSlope: {x: -0.60251707, y: -0.27288795, z: 0.30870256, w: 0.5689931}
        outSlope: {x: -0.60251707, y: -0.27288795, z: 0.30870256, w: 0.5689931}
        tangentMode: 0
      - time: 0.033333335
        value: {x: 0.46815348, y: -0.52058846, z: -0.4779473, w: 0.5304586}
        inSlope: {x: -1.0438093, y: -0.43166307, z: 0.5522775, w: 0.93220437}
        outSlope: {x: -1.0438093, y: -0.43166307, z: 0.5522775, w: 0.93220437}
        tangentMode: 0
      - time: 0.10000001
        value: {x: 0.35701627, y: -0.56009376, z: -0.41610944, w: 0.6210373}
        inSlope: {x: -1.7244215, y: -0.501362, z: 1.0184817, w: 1.2494068}
        outSlope: {x: -1.7244215, y: -0.501362, z: 1.0184817, w: 1.2494068}
        tangentMode: 0
      - time: 0.16666667
        value: {x: 0.28096938, y: -0.57859886, z: -0.36905414, w: 0.670879}
        inSlope: {x: -0.24877226, y: -0.05445333, z: 0.15788066, w: 0.15386406}
        outSlope: {x: -0.24877226, y: -0.05445333, z: 0.15788066, w: 0.15386406}
        tangentMode: 0
      - time: 0.23333335
        value: {x: 0.30368865, y: -0.5736939, z: -0.3835201, w: 0.65693295}
        inSlope: {x: 0.6124619, y: 0.14155807, z: -0.38367617, w: -0.39026144}
        outSlope: {x: 0.6124619, y: 0.14155807, z: -0.38367617, w: -0.39026144}
        tangentMode: 0
      - time: 0.36666667
        value: {x: 0.4186501, y: -0.54026973, z: -0.45141888, w: 0.57363915}
        inSlope: {x: 0.868815, y: 0.31274456, z: -0.48084885, w: -0.71402967}
        outSlope: {x: 0.868815, y: 0.31274456, z: -0.48084885, w: -0.71402967}
        tangentMode: 0
      - time: 0.4666667
        value: {x: 0.48287222, y: -0.51399034, z: -0.48551556, w: 0.5166459}
        inSlope: {x: 0.3012582, y: 0.13644402, z: -0.15435134, w: -0.28449664}
        outSlope: {x: 0.3012582, y: 0.13644402, z: -0.15435134, w: -0.28449664}
        tangentMode: 0
      - time: 0.5
        value: {x: 0.48823738, y: -0.5114922, z: -0.48823738, w: 0.5114922}
        inSlope: {x: 0.16095504, y: 0.07494457, z: -0.08165456, w: -0.15461162}
        outSlope: {x: 0.16095504, y: 0.07494457, z: -0.08165456, w: -0.15461162}
        tangentMode: 0
      m_PreInfinity: 2
      m_PostInfinity: 2
      m_RotationOrder: 4
    path: RigHead
  - curve:
      serializedVersion: 2
      m_Curve:
      - time: 0
        value: {x: -0.000000019209292, y: -0.00000014723234, z: -0.83732355, w: 0.5467077}
        inSlope: {x: -0.16831873, y: 0.16319044, z: -0.7272988, w: -1.1737095}
        outSlope: {x: -0.16831873, y: 0.16319044, z: -0.7272988, w: -1.1737095}
        tangentMode: 0
      - time: 0.033333335
        value: {x: -0.005610644, y: 0.0054395343, z: -0.86156684, w: 0.50758404}
        inSlope: {x: -0.25284344, y: 0.30567157, z: -1.1163344, w: -2.052076}
        outSlope: {x: -0.25284344, y: 0.30567157, z: -1.1163344, w: -2.052076}
        tangentMode: 0
      - time: 0.06666667
        value: {x: -0.01685625, y: 0.02037796, z: -0.91174585, w: 0.4099026}
        inSlope: {x: -0.30361724, y: 0.5369142, z: -1.4283566, w: -3.3136206}
        outSlope: {x: -0.30361724, y: 0.5369142, z: -1.4283566, w: -3.3136206}
        tangentMode: 0
      - time: 0.10000001
        value: {x: -0.025851795, y: 0.041233823, z: -0.9567906, w: 0.28667596}
        inSlope: {x: -0.18611875, y: 0.60278136, z: -1.0458236, w: -3.4569907}
        outSlope: {x: -0.18611875, y: 0.60278136, z: -1.0458236, w: -3.4569907}
        tangentMode: 0
      - time: 0.13333334
        value: {x: -0.029264167, y: 0.060563385, z: -0.9814674, w: 0.17943653}
        inSlope: {x: -0.054790996, y: 0.4166451, z: -0.47069016, w: -2.2939925}
        outSlope: {x: -0.054790996, y: 0.4166451, z: -0.47069016, w: -2.2939925}
        tangentMode: 0
      - time: 0.16666667
        value: {x: -0.029504528, y: 0.06901016, z: -0.98816997, w: 0.13374312}
        inSlope: {x: -0.0036977048, y: 0.09236658, z: -0.07668169, w: -0.5004026}
        outSlope: {x: -0.0036977048, y: 0.09236658, z: -0.07668169, w: -0.5004026}
        tangentMode: 0
      - time: 0.23333335
        value: {x: -0.029264167, y: 0.060563385, z: -0.9814674, w: 0.17943653}
        inSlope: {x: 0.019509971, y: -0.22578439, z: 0.22126439, w: 1.2321341}
        outSlope: {x: 0.019509971, y: -0.22578439, z: 0.22126439, w: 1.2321341}
        tangentMode: 0
      - time: 0.33333334
        value: {x: -0.021993125, y: 0.0304473, z: -0.93634444, w: 0.34906778}
        inSlope: {x: 0.1349327, y: -0.31283826, z: 0.67567176, w: 1.848398}
        outSlope: {x: 0.1349327, y: -0.31283826, z: 0.67567176, w: 1.848398}
        tangentMode: 0
      - time: 0.4666667
        value: {x: -0.0015589884, y: 0.0014127839, z: -0.84403086, w: 0.5362906}
        inSlope: {x: 0.084159315, y: -0.08159518, z: 0.36364955, w: 0.586855}
        outSlope: {x: 0.084159315, y: -0.08159518, z: 0.36364955, w: 0.586855}
        tangentMode: 0
      - time: 0.5
        value: {x: -0.000000019209292, y: -0.00000014723234, z: -0.83732355, w: 0.5467077}
        inSlope: {x: 0.04676912, y: -0.042387974, z: 0.20121951, w: 0.3125134}
        outSlope: {x: 0.04676912, y: -0.042387974, z: 0.20121951, w: 0.3125134}
        tangentMode: 0
      m_PreInfinity: 2
      m_PostInfinity: 2
      m_RotationOrder: 4
    path: RigHead/RigLowerJaw
  - curve:
      serializedVersion: 2
      m_Curve:
      - time: 0
        value: {x: -0.116211474, y: 0.088785015, z: 0.60056555, w: 0.7860873}
        inSlope: {x: -0.1567105, y: -0.11859945, z: 0.46862122, w: -0.37627456}
        outSlope: {x: -0.1567105, y: -0.11859945, z: 0.46862122, w: -0.37627456}
        tangentMode: 0
      - time: 0.033333335
        value: {x: -0.12143516, y: 0.0848317, z: 0.61618626, w: 0.7735448}
        inSlope: {x: -0.25812438, y: -0.21099226, z: 0.77677935, w: -0.6563508}
        outSlope: {x: -0.25812438, y: -0.21099226, z: 0.77677935, w: -0.6563508}
        tangentMode: 0
      - time: 0.10000001
        value: {x: -0.14678083, y: 0.06143342, z: 0.69340646, w: 0.7027581}
        inSlope: {x: -0.35540384, y: -0.3806908, z: 1.1037191, w: -1.1185563}
        outSlope: {x: -0.35540384, y: -0.3806908, z: 1.1037191, w: -1.1185563}
        tangentMode: 0
      - time: 0.16666667
        value: {x: -0.16119733, y: 0.04401967, z: 0.73904145, w: 0.6526067}
        inSlope: {x: -0.044989817, y: -0.05810281, z: 0.14417055, w: -0.16569975}
        outSlope: {x: -0.044989817, y: -0.05810281, z: 0.14417055, w: -0.16569975}
        tangentMode: 0
      - time: 0.3
        value: {x: -0.14678082, y: 0.06143338, z: 0.69340646, w: 0.7027581}
        inSlope: {x: 0.18471101, y: 0.19996008, z: -0.57429856, w: 0.5862648}
        outSlope: {x: 0.18471101, y: 0.19996008, z: -0.57429856, w: 0.5862648}
        tangentMode: 0
      - time: 0.4666667
        value: {x: -0.11762884, y: 0.087737694, z: 0.6047968, w: 0.78274286}
        inSlope: {x: 0.07835528, y: 0.05929975, z: -0.2343107, w: 0.18813735}
        outSlope: {x: 0.07835528, y: 0.05929975, z: -0.2343107, w: 0.18813735}
        tangentMode: 0
      - time: 0.5
        value: {x: -0.116211474, y: 0.088785015, z: 0.60056555, w: 0.7860873}
        inSlope: {x: 0.0425211, y: 0.03141965, z: -0.12693834, w: 0.100332595}
        outSlope: {x: 0.0425211, y: 0.03141965, z: -0.12693834, w: 0.100332595}
        tangentMode: 0
      m_PreInfinity: 2
      m_PostInfinity: 2
      m_RotationOrder: 4
    path: RigHead/RigTail1
  - curve:
      serializedVersion: 2
      m_Curve:
      - time: 0
        value: {x: 0.0054483935, y: -0.2533176, z: 0.23416992, w: 0.9385973}
        inSlope: {x: 0.14891674, y: 0.67765784, z: -2.345289, w: 0.65335387}
        outSlope: {x: 0.14891674, y: 0.67765784, z: -2.345289, w: 0.65335387}
        tangentMode: 0
      - time: 0.033333335
        value: {x: 0.010412285, y: -0.230729, z: 0.15599361, w: 0.9603758}
        inSlope: {x: 0.49405453, y: 0.95368683, z: -4.145786, w: 0.62367076}
        outSlope: {x: 0.49405453, y: 0.95368683, z: -4.145786, w: 0.62367076}
        tangentMode: 0
      - time: 0.06666667
        value: {x: 0.038385365, y: -0.18973847, z: -0.042215817, w: 0.9801754}
        inSlope: {x: 1.216858, y: 0.86435807, z: -6.623296, w: -0.33349773}
        outSlope: {x: 1.216858, y: 0.86435807, z: -6.623296, w: -0.33349773}
        tangentMode: 0
      - time: 0.10000001
        value: {x: 0.091536164, y: -0.17310512, z: -0.28555948, w: 0.9381426}
        inSlope: {x: 1.5241892, y: -0.022426456, z: -6.5347323, w: -2.014761}
        outSlope: {x: 1.5241892, y: -0.022426456, z: -6.5347323, w: -2.014761}
        tangentMode: 0
      - time: 0.13333334
        value: {x: 0.13999799, y: -0.19123356, z: -0.47786468, w: 0.845858}
        inSlope: {x: 1.0015125, y: -0.51878667, z: -3.98739, w: -2.1872663}
        outSlope: {x: 1.0015125, y: -0.51878667, z: -3.98739, w: -2.1872663}
        tangentMode: 0
      - time: 0.16666667
        value: {x: 0.15830366, y: -0.2076909, z: -0.55138546, w: 0.79232484}
        inSlope: {x: 0.2037735, y: -0.17291647, z: -0.81381553, w: -0.57450426}
        outSlope: {x: 0.2037735, y: -0.17291647, z: -0.81381553, w: -0.57450426}
        tangentMode: 0
      - time: 0.20000002
        value: {x: 0.15358289, y: -0.20276132, z: -0.53211904, w: 0.8075577}
        inSlope: {x: -0.2745851, y: 0.24686, z: 1.1028116, w: 0.802997}
        outSlope: {x: -0.2745851, y: 0.24686, z: 1.1028116, w: 0.802997}
        tangentMode: 0
      - time: 0.26666668
        value: {x: 0.11851735, y: -0.17931579, z: -0.3934318, w: 0.8938741}
        inSlope: {x: -0.7269274, y: 0.27192685, z: 2.8845801, w: 1.3842703}
        outSlope: {x: -0.7269274, y: 0.27192685, z: 2.8845801, w: 1.3842703}
        tangentMode: 0
      - time: 0.33333334
        value: {x: 0.063230775, y: -0.17647585, z: -0.16431896, w: 0.9684304}
        inSlope: {x: -0.7972623, y: -0.24950022, z: 3.6501539, w: 0.63049084}
        outSlope: {x: -0.7972623, y: -0.24950022, z: 3.6501539, w: 0.63049084}
        tangentMode: 0
      - time: 0.40000004
        value: {x: 0.02049952, y: -0.20965362, z: 0.06810428, w: 0.9751856}
        inSlope: {x: -0.41959584, y: -0.614858, z: 2.973141, w: -0.2969938}
        outSlope: {x: -0.41959584, y: -0.614858, z: 2.973141, w: -0.2969938}
        tangentMode: 0
      - time: 0.4666667
        value: {x: 0.0063398136, y: -0.2469922, z: 0.21349615, w: 0.9451847}
        inSlope: {x: -0.074458346, y: -0.33882904, z: 1.1726435, w: -0.32667708}
        outSlope: {x: -0.074458346, y: -0.33882904, z: 1.1726435, w: -0.32667708}
        tangentMode: 0
      - time: 0.5
        value: {x: 0.0054483935, y: -0.2533176, z: 0.23416992, w: 0.9385973}
        inSlope: {x: -0.026742628, y: -0.189762, z: 0.62021357, w: -0.19762178}
        outSlope: {x: -0.026742628, y: -0.189762, z: 0.62021357, w: -0.19762178}
        tangentMode: 0
      m_PreInfinity: 2
      m_PostInfinity: 2
      m_RotationOrder: 4
    path: RigHead/RigTail1/RigTail2
  - curve:
      serializedVersion: 2
      m_Curve:
      - time: 0
        value: {x: -0.11337876, y: -0.3150771, z: 0.11506993, w: 0.93521684}
        inSlope: {x: -0.51115525, y: 0.094893865, z: -1.3505636, w: 0.09868025}
        outSlope: {x: -0.51115525, y: 0.094893865, z: -1.3505636, w: 0.09868025}
        tangentMode: 0
      - time: 0.033333335
        value: {x: -0.13041727, y: -0.31191397, z: 0.07005114, w: 0.9385062}
        inSlope: {x: -0.85996825, y: 0.21602152, z: -2.286773, w: 0.035436448}
        outSlope: {x: -0.85996825, y: 0.21602152, z: -2.286773, w: 0.035436448}
        tangentMode: 0
      - time: 0.06666667
        value: {x: -0.17070998, y: -0.30067566, z: -0.03738161, w: 0.9375793}
        inSlope: {x: -1.3050511, y: 0.47148353, z: -3.512755, w: -0.27173367}
        outSlope: {x: -1.3050511, y: 0.47148353, z: -3.512755, w: -0.27173367}
        tangentMode: 0
      - time: 0.10000001
        value: {x: -0.21742068, y: -0.28048173, z: -0.16413257, w: 0.9203906}
        inSlope: {x: -1.2587439, y: 0.64001167, z: -3.4510531, w: -0.6718996}
        outSlope: {x: -1.2587439, y: 0.64001167, z: -3.4510531, w: -0.6718996}
        tangentMode: 0
      - time: 0.13333334
        value: {x: -0.25462624, y: -0.2580082, z: -0.26745185, w: 0.89278597}
        inSlope: {x: -0.78172517, y: 0.500359, z: -2.1826472, w: -0.6399805}
        outSlope: {x: -0.78172517, y: 0.500359, z: -2.1826472, w: -0.6399805}
        tangentMode: 0
      - time: 0.16666667
        value: {x: -0.2695357, y: -0.24712446, z: -0.30964237, w: 0.87772524}
        inSlope: {x: -0.16410786, y: 0.11805612, z: -0.46361634, w: -0.1621047}
        outSlope: {x: -0.16410786, y: 0.11805612, z: -0.46361634, w: -0.1621047}
        tangentMode: 0
      - time: 0.23333335
        value: {x: -0.25462624, y: -0.2580082, z: -0.26745185, w: 0.89278597}
        inSlope: {x: 0.41216952, y: -0.27952376, z: 1.1571567, w: 0.37109348}
        outSlope: {x: 0.41216952, y: -0.27952376, z: 1.1571567, w: 0.37109348}
        tangentMode: 0
      - time: 0.33333334
        value: {x: -0.1943162, y: -0.29149398, z: -0.101091996, w: 0.93115675}
        inSlope: {x: 0.7006599, y: -0.3029077, z: 1.9012632, w: 0.25783005}
        outSlope: {x: 0.7006599, y: -0.3029077, z: 1.9012632, w: 0.25783005}
        tangentMode: 0
      - time: 0.4666667
        value: {x: -0.11796936, y: -0.31431538, z: 0.102962196, w: 0.93631613}
        inSlope: {x: 0.2555775, y: -0.04744695, z: 0.6752814, w: -0.049340148}
        outSlope: {x: 0.2555775, y: -0.04744695, z: 0.6752814, w: -0.049340148}
        tangentMode: 0
      - time: 0.5
        value: {x: -0.11337876, y: -0.3150771, z: 0.11506993, w: 0.93521684}
        inSlope: {x: 0.13771793, y: -0.02285155, z: 0.36323246, w: -0.032978684}
        outSlope: {x: 0.13771793, y: -0.02285155, z: 0.36323246, w: -0.032978684}
        tangentMode: 0
      m_PreInfinity: 2
      m_PostInfinity: 2
      m_RotationOrder: 4
    path: RigHead/RigTail1/RigTail2/RigTail3
  - curve:
      serializedVersion: 2
      m_Curve:
      - time: 0
        value: {x: 0.28782818, y: 0.8048489, z: -0.03371434, w: 0.51791555}
        inSlope: {x: -0.14533995, y: -0.440163, z: 0.88490367, w: 0.77114755}
        outSlope: {x: -0.14533995, y: -0.440163, z: 0.88490367, w: 0.77114755}
        tangentMode: 0
      - time: 0.033333335
        value: {x: 0.2829835, y: 0.7901768, z: -0.004217548, w: 0.54362047}
        inSlope: {x: -0.4369515, y: -0.8129283, z: 1.328419, w: 1.3132201}
        outSlope: {x: -0.4369515, y: -0.8129283, z: 1.328419, w: 1.3132201}
        tangentMode: 0
      - time: 0.06666667
        value: {x: 0.25869808, y: 0.7506537, z: 0.054846935, w: 0.60546356}
        inSlope: {x: -1.1356317, y: -1.3342934, z: 1.6400554, w: 1.9556494}
        outSlope: {x: -1.1356317, y: -1.3342934, z: 1.6400554, w: 1.9556494}
        tangentMode: 0
      - time: 0.10000001
        value: {x: 0.20727472, y: 0.7012239, z: 0.10511949, w: 0.6739971}
        inSlope: {x: -1.6578176, y: -1.3087337, z: 1.1660184, w: 1.7384424}
        outSlope: {x: -1.6578176, y: -1.3087337, z: 1.1660184, w: 1.7384424}
        tangentMode: 0
      - time: 0.13333334
        value: {x: 0.1481769, y: 0.66340476, z: 0.1325815, w: 0.7213597}
        inSlope: {x: -1.3094482, y: -0.7761509, z: 0.5372549, w: 0.95265454}
        outSlope: {x: -1.3094482, y: -0.7761509, z: 0.5372549, w: 0.95265454}
        tangentMode: 0
      - time: 0.20000002
        value: {x: 0.1277372, y: 0.65309536, z: 0.13884212, w: 0.7333979}
        inSlope: {x: 0.42298076, y: 0.20886362, z: -0.12532465, w: -0.2422151}
        outSlope: {x: 0.42298076, y: 0.20886362, z: -0.12532465, w: -0.2422151}
        tangentMode: 0
      - time: 0.33333334
        value: {x: 0.23586906, y: 0.7257651, z: 0.08260488, w: 0.64094245}
        inSlope: {x: 0.7713491, y: 0.7414458, z: -0.7540884, w: -1.0280023}
        outSlope: {x: 0.7713491, y: 0.7414458, z: -0.7540884, w: -1.0280023}
        tangentMode: 0
      - time: 0.4666667
        value: {x: 0.28683263, y: 0.8010513, z: -0.025502808, w: 0.52477944}
        inSlope: {x: 0.072669104, y: 0.22008158, z: -0.44245082, w: -0.38557303}
        outSlope: {x: 0.072669104, y: 0.22008158, z: -0.44245082, w: -0.38557303}
        tangentMode: 0
      - time: 0.5
        value: {x: 0.28782818, y: 0.8048489, z: -0.03371434, w: 0.51791555}
        inSlope: {x: 0.029866425, y: 0.113927834, z: -0.24634616, w: -0.20591696}
        outSlope: {x: 0.029866425, y: 0.113927834, z: -0.24634616, w: -0.20591696}
        tangentMode: 0
      m_PreInfinity: 2
      m_PostInfinity: 2
      m_RotationOrder: 4
    path: RigHead/RigLArm1
  - curve:
      serializedVersion: 2
      m_Curve:
      - time: 0
        value: {x: 0.21011484, y: -0.0065867347, z: 0.86240363, w: -0.46050873}
        inSlope: {x: 0.24101703, y: -0.061079916, z: -0.42381403, w: -0.6584161}
        outSlope: {x: 0.24101703, y: -0.061079916, z: -0.42381403, w: -0.6584161}
        tangentMode: 0
      - time: 0.033333335
        value: {x: 0.21814874, y: -0.008622732, z: 0.8482765, w: -0.48245594}
        inSlope: {x: 0.4221846, y: -0.074213795, z: -0.7544249, w: -1.0801814}
        outSlope: {x: 0.4221846, y: -0.074213795, z: -0.7544249, w: -1.0801814}
        tangentMode: 0
      - time: 0.10000001
        value: {x: 0.2636592, y: -0.011258524, z: 0.7647482, w: -0.5878072}
        inSlope: {x: 0.7118851, y: 0.05673765, z: -1.3521552, w: -1.4642223}
        outSlope: {x: 0.7118851, y: 0.05673765, z: -1.3521552, w: -1.4642223}
        tangentMode: 0
      - time: 0.16666667
        value: {x: 0.2950941, y: -0.0053711734, z: 0.70327586, w: -0.6467564}
        inSlope: {x: 0.10269198, y: 0.025295444, z: -0.20425117, w: -0.18319044}
        outSlope: {x: 0.10269198, y: 0.025295444, z: -0.20425117, w: -0.18319044}
        tangentMode: 0
      - time: 0.26666668
        value: {x: 0.27569303, y: -0.009711701, z: 0.74161077, w: -0.6114839}
        inSlope: {x: -0.3309046, y: -0.052601013, z: 0.64174896, w: 0.6349272}
        outSlope: {x: -0.3309046, y: -0.052601013, z: 0.64174896, w: 0.6349272}
        tangentMode: 0
      - time: 0.43333337
        value: {x: 0.21814874, y: -0.008622732, z: 0.8482765, w: -0.48245594}
        inSlope: {x: -0.22236162, y: 0.046520732, z: 0.39449218, w: 0.58500814}
        outSlope: {x: -0.22236162, y: 0.046520732, z: 0.39449218, w: 0.58500814}
        tangentMode: 0
      - time: 0.5
        value: {x: 0.21011484, y: -0.0065867347, z: 0.86240363, w: -0.46050873}
        inSlope: {x: -0.06412184, y: 0.017830756, z: 0.11221658, w: 0.17886595}
        outSlope: {x: -0.06412184, y: 0.017830756, z: 0.11221658, w: 0.17886595}
        tangentMode: 0
      m_PreInfinity: 2
      m_PostInfinity: 2
      m_RotationOrder: 4
    path: RigHead/RigLArm1/RigLArm2
  - curve:
      serializedVersion: 2
      m_Curve:
      - time: 0
        value: {x: 0.33008036, y: -0.16557196, z: 0.46262127, w: 0.8059867}
        inSlope: {x: 0.18550514, y: 1.0188397, z: -1.4437213, w: 0.88067824}
        outSlope: {x: 0.18550514, y: 1.0188397, z: -1.4437213, w: 0.88067824}
        tangentMode: 0
      - time: 0.033333335
        value: {x: 0.33626387, y: -0.13161063, z: 0.41449723, w: 0.83534265}
        inSlope: {x: 0.6080706, y: 1.6110382, z: -2.7729526, w: 1.1757382}
        outSlope: {x: 0.6080706, y: 1.6110382, z: -2.7729526, w: 1.1757382}
        tangentMode: 0
      - time: 0.06666667
        value: {x: 0.3706184, y: -0.05816941, z: 0.27775776, w: 0.88436925}
        inSlope: {x: 1.5683568, y: 2.0490534, z: -4.9522524, w: 0.8739995}
        outSlope: {x: 1.5683568, y: 2.0490534, z: -4.9522524, w: 0.8739995}
        tangentMode: 0
      - time: 0.10000001
        value: {x: 0.440821, y: 0.0049929437, z: 0.08434704, w: 0.8936093}
        inSlope: {x: 2.1524324, y: 1.3127508, z: -5.5102453, w: -0.47766307}
        outSlope: {x: 2.1524324, y: 1.3127508, z: -5.5102453, w: -0.47766307}
        tangentMode: 0
      - time: 0.13333334
        value: {x: 0.5141139, y: 0.029347312, z: -0.08959192, w: 0.85252506}
        inSlope: {x: 1.579435, y: 0.3869125, z: -3.700605, w: -1.0854212}
        outSlope: {x: 1.579435, y: 0.3869125, z: -3.700605, w: -1.0854212}
        tangentMode: 0
      - time: 0.16666667
        value: {x: 0.54611665, y: 0.030787107, z: -0.16235994, w: 0.8212479}
        inSlope: {x: 0.35093135, y: 0.02362177, z: -0.7993512, w: -0.33053765}
        outSlope: {x: 0.35093135, y: 0.02362177, z: -0.7993512, w: -0.33053765}
        tangentMode: 0
      - time: 0.20000002
        value: {x: 0.5375093, y: 0.030922096, z: -0.14288199, w: 0.8304892}
        inSlope: {x: -0.4800412, y: -0.021597205, z: 1.0915213, w: 0.46915767}
        outSlope: {x: -0.4800412, y: -0.021597205, z: 1.0915213, w: 0.46915767}
        tangentMode: 0
      - time: 0.3
        value: {x: 0.44082093, y: 0.0049929805, z: 0.08434711, w: 0.8936093}
        inSlope: {x: -1.1644074, y: -0.6660495, z: 2.9216988, w: 0.29338542}
        outSlope: {x: -1.1644074, y: -0.6660495, z: 2.9216988, w: 0.29338542}
        tangentMode: 0
      - time: 0.36666667
        value: {x: 0.3706184, y: -0.05816941, z: 0.27775776, w: 0.88436925}
        inSlope: {x: -0.80914664, y: -1.1140574, z: 2.5821753, w: -0.5237636}
        outSlope: {x: -0.80914664, y: -1.1140574, z: 2.5821753, w: -0.5237636}
        tangentMode: 0
      - time: 0.4666667
        value: {x: 0.33123642, y: -0.15632385, z: 0.4502533, w: 0.8143201}
        inSlope: {x: -0.0927526, y: -0.5094196, z: 0.7218596, w: -0.4403384}
        outSlope: {x: -0.0927526, y: -0.5094196, z: 0.7218596, w: -0.4403384}
        tangentMode: 0
      - time: 0.5
        value: {x: 0.33008036, y: -0.16557196, z: 0.46262127, w: 0.8059867}
        inSlope: {x: -0.03468189, y: -0.2774435, z: 0.37103927, w: -0.2500018}
        outSlope: {x: -0.03468189, y: -0.2774435, z: 0.37103927, w: -0.2500018}
        tangentMode: 0
      m_PreInfinity: 2
      m_PostInfinity: 2
      m_RotationOrder: 4
    path: RigHead/RigLArm1/RigLArm2/RigLArmPalm
  - curve:
      serializedVersion: 2
      m_Curve:
      - time: 0
        value: {x: 0.5539491, y: 0.72149134, z: -0.19041313, w: -0.36923358}
        inSlope: {x: -0.32801446, y: -0.65102035, z: -0.45342204, w: -1.4076768}
        outSlope: {x: -0.32801446, y: -0.65102035, z: -0.45342204, w: -1.4076768}
        tangentMode: 0
      - time: 0.033333335
        value: {x: 0.5430153, y: 0.69979066, z: -0.2055272, w: -0.41615614}
        inSlope: {x: -0.78112626, y: -1.0797821, z: -0.61574644, w: -2.2944486}
        outSlope: {x: -0.78112626, y: -1.0797821, z: -0.61574644, w: -2.2944486}
        tangentMode: 0
      - time: 0.06666667
        value: {x: 0.501874, y: 0.64950585, z: -0.2314629, w: -0.5221968}
        inSlope: {x: -1.7246516, y: -1.5568719, z: -0.60727555, w: -3.256886}
        outSlope: {x: -1.7246516, y: -1.5568719, z: -0.60727555, w: -3.256886}
        tangentMode: 0
      - time: 0.10000001
        value: {x: 0.4280385, y: 0.5959992, z: -0.24601224, w: -0.6332819}
        inSlope: {x: -2.2865021, y: -1.3456106, z: -0.24063279, w: -2.8081512}
        outSlope: {x: -2.2865021, y: -1.3456106, z: -0.24063279, w: -2.8081512}
        tangentMode: 0
      - time: 0.13333334
        value: {x: 0.34944054, y: 0.5597985, z: -0.24750508, w: -0.7094069}
        inSlope: {x: -1.7259896, y: -0.7278917, z: -0.0003694743, w: -1.5417017}
        outSlope: {x: -1.7259896, y: -0.7278917, z: -0.0003694743, w: -1.5417017}
        tangentMode: 0
      - time: 0.16666667
        value: {x: 0.31297255, y: 0.5474731, z: -0.24603687, w: -0.736062}
        inSlope: {x: -0.39717266, y: -0.1377565, z: 0.014647995, w: -0.2969966}
        outSlope: {x: -0.39717266, y: -0.1377565, z: 0.014647995, w: -0.2969966}
        tangentMode: 0
      - time: 0.23333335
        value: {x: 0.34944054, y: 0.5597985, z: -0.24750508, w: -0.7094069}
        inSlope: {x: 0.953773, y: 0.36602768, z: -0.019391032, w: 0.78096455}
        outSlope: {x: 0.953773, y: 0.36602768, z: -0.019391032, w: 0.78096455}
        tangentMode: 0
      - time: 0.33333334
        value: {x: 0.46802434, y: 0.6215804, z: -0.2407463, w: -0.58020014}
        inSlope: {x: 1.1075333, y: 0.80260015, z: 0.21824065, w: 1.6662769}
        outSlope: {x: 1.1075333, y: 0.80260015, z: 0.21824065, w: 1.6662769}
        tangentMode: 0
      - time: 0.43333337
        value: {x: 0.5430153, y: 0.69979066, z: -0.2055272, w: -0.41615614}
        inSlope: {x: 0.36609474, y: 0.5841664, z: 0.36309534, w: 1.2487435}
        outSlope: {x: 0.36609474, y: 0.5841664, z: 0.36309534, w: 1.2487435}
        tangentMode: 0
      - time: 0.5
        value: {x: 0.5539491, y: 0.72149134, z: -0.19041313, w: -0.36923358}
        inSlope: {x: 0.07681675, y: 0.17550783, z: 0.12978953, w: 0.38225}
        outSlope: {x: 0.07681675, y: 0.17550783, z: 0.12978953, w: 0.38225}
        tangentMode: 0
      m_PreInfinity: 2
      m_PostInfinity: 2
      m_RotationOrder: 4
    path: RigHead/RigRArm1
  - curve:
      serializedVersion: 2
      m_Curve:
      - time: 0
        value: {x: -0.19077991, y: 0.0067828367, z: 0.88810104, w: -0.418131}
        inSlope: {x: -0.17215623, y: 0.025661306, z: -0.24096785, w: -0.4222217}
        outSlope: {x: -0.17215623, y: 0.025661306, z: -0.24096785, w: -0.4222217}
        tangentMode: 0
      - time: 0.033333335
        value: {x: -0.19651845, y: 0.0076382137, z: 0.8800688, w: -0.43220505}
        inSlope: {x: -0.2955566, y: 0.030664414, z: -0.42247024, w: -0.7014732}
        outSlope: {x: -0.2955566, y: 0.030664414, z: -0.42247024, w: -0.7014732}
        tangentMode: 0
      - time: 0.13333334
        value: {x: -0.24213587, y: 0.007130723, z: 0.8113077, w: -0.53207076}
        inSlope: {x: -0.3107422, y: -0.03789332, z: -0.49243128, w: -0.62890744}
        outSlope: {x: -0.3107422, y: -0.03789332, z: -0.49243128, w: -0.62890744}
        tangentMode: 0
      - time: 0.26666668
        value: {x: -0.23553686, y: 0.007970625, z: 0.82178944, w: -0.51876867}
        inSlope: {x: 0.21846728, y: 0.02273926, z: 0.34337553, w: 0.4474202}
        outSlope: {x: 0.21846728, y: 0.02273926, z: 0.34337553, w: 0.4474202}
        tangentMode: 0
      - time: 0.4666667
        value: {x: -0.19231743, y: 0.00703369, z: 0.885963, w: -0.42194095}
        inSlope: {x: 0.08607815, y: -0.012830658, z: 0.12048397, w: 0.21111093}
        outSlope: {x: 0.08607815, y: -0.012830658, z: 0.12048397, w: 0.21111093}
        tangentMode: 0
      - time: 0.5
        value: {x: -0.19077991, y: 0.0067828367, z: 0.88810104, w: -0.418131}
        inSlope: {x: 0.046125546, y: -0.007525601, z: 0.06414062, w: 0.11429887}
        outSlope: {x: 0.046125546, y: -0.007525601, z: 0.06414062, w: 0.11429887}
        tangentMode: 0
      m_PreInfinity: 2
      m_PostInfinity: 2
      m_RotationOrder: 4
    path: RigHead/RigRArm1/RigRArm2
  - curve:
      serializedVersion: 2
      m_Curve:
      - time: 0
        value: {x: -0.32120147, y: 0.1461606, z: 0.14955793, w: 0.92363364}
        inSlope: {x: 0.085427456, y: 0.24568541, z: -0.88181436, w: 0.11811375}
        outSlope: {x: 0.085427456, y: 0.24568541, z: -0.88181436, w: 0.11811375}
        tangentMode: 0
      - time: 0.033333335
        value: {x: -0.3183539, y: 0.15435012, z: 0.12016412, w: 0.92757076}
        inSlope: {x: 0.15669821, y: 0.41375148, z: -1.4979167, w: 0.14279185}
        outSlope: {x: 0.15669821, y: 0.41375148, z: -1.4979167, w: 0.14279185}
        tangentMode: 0
      - time: 0.10000001
        value: {x: -0.30018094, y: 0.196571, z: -0.034628317, w: 0.93276584}
        inSlope: {x: 0.31056046, y: 0.6241055, z: -2.3201356, w: -0.09921671}
        outSlope: {x: 0.31056046, y: 0.6241055, z: -2.3201356, w: -0.09921671}
        tangentMode: 0
      - time: 0.16666667
        value: {x: -0.28545648, y: 0.22311512, z: -0.13429236, w: 0.9223339}
        inSlope: {x: 0.050058976, y: 0.08521223, z: -0.3215328, w: -0.044707075}
        outSlope: {x: 0.050058976, y: 0.08521223, z: -0.3215328, w: -0.044707075}
        tangentMode: 0
      - time: 0.23333335
        value: {x: -0.2900509, y: 0.21535107, z: -0.10497892, w: 0.92653865}
        inSlope: {x: -0.12084068, y: -0.21177495, z: 0.7971473, w: 0.09686083}
        outSlope: {x: -0.12084068, y: -0.21177495, z: 0.7971473, w: 0.09686083}
        tangentMode: 0
      - time: 0.36666667
        value: {x: -0.31075493, y: 0.17374404, z: 0.04969682, w: 0.9331531}
        inSlope: {x: -0.14084946, y: -0.33109152, z: 1.2129854, w: -0.047430366}
        outSlope: {x: -0.14084946, y: -0.33109152, z: 1.2129854, w: -0.047430366}
        tangentMode: 0
      - time: 0.4666667
        value: {x: -0.32045442, y: 0.14836825, z: 0.14165641, w: 0.9247861}
        inSlope: {x: -0.042713746, y: -0.12284253, z: 0.44090748, w: -0.0590569}
        outSlope: {x: -0.042713746, y: -0.12284253, z: 0.44090748, w: -0.0590569}
        tangentMode: 0
      - time: 0.5
        value: {x: -0.32120147, y: 0.1461606, z: 0.14955793, w: 0.92363364}
        inSlope: {x: -0.022411665, y: -0.06622961, z: 0.23704581, w: -0.034573708}
        outSlope: {x: -0.022411665, y: -0.06622961, z: 0.23704581, w: -0.034573708}
        tangentMode: 0
      m_PreInfinity: 2
      m_PostInfinity: 2
      m_RotationOrder: 4
    path: RigHead/RigRArm1/RigRArm2/RigRArmPalm
  m_CompressedRotationCurves: []
  m_EulerCurves: []
  m_PositionCurves:
  - curve:
      serializedVersion: 2
      m_Curve:
      - time: 0
        value: {x: -0, y: 0, z: 0}
        inSlope: {x: 0, y: 0, z: 0}
        outSlope: {x: 0, y: 0, z: 0}
        tangentMode: 0
      - time: 0.5
        value: {x: -0, y: 0, z: 0}
        inSlope: {x: 0, y: 0, z: 0}
        outSlope: {x: 0, y: 0, z: 0}
        tangentMode: 0
      m_PreInfinity: 2
      m_PostInfinity: 2
      m_RotationOrder: 4
    path: Rig
  - curve:
      serializedVersion: 2
      m_Curve:
      - time: 0
        value: {x: 4.9719472e-14, y: 0.77178437, z: -0.00000016714294}
        inSlope: {x: -0.000000014293046, y: 0.2174304, z: -0.3269867}
        outSlope: {x: -0.000000014293046, y: 0.2174304, z: -0.3269867}
        tangentMode: 0
      - time: 0.033333335
        value: {x: -4.763851e-10, y: 0.7790321, z: -0.010899724}
        inSlope: {x: -0.00000002418823, y: 0.36795834, z: -0.5533622}
        outSlope: {x: -0.000000024188235, y: 0.36798394, z: -0.55336267}
        tangentMode: 0
      - time: 0.06666667
        value: {x: -0.0000000016124988, y: 0.7963152, z: -0.03689098}
        inSlope: {x: -0.000000037381795, y: 0.5686806, z: -0.8551961}
        outSlope: {x: -0.000000037381792, y: 0.56869096, z: -0.85519516}
        tangentMode: 0
      - time: 0.1
        value: {x: -0.0000000029685059, y: 0.8169434, z: -0.06791281}
        inSlope: {x: -0.000000037381735, y: 0.56868005, z: -0.85519344}
        outSlope: {x: -0.000000037381803, y: 0.5686723, z: -0.8551955}
        tangentMode: 0
      - time: 0.13333334
        value: {x: -0.0000000041046193, y: 0.8342265, z: -0.093904056}
        inSlope: {x: -0.000000024188163, y: 0.3679648, z: -0.5533624}
        outSlope: {x: -0.000000024188315, y: 0.36797744, z: -0.55336255}
        tangentMode: 0
      - time: 0.16666667
        value: {x: -0.000000004581054, y: 0.8414743, z: -0.104803614}
        inSlope: {x: -0.0000000052225486, y: 0.07945554, z: -0.11947617}
        outSlope: {x: -0.00000000522247, y: 0.07946059, z: -0.11947417}
        tangentMode: 0
      - time: 0.2
        value: {x: -0.0000000044527835, y: 0.839523, z: -0.10186912}
        inSlope: {x: 0.0000000071464954, y: -0.10870208, z: 0.16349599}
        outSlope: {x: 0.000000007146507, y: -0.10871744, z: 0.16349392}
        tangentMode: 0
      - time: 0.4
        value: {x: -9.894687e-10, y: 0.7868374, z: -0.022637712}
        inSlope: {x: 0.00000001704162, y: -0.25925368, z: 0.38986698}
        outSlope: {x: 0.000000017041684, y: -0.2592528, z: 0.38986817}
        tangentMode: 0
      - time: 0.43333334
        value: {x: -4.763851e-10, y: 0.7790321, z: -0.010899726}
        inSlope: {x: 0.000000012918658, y: -0.19652827, z: 0.29554433}
        outSlope: {x: 0.000000012918691, y: -0.1965127, z: 0.29554504}
        tangentMode: 0
      - time: 0.46666667
        value: {x: -1.2822118e-10, y: 0.77373564, z: -0.0029346636}
        inSlope: {x: 0.0000000071464856, y: -0.10870927, z: 0.16349253}
        outSlope: {x: 0.000000007146512, y: -0.108702086, z: 0.16349317}
        tangentMode: 0
      - time: 0.5
        value: {x: 4.9719472e-14, y: 0.77178437, z: -0.00000016714294}
        inSlope: {x: 0.000000003848117, y: -0.058522467, z: 0.088034675}
        outSlope: {x: 0.000000003848117, y: -0.058522467, z: 0.088034675}
        tangentMode: 0
      m_PreInfinity: 2
      m_PostInfinity: 2
      m_RotationOrder: 4
    path: RigHead
  - curve:
      serializedVersion: 2
      m_Curve:
      - time: 0
        value: {x: 0.36622185, y: -0.01855842, z: 0.0000000028744591}
        inSlope: {x: 0, y: 0, z: 0}
        outSlope: {x: 0, y: 0, z: 0}
        tangentMode: 0
      - time: 0.5
        value: {x: 0.36622185, y: -0.01855842, z: 0.0000000028744591}
        inSlope: {x: 0, y: 0, z: 0}
        outSlope: {x: 0, y: 0, z: 0}
        tangentMode: 0
      m_PreInfinity: 2
      m_PostInfinity: 2
      m_RotationOrder: 4
    path: RigHead/RigLowerJaw
  - curve:
      serializedVersion: 2
      m_Curve:
      - time: 0
        value: {x: 0.36981398, y: -0.33077225, z: 0.00000006440375}
        inSlope: {x: 6.661338e-15, y: -8.881783e-15, z: -9.222785e-10}
        outSlope: {x: 6.661338e-15, y: -8.881783e-15, z: -9.222785e-10}
        tangentMode: 0
      - time: 0.033333335
        value: {x: 0.36981398, y: -0.33077225, z: 0.00000006437301}
        inSlope: {x: 2.8548593e-15, y: -3.806479e-15, z: 0.000000030830776}
        outSlope: {x: 6.661338e-15, y: -8.881783e-15, z: 0.000000030831153}
        tangentMode: 0
      - time: 0.06666667
        value: {x: 0.36981398, y: -0.33077225, z: 0.00000006645918}
        inSlope: {x: 2.8548593e-15, y: -3.806479e-15, z: -0.00000007152597}
        outSlope: {x: -0.0000029427667, y: -8.881784e-15, z: -0.00000007152563}
        tangentMode: 0
      - time: 0.1
        value: {x: 0.36981404, y: -0.33077225, z: 0.000000059604645}
        inSlope: {x: -0.0000029427667, y: -3.8064792e-15, z: 0.00000014752162}
        outSlope: {x: -0.0000029427663, y: -0.0000058855326, z: 0.00000014752081}
        tangentMode: 0
      - time: 0.13333334
        value: {x: 0.36981407, y: -0.33077216, z: 0.000000076293944}
        inSlope: {x: -0.0000029427663, y: -0.0000058855326, z: 0.0000001788139}
        outSlope: {x: 0.0000029427667, y: 0.0000058855335, z: 0.00000017881337}
        tangentMode: 0
      - time: 0.16666667
        value: {x: 0.36981404, y: -0.33077225, z: 0.00000007152557}
        inSlope: {x: 0.0000029427667, y: 0.0000058855335, z: -0.0000000715257}
        outSlope: {x: 6.6613386e-15, y: -8.881784e-15, z: -0.00000007152591}
        tangentMode: 0
      - time: 0.2
        value: {x: 0.36981404, y: -0.33077225, z: 0.00000007152557}
        inSlope: {x: 2.8548595e-15, y: -3.8064792e-15, z: 0.00000007152591}
        outSlope: {x: -0.0000029427667, y: -0.0000058855335, z: 0.0000000715257}
        tangentMode: 0
      - time: 0.23333333
        value: {x: 0.36981407, y: -0.33077216, z: 0.000000076293944}
        inSlope: {x: -0.0000029427667, y: -0.0000058855335, z: -2.1184325e-13}
        outSlope: {x: -0.000004795617, y: -2.2204452e-15, z: 6.9480906e-13}
        tangentMode: 0
      - time: 0.26666668
        value: {x: 0.36981395, y: -0.33077216, z: 0.00000007152557}
        inSlope: {x: -0.000004795617, y: -9.516194e-16, z: -0.00000021457501}
        outSlope: {x: 0.0000011444092, y: -2.220446e-15, z: -0.00000021457569}
        tangentMode: 0
      - time: 0.3
        value: {x: 0.36981398, y: -0.33077216, z: 0.00000006198883}
        inSlope: {x: 0.0000065939767, y: -9.516198e-16, z: -0.0000001341088}
        outSlope: {x: -0.0000058855335, y: 0.0000058855335, z: -0.00000013411126}
        tangentMode: 0
      - time: 0.33333334
        value: {x: 0.36981407, y: -0.33077225, z: 0.000000062584874}
        inSlope: {x: -0.0000058855335, y: 0.0000058855335, z: 0.00000007152485}
        outSlope: {x: 0.0000058855335, y: -8.881784e-15, z: 0.000000071525626}
        tangentMode: 0
      - time: 0.36666667
        value: {x: 0.36981398, y: -0.33077225, z: 0.0000000667572}
        inSlope: {x: 0.0000058855335, y: -3.8064792e-15, z: 0.00000002905677}
        outSlope: {x: 6.6613386e-15, y: -8.881784e-15, z: 0.000000029057102}
        tangentMode: 0
      - time: 0.4
        value: {x: 0.36981398, y: -0.33077225, z: 0.00000006452203}
        inSlope: {x: 2.8548595e-15, y: -3.8064792e-15, z: -0.00000003576194}
        outSlope: {x: 6.6613386e-15, y: -8.881784e-15, z: -0.000000035762813}
        tangentMode: 0
      - time: 0.46666667
        value: {x: 0.36981392, y: -0.33077216, z: 0.000000064428896}
        inSlope: {x: 0.0000058855335, y: -0.0000058855335, z: 4.6090562e-10}
        outSlope: {x: -0.0000017983576, y: 0.0000017983576, z: 4.6039936e-10}
        tangentMode: 0
      - time: 0.5
        value: {x: 0.36981398, y: -0.33077225, z: 0.00000006440375}
        inSlope: {x: 0.00000365121, y: -0.00000365121, z: -7.5442574e-10}
        outSlope: {x: 0.00000365121, y: -0.00000365121, z: -7.5442574e-10}
        tangentMode: 0
      m_PreInfinity: 2
      m_PostInfinity: 2
      m_RotationOrder: 4
    path: RigHead/RigTail1
  - curve:
      serializedVersion: 2
      m_Curve:
      - time: 0
        value: {x: -0.29415897, y: 0, z: 0.000000019073486}
        inSlope: {x: 0, y: 0, z: 0}
        outSlope: {x: 0, y: 0, z: 0}
        tangentMode: 0
      - time: 0.5
        value: {x: -0.29415897, y: 0, z: 0.000000019073486}
        inSlope: {x: 0, y: 0, z: 0}
        outSlope: {x: 0, y: 0, z: 0}
        tangentMode: 0
      m_PreInfinity: 2
      m_PostInfinity: 2
      m_RotationOrder: 4
    path: RigHead/RigTail1/RigTail2
  - curve:
      serializedVersion: 2
      m_Curve:
      - time: 0
        value: {x: -0.17733887, y: 0, z: 0}
        inSlope: {x: 0, y: 0, z: 0}
        outSlope: {x: 0, y: 0, z: 0}
        tangentMode: 0
      - time: 0.5
        value: {x: -0.17733887, y: 0, z: 0}
        inSlope: {x: 0, y: 0, z: 0}
        outSlope: {x: 0, y: 0, z: 0}
        tangentMode: 0
      m_PreInfinity: 2
      m_PostInfinity: 2
      m_RotationOrder: 4
    path: RigHead/RigTail1/RigTail2/RigTail3
  - curve:
      serializedVersion: 2
      m_Curve:
      - time: 0
        value: {x: 0.12355499, y: -0.00000009298324, z: 0.37074906}
        inSlope: {x: 3.330669e-15, y: -0.00000021457635, z: 0.0000029427665}
        outSlope: {x: 3.330669e-15, y: -0.00000021457635, z: 0.0000029427665}
        tangentMode: 0
      - time: 0.033333335
        value: {x: 0.12355499, y: -0.0000001001358, z: 0.370749}
        inSlope: {x: 1.4274297e-15, y: -0.00000017881374, z: 0.0000029427665}
        outSlope: {x: -0.00000194822, y: -0.00000017881504, z: -0.0000029427665}
        tangentMode: 0
      - time: 0.06666667
        value: {x: 0.123554915, y: -0.000000104904174, z: 0.37074906}
        inSlope: {x: -0.0000033106116, y: -0.00000021457898, z: -0.0000029427665}
        outSlope: {x: -0.000003310612, y: -0.00000021457666, z: 4.440892e-15}
        tangentMode: 0
      - time: 0.1
        value: {x: 0.12355484, y: -0.000000114440915, z: 0.37074906}
        inSlope: {x: -0.0000019482202, y: -0.0000001430501, z: 1.9032396e-15}
        outSlope: {x: -0.0000010217938, y: -0.00000014305246, z: 0.0000058855326}
        tangentMode: 0
      - time: 0.13333334
        value: {x: 0.12355484, y: -0.000000114440915, z: 0.37074897}
        inSlope: {x: -0.0000023841853, y: -0.00000057220655, z: 0.0000058855326}
        outSlope: {x: -0.0000037738253, y: -0.00000057220853, z: -0.0000058855335}
        tangentMode: 0
      - time: 0.16666667
        value: {x: 0.12355472, y: -0.00000015258789, z: 0.37074906}
        inSlope: {x: -0.0000024114331, y: -0.0000005722072, z: -0.0000058855335}
        outSlope: {x: 0.0000001226152, y: -0.00000057220666, z: 0.0000029427667}
        tangentMode: 0
      - time: 0.2
        value: {x: 0.12355476, y: -0.00000015258789, z: 0.370749}
        inSlope: {x: 0.000004209791, y: 0.0000005722001, z: 0.0000029427667}
        outSlope: {x: 0.000002288818, y: 0.00000057220757, z: 0.0000029427667}
        tangentMode: 0
      - time: 0.23333333
        value: {x: 0.12355484, y: -0.000000114440915, z: 0.37074897}
        inSlope: {x: -0.00000043596577, y: 0.0000002861039, z: 0.0000029427667}
        outSlope: {x: -0.0000008310579, y: 0.00000028610117, z: -0.0000029427656}
        tangentMode: 0
      - time: 0.26666668
        value: {x: 0.123554684, y: -0.0000001335144, z: 0.370749}
        inSlope: {x: 0.0000005313334, y: 0.0000005722073, z: -0.0000029427656}
        outSlope: {x: 0.0000004904604, y: 0.00000057220086, z: -0.0000029427667}
        tangentMode: 0
      - time: 0.3
        value: {x: 0.12355484, y: -0.000000076293944, z: 0.37074906}
        inSlope: {x: 0.000003215244, y: 0.0000005721931, z: -0.0000029427667}
        outSlope: {x: 0.0000023841858, y: 0.00000057220717, z: 0.0000029427667}
        tangentMode: 0
      - time: 0.33333334
        value: {x: 0.12355484, y: -0.000000095367426, z: 0.370749}
        inSlope: {x: 0.0000010217941, y: -0.0000004291478, z: 0.0000029427667}
        outSlope: {x: 0.00000092642614, y: -0.00000042915246, z: -0.0000029427667}
        tangentMode: 0
      - time: 0.36666667
        value: {x: 0.123554915, y: -0.000000104904174, z: 0.37074906}
        inSlope: {x: 0.00000092642614, y: 4.1516e-13, z: -0.0000029427667}
        outSlope: {x: 1.110223e-15, y: -2.3747356e-12, z: -0.0000029427667}
        tangentMode: 0
      - time: 0.4
        value: {x: 0.123554915, y: -0.000000095367426, z: 0.3707491}
        inSlope: {x: 4.758099e-16, y: 0.00000007152159, z: -0.0000029427667}
        outSlope: {x: 0.00000092642614, y: 0.00000007152597, z: 0.0000058855335}
        tangentMode: 0
      - time: 0.43333334
        value: {x: 0.12355499, y: -0.0000001001358, z: 0.370749}
        inSlope: {x: 0.00000092642614, y: 7.033358e-13, z: 0.0000058855335}
        outSlope: {x: 3.3306693e-15, y: -1.3476458e-12, z: -0.0000029427667}
        tangentMode: 0
      - time: 0.46666667
        value: {x: 0.12355499, y: -0.000000095367426, z: 0.37074906}
        inSlope: {x: 1.4274298e-15, y: 0.000000107287846, z: -0.0000029427667}
        outSlope: {x: 3.3306693e-15, y: 0.000000107288194, z: 4.440892e-15}
        tangentMode: 0
      - time: 0.5
        value: {x: 0.12355499, y: -0.00000009298324, z: 0.37074906}
        inSlope: {x: 1.4274298e-15, y: 0.00000007152427, z: 1.9032396e-15}
        outSlope: {x: 1.4274298e-15, y: 0.00000007152427, z: 1.9032396e-15}
        tangentMode: 0
      m_PreInfinity: 2
      m_PostInfinity: 2
      m_RotationOrder: 4
    path: RigHead/RigLArm1
  - curve:
      serializedVersion: 2
      m_Curve:
      - time: 0
        value: {x: -0.38509783, y: 0, z: 0}
        inSlope: {x: -0.0000029427665, y: -0.00000028610236, z: 0.0000022888185}
        outSlope: {x: -0.0000029427665, y: -0.00000028610236, z: 0.0000022888185}
        tangentMode: 0
      - time: 0.033333335
        value: {x: -0.3850978, y: -0.000000009536743, z: 0.000000076293944}
        inSlope: {x: -0.0000029427665, y: 0.00000021457657, z: -1.07190434e-13}
        outSlope: {x: 0.0000017983575, y: 0.00000021457714, z: -1.4357023e-12}
        tangentMode: 0
      - time: 0.06666667
        value: {x: -0.3850979, y: 0.000000014305114, z: 0}
        inSlope: {x: -0.0000036512097, y: 0.0000007152558, z: -0.0000022888178}
        outSlope: {x: 0.0000029427667, y: 0.0000007152563, z: -0.0000022888182}
        tangentMode: 0
      - time: 0.1
        value: {x: -0.38509792, y: 0.000000038146972, z: -0.000000076293944}
        inSlope: {x: 0.0000029427667, y: -0.00000021457669, z: -0.00000057220177}
        outSlope: {x: 0.0000070299416, y: -0.000000214576, z: -0.00000057220495}
        tangentMode: 0
      - time: 0.13333334
        value: {x: -0.38509795, y: 0, z: -0.000000038146972}
        inSlope: {x: 0.000012479508, y: -0.00000057220353, z: 0.0000011444088}
        outSlope: {x: 0.0000018528523, y: -0.0000005722042, z: 0.0000011444126}
        tangentMode: 0
      - time: 0.36666667
        value: {x: -0.3850979, y: 0.000000014305114, z: 0}
        inSlope: {x: 0.000009536743, y: 0.00000014304887, z: 0.0000011444089}
        outSlope: {x: 0.000011389597, y: 0.00000014305162, z: 0.0000011444032}
        tangentMode: 0
      - time: 0.4
        value: {x: -0.3850977, y: 0.000000009536743, z: 0.000000076293944}
        inSlope: {x: 0.000005940028, y: -0.00000035762685, z: 0.0000011443983}
        outSlope: {x: 0.0000017983576, y: -0.00000035762645, z: 0.0000011444091}
        tangentMode: 0
      - time: 0.43333334
        value: {x: -0.3850978, y: -0.000000009536743, z: 0.000000076293944}
        inSlope: {x: -0.00000365121, y: -0.00000042915113, z: -0.0000011444058}
        outSlope: {x: 0.0000058855335, y: -0.0000004291527, z: -0.0000011444016}
        tangentMode: 0
      - time: 0.46666667
        value: {x: -0.3850979, y: -0.000000019073486, z: 0}
        inSlope: {x: 0.0000058855335, y: 0.000000143052, z: -0.0000011444}
        outSlope: {x: -0.0000029427667, y: 0.00000014304908, z: -0.0000011444095}
        tangentMode: 0
      - time: 0.5
        value: {x: -0.38509783, y: 0, z: 0}
        inSlope: {x: -0.0000029427667, y: 0.00000057220245, z: -8.867574e-13}
        outSlope: {x: -0.0000029427667, y: 0.00000057220245, z: -8.867574e-13}
        tangentMode: 0
      m_PreInfinity: 2
      m_PostInfinity: 2
      m_RotationOrder: 4
    path: RigHead/RigLArm1/RigLArm2
  - curve:
      serializedVersion: 2
      m_Curve:
      - time: 0
        value: {x: -0.37287825, y: 0.000000038146972, z: 0}
        inSlope: {x: -8.881783e-15, y: -0.000001144409, z: -0}
        outSlope: {x: -8.881783e-15, y: -0.000001144409, z: -0}
        tangentMode: 0
      - time: 0.26666668
        value: {x: -0.37287834, y: 0, z: 0}
        inSlope: {x: 0.000005885531, y: -0.0000005722052, z: -0.000001144408}
        outSlope: {x: -0.0000058855335, y: -0.00000057220285, z: -0.0000011444067}
        tangentMode: 0
      - time: 0.3
        value: {x: -0.37287825, y: -0.000000038146972, z: -0.000000076293944}
        inSlope: {x: -0.0000058855335, y: -0.0000005721983, z: 1.18348005e-11}
        outSlope: {x: 0.0000029427667, y: -0.0000005722055, z: -4.8511807e-12}
        tangentMode: 0
      - time: 0.33333334
        value: {x: -0.37287828, y: -0.000000038146972, z: 0}
        inSlope: {x: 0.0000029427667, y: -1.478741e-12, z: 0.0000011443948}
        outSlope: {x: -0.0000029427667, y: 6.837452e-13, z: 0.0000011444101}
        tangentMode: 0
      - time: 0.5
        value: {x: -0.37287825, y: 0.000000038146972, z: 0}
        inSlope: {x: 0.00000365121, y: 0.0000022888094, z: -0}
        outSlope: {x: 0.00000365121, y: 0.0000022888094, z: -0}
        tangentMode: 0
      m_PreInfinity: 2
      m_PostInfinity: 2
      m_RotationOrder: 4
    path: RigHead/RigLArm1/RigLArm2/RigLArmPalm
  - curve:
      serializedVersion: 2
      m_Curve:
      - time: 0
        value: {x: 0.123554915, y: -0.00000009059906, z: -0.37074935}
        inSlope: {x: -0.0000010217939, y: -0.00000071525557, z: -0.0000029427665}
        outSlope: {x: -0.0000010217939, y: -0.00000071525557, z: -0.0000029427665}
        tangentMode: 0
      - time: 0.033333335
        value: {x: 0.123554915, y: -0.000000114440915, z: -0.37074932}
        inSlope: {x: -0.0000023841856, y: -0.0000006437303, z: -0.0000029427665}
        outSlope: {x: -0.0000042370375, y: -0.000000643731, z: 0.000005885533}
        tangentMode: 0
      - time: 0.06666667
        value: {x: 0.12355476, y: -0.0000001335144, z: -0.37074938}
        inSlope: {x: -0.000002874646, y: -0.0000008583068, z: 0.000005885533}
        outSlope: {x: -0.0000023841858, y: -0.00000085830635, z: -0.0000029427667}
        tangentMode: 0
      - time: 0.1
        value: {x: 0.12355476, y: -0.00000017166137, z: -0.37074935}
        inSlope: {x: -0.000001021794, y: -0.00000028610293, z: -0.0000029427667}
        outSlope: {x: -0.00000046321296, y: -0.00000028610125, z: -0.0000029427663}
        tangentMode: 0
      - time: 0.13333334
        value: {x: 0.12355472, y: -0.00000015258789, z: -0.37074932}
        inSlope: {x: -0.00000046321296, y: -0.0000014305105, z: -0.0000029427663}
        outSlope: {x: -0.000001825605, y: -0.0000014305235, z: 0.0000029427667}
        tangentMode: 0
      - time: 0.16666667
        value: {x: 0.123554684, y: -0.0000002670288, z: -0.37074935}
        inSlope: {x: 0.0000008991788, y: -0.0000011444173, z: 0.0000029427667}
        outSlope: {x: 0.0000019482202, y: -0.0000011444085, z: -0.0000029427667}
        tangentMode: 0
      - time: 0.2
        value: {x: 0.12355476, y: -0.00000022888183, z: -0.37074932}
        inSlope: {x: 0.000003310612, y: 0.0000017166125, z: -0.0000029427667}
        outSlope: {x: 0.0000008991788, y: 0.0000017166217, z: -4.440892e-15}
        tangentMode: 0
      - time: 0.23333333
        value: {x: 0.12355472, y: -0.00000015258789, z: -0.37074932}
        inSlope: {x: -0.000001825605, y: 0.00000028610873, z: -1.9032396e-15}
        outSlope: {x: -0.000001825604, y: 0.0000002861022, z: 0.0000029427656}
        tangentMode: 0
      - time: 0.26666668
        value: {x: 0.123554684, y: -0.00000020980835, z: -0.37074935}
        inSlope: {x: 0.0000008991785, y: -0.00000028609188, z: 0.0000029427656}
        outSlope: {x: 0.0000019482202, y: -0.00000028610665, z: -4.440892e-15}
        tangentMode: 0
      - time: 0.3
        value: {x: 0.12355476, y: -0.00000017166137, z: -0.37074935}
        inSlope: {x: 0.000003310612, y: 0.0000005721965, z: -1.9032396e-15}
        outSlope: {x: 0.000002288818, y: 0.00000057220865, z: -4.440892e-15}
        tangentMode: 0
      - time: 0.33333334
        value: {x: 0.12355484, y: -0.00000017166137, z: -0.37074935}
        inSlope: {x: -0.00000043596577, y: 0.00000057220865, z: -1.9032396e-15}
        outSlope: {x: -0.00000092642614, y: 0.00000057220205, z: 0.0000029427667}
        tangentMode: 0
      - time: 0.36666667
        value: {x: 0.12355476, y: -0.0000001335144, z: -0.37074938}
        inSlope: {x: -0.00000092642614, y: 0.0000010013523, z: 0.0000029427667}
        outSlope: {x: -0.00000043596577, y: 0.0000010013576, z: -0.0000029427667}
        tangentMode: 0
      - time: 0.4
        value: {x: 0.12355484, y: -0.000000104904174, z: -0.37074935}
        inSlope: {x: 0.000002288818, y: 0.0000002860985, z: -0.0000029427667}
        outSlope: {x: 0.000002288818, y: 0.00000028610344, z: -0.0000029427667}
        tangentMode: 0
      - time: 0.43333334
        value: {x: 0.123554915, y: -0.000000114440915, z: -0.37074932}
        inSlope: {x: -0.00000043596577, y: 0.00000014305422, z: -0.0000029427667}
        outSlope: {x: -0.00000092642614, y: 0.00000014304871, z: -4.440892e-15}
        tangentMode: 0
      - time: 0.46666667
        value: {x: 0.12355484, y: -0.000000095367426, z: -0.37074932}
        inSlope: {x: -0.00000092642614, y: 0.0000003576258, z: -1.9032396e-15}
        outSlope: {x: -0.00000043596577, y: 0.0000003576279, z: 0.0000029427667}
        tangentMode: 0
      - time: 0.5
        value: {x: 0.123554915, y: -0.00000009059906, z: -0.37074935}
        inSlope: {x: 0.000002288818, y: 0.00000014305081, z: 0.0000029427667}
        outSlope: {x: 0.000002288818, y: 0.00000014305081, z: 0.0000029427667}
        tangentMode: 0
      m_PreInfinity: 2
      m_PostInfinity: 2
      m_RotationOrder: 4
    path: RigHead/RigRArm1
  - curve:
      serializedVersion: 2
      m_Curve:
      - time: 0
        value: {x: -0.38509783, y: -0.000000019073486, z: 0}
        inSlope: {x: -0.0000029427665, y: 0.00000057220467, z: -0}
        outSlope: {x: -0.0000029427665, y: 0.00000057220467, z: -0}
        tangentMode: 0
      - time: 0.06666667
        value: {x: -0.3850978, y: 0, z: 0}
        inSlope: {x: -0, y: 0.0000008583069, z: -0.0000011444089}
        outSlope: {x: 0.0000058855335, y: 0.0000008583072, z: -0.0000011444085}
        tangentMode: 0
      - time: 0.1
        value: {x: -0.3850979, y: 0.000000057220458, z: -0.000000076293944}
        inSlope: {x: 0.0000058855335, y: -0.0000005722052, z: 0.0000011444115}
        outSlope: {x: -0.0000029427663, y: -0.00000057220234, z: 0.000001144407}
        tangentMode: 0
      - time: 0.13333334
        value: {x: -0.38509783, y: -0.000000038146972, z: 0.000000076293944}
        inSlope: {x: -0.0000029427663, y: 0.0000002861042, z: 0.0000017166102}
        outSlope: {x: -0.0000029427667, y: 0.0000002861148, z: 0.0000017166115}
        tangentMode: 0
      - time: 0.16666667
        value: {x: -0.3850978, y: 0.000000076293944, z: 0.000000038146972}
        inSlope: {x: -0.0000029427667, y: 0.0000005722095, z: -0.0000017166149}
        outSlope: {x: -0.000004795619, y: 0.00000057219796, z: -0.0000017166224}
        tangentMode: 0
      - time: 0.2
        value: {x: -0.38509792, y: 0, z: -0.000000038146972}
        inSlope: {x: -0.000004795619, y: -0.0000017166179, z: 0.00000057219984}
        outSlope: {x: -0.0000058855335, y: -0.0000017166172, z: 0.0000005722145}
        tangentMode: 0
      - time: 0.23333333
        value: {x: -0.38509783, y: -0.000000038146972, z: 0.000000076293944}
        inSlope: {x: -0.0000058855335, y: -1.9529775e-12, z: 0.0000005722117}
        outSlope: {x: -0, y: -2.6436243e-12, z: 0.0000005722083}
        tangentMode: 0
      - time: 0.26666668
        value: {x: -0.38509783, y: 0, z: 0}
        inSlope: {x: -0, y: 0.0000014305026, z: -0.0000011443926}
        outSlope: {x: -0, y: 0.0000014305102, z: -0.0000011444107}
        tangentMode: 0
      - time: 0.3
        value: {x: -0.38509783, y: 0.000000057220458, z: 0}
        inSlope: {x: -0, y: 0.00000028609472, z: 0.0000011444065}
        outSlope: {x: 0.0000029427667, y: 0.00000028610478, z: 0.0000011444055}
        tangentMode: 0
      - time: 0.33333334
        value: {x: -0.3850979, y: 0.000000019073486, z: 0.000000076293944}
        inSlope: {x: 0.0000029427667, y: -0.00000085829976, z: -1.1428776e-11}
        outSlope: {x: -0.0000058855335, y: -0.0000008583061, z: 5.453721e-12}
        tangentMode: 0
      - time: 0.36666667
        value: {x: -0.3850978, y: 0, z: 0}
        inSlope: {x: -0.0000058855335, y: -0.00000028610026, z: 1.292457e-11}
        outSlope: {x: -0, y: -0.00000028610248, z: -6.1439625e-12}
        tangentMode: 0
      - time: 0.4
        value: {x: -0.3850978, y: 0, z: 0.000000076293944}
        inSlope: {x: -0, y: -3.7902383e-13, z: -1.1828304e-11}
        outSlope: {x: -0, y: 6.435487e-14, z: 7.2061224e-12}
        tangentMode: 0
      - time: 0.43333334
        value: {x: -0.3850978, y: 0, z: 0}
        inSlope: {x: -0, y: 0.00000028610228, z: -0.000001144398}
        outSlope: {x: 0.0000058855335, y: 0.00000028610037, z: -0.0000011444096}
        tangentMode: 0
      - time: 0.5
        value: {x: -0.38509783, y: -0.000000019073486, z: 0}
        inSlope: {x: -0.0000029427667, y: -0.0000011444047, z: -0}
        outSlope: {x: -0.0000029427667, y: -0.0000011444047, z: -0}
        tangentMode: 0
      m_PreInfinity: 2
      m_PostInfinity: 2
      m_RotationOrder: 4
    path: RigHead/RigRArm1/RigRArm2
  - curve:
      serializedVersion: 2
      m_Curve:
      - time: 0
        value: {x: -0.37287822, y: -0.000000038146972, z: 0}
        inSlope: {x: -3.806479e-15, y: 0.0000011444092, z: -0.0000022888185}
        outSlope: {x: -3.806479e-15, y: 0.0000011444092, z: -0.0000022888185}
        tangentMode: 0
      - time: 0.033333335
        value: {x: -0.37287822, y: 0, z: -0.000000076293944}
        inSlope: {x: -8.881783e-15, y: -5.3595217e-14, z: 1.07190434e-13}
        outSlope: {x: 0.0000029427665, y: -6.2608957e-13, z: 9.955718e-13}
        tangentMode: 0
      - time: 0.06666667
        value: {x: -0.37287825, y: -0.000000038146972, z: 0}
        inSlope: {x: 0.0000029427665, y: 0.00000057220495, z: 0.0000011444083}
        outSlope: {x: -0.0000058855335, y: 0.0000005722043, z: 0.0000011444093}
        tangentMode: 0
      - time: 0.16666667
        value: {x: -0.37287822, y: 0.000000038146972, z: -0.000000038146972}
        inSlope: {x: -0.0000029427667, y: 0.0000011444107, z: -0.0000011444109}
        outSlope: {x: -0.0000029427667, y: 0.0000011444131, z: -0.0000011444131}
        tangentMode: 0
      - time: 0.2
        value: {x: -0.3728782, y: 0.000000076293944, z: -0.000000076293944}
        inSlope: {x: -0.0000029427667, y: -0.00000057220427, z: 0.00000057220427}
        outSlope: {x: 0.0000058855335, y: -0.00000057221143, z: 0.00000057221143}
        tangentMode: 0
      - time: 0.23333333
        value: {x: -0.37287825, y: 0, z: 0}
        inSlope: {x: 0.0000058855335, y: -0.0000011444148, z: 0.0000011444148}
        outSlope: {x: -8.881781e-15, y: -0.0000011444095, z: 0.0000011444098}
        tangentMode: 0
      - time: 0.3
        value: {x: -0.37287834, y: -0.000000038146972, z: 0}
        inSlope: {x: 0.0000058855335, y: 0.0000005722103, z: -0.0000011444087}
        outSlope: {x: -0.0000029427667, y: 0.00000057220046, z: -0.0000011444055}
        tangentMode: 0
      - time: 0.33333334
        value: {x: -0.37287828, y: 0.000000038146972, z: -0.000000076293944}
        inSlope: {x: -0.0000029427667, y: -1.2663902e-11, z: 1.1428776e-11}
        outSlope: {x: -0.0000029427667, y: 5.680282e-12, z: -6.150458e-12}
        tangentMode: 0
      - time: 0.36666667
        value: {x: -0.37287825, y: -0.000000038146972, z: 0}
        inSlope: {x: -0.0000029427667, y: -0.0000005721919, z: 0.0000011443962}
        outSlope: {x: -8.881784e-15, y: -0.00000057220825, z: 0.0000011444098}
        tangentMode: 0
      - time: 0.4
        value: {x: -0.37287825, y: 0, z: 0}
        inSlope: {x: -3.8064792e-15, y: 0.0000005721974, z: -0.0000011444076}
        outSlope: {x: -0.0000029427667, y: 0.0000005722048, z: -0.0000011444024}
        tangentMode: 0
      - time: 0.43333334
        value: {x: -0.37287822, y: 0, z: -0.000000076293944}
        inSlope: {x: -0.0000029427667, y: -0.00000057220393, z: 9.967088e-12}
        outSlope: {x: 0.0000029427667, y: -0.0000005722009, z: -6.7188924e-12}
        tangentMode: 0
      - time: 0.46666667
        value: {x: -0.37287825, y: -0.000000038146972, z: 0}
        inSlope: {x: 0.0000029427667, y: -0.00000057219984, z: 0.0000011443991}
        outSlope: {x: -0.0000029427667, y: -0.00000057220393, z: 0.0000011444095}
        tangentMode: 0
      - time: 0.5
        value: {x: -0.37287822, y: -0.000000038146972, z: 0}
        inSlope: {x: -0.0000029427667, y: 1.4535678e-13, z: 8.867574e-13}
        outSlope: {x: -0.0000029427667, y: 1.4535678e-13, z: 8.867574e-13}
        tangentMode: 0
      m_PreInfinity: 2
      m_PostInfinity: 2
      m_RotationOrder: 4
    path: RigHead/RigRArm1/RigRArm2/RigRArmPalm
  m_ScaleCurves:
  - curve:
      serializedVersion: 2
      m_Curve:
      - time: 0
        value: {x: 1, y: 1, z: 1}
        inSlope: {x: 0, y: 0, z: 0}
        outSlope: {x: 0, y: 0, z: 0}
        tangentMode: 0
      - time: 0.5
        value: {x: 1, y: 1, z: 1}
        inSlope: {x: 0, y: 0, z: 0}
        outSlope: {x: 0, y: 0, z: 0}
        tangentMode: 0
      m_PreInfinity: 2
      m_PostInfinity: 2
      m_RotationOrder: 4
    path: Rig
  - curve:
      serializedVersion: 2
      m_Curve:
      - time: 0
        value: {x: 1, y: 1, z: 1}
        inSlope: {x: 0, y: 0, z: 0}
        outSlope: {x: 0, y: 0, z: 0}
        tangentMode: 0
      - time: 0.5
        value: {x: 1, y: 1, z: 1}
        inSlope: {x: 0, y: 0, z: 0}
        outSlope: {x: 0, y: 0, z: 0}
        tangentMode: 0
      m_PreInfinity: 2
      m_PostInfinity: 2
      m_RotationOrder: 4
    path: RigHead
  - curve:
      serializedVersion: 2
      m_Curve:
      - time: 0
        value: {x: 0.9999998, y: 0.9999998, z: 1}
        inSlope: {x: 0, y: 0, z: 0}
        outSlope: {x: 0, y: 0, z: 0}
        tangentMode: 0
      - time: 0.5
        value: {x: 0.9999998, y: 0.9999998, z: 1}
        inSlope: {x: 0, y: 0, z: 0}
        outSlope: {x: 0, y: 0, z: 0}
        tangentMode: 0
      m_PreInfinity: 2
      m_PostInfinity: 2
      m_RotationOrder: 4
    path: RigHead/RigLowerJaw
  - curve:
      serializedVersion: 2
      m_Curve:
      - time: 0
        value: {x: 0.99999994, y: 1, z: 1}
        inSlope: {x: 0, y: 0, z: 0}
        outSlope: {x: 0, y: 0, z: 0}
        tangentMode: 0
      - time: 0.5
        value: {x: 0.99999994, y: 1, z: 1}
        inSlope: {x: 0, y: 0, z: 0}
        outSlope: {x: 0, y: 0, z: 0}
        tangentMode: 0
      m_PreInfinity: 2
      m_PostInfinity: 2
      m_RotationOrder: 4
    path: RigHead/RigTail1
  - curve:
      serializedVersion: 2
      m_Curve:
      - time: 0
        value: {x: 1.0000001, y: 1.0000001, z: 1.0000001}
        inSlope: {x: 0, y: 0, z: 0}
        outSlope: {x: 0, y: 0, z: 0}
        tangentMode: 0
      - time: 0.5
        value: {x: 1.0000001, y: 1.0000001, z: 1.0000001}
        inSlope: {x: 0, y: 0, z: 0}
        outSlope: {x: 0, y: 0, z: 0}
        tangentMode: 0
      m_PreInfinity: 2
      m_PostInfinity: 2
      m_RotationOrder: 4
    path: RigHead/RigTail1/RigTail2
  - curve:
      serializedVersion: 2
      m_Curve:
      - time: 0
        value: {x: 1, y: 1, z: 1.0000001}
        inSlope: {x: 0, y: 0, z: 0}
        outSlope: {x: 0, y: 0, z: 0}
        tangentMode: 0
      - time: 0.5
        value: {x: 1, y: 1, z: 1.0000001}
        inSlope: {x: 0, y: 0, z: 0}
        outSlope: {x: 0, y: 0, z: 0}
        tangentMode: 0
      m_PreInfinity: 2
      m_PostInfinity: 2
      m_RotationOrder: 4
    path: RigHead/RigTail1/RigTail2/RigTail3
  - curve:
      serializedVersion: 2
      m_Curve:
      - time: 0
        value: {x: 0.99999976, y: 1.0000001, z: 0.9999999}
        inSlope: {x: 0, y: 0, z: 0}
        outSlope: {x: 0, y: 0, z: 0}
        tangentMode: 0
      - time: 0.5
        value: {x: 0.99999976, y: 1.0000001, z: 0.9999999}
        inSlope: {x: 0, y: 0, z: 0}
        outSlope: {x: 0, y: 0, z: 0}
        tangentMode: 0
      m_PreInfinity: 2
      m_PostInfinity: 2
      m_RotationOrder: 4
    path: RigHead/RigLArm1
  - curve:
      serializedVersion: 2
      m_Curve:
      - time: 0
        value: {x: 1.0000006, y: 0.99999994, z: 1.0000004}
        inSlope: {x: 0, y: 0, z: 0}
        outSlope: {x: 0, y: 0, z: 0}
        tangentMode: 0
      - time: 0.5
        value: {x: 1.0000006, y: 0.99999994, z: 1.0000004}
        inSlope: {x: 0, y: 0, z: 0}
        outSlope: {x: 0, y: 0, z: 0}
        tangentMode: 0
      m_PreInfinity: 2
      m_PostInfinity: 2
      m_RotationOrder: 4
    path: RigHead/RigLArm1/RigLArm2
  - curve:
      serializedVersion: 2
      m_Curve:
      - time: 0
        value: {x: 1.0000019, y: 0.9999982, z: 0.99999917}
        inSlope: {x: 0, y: 0, z: 0}
        outSlope: {x: 0, y: 0, z: 0}
        tangentMode: 0
      - time: 0.5
        value: {x: 1.0000019, y: 0.9999982, z: 0.99999917}
        inSlope: {x: 0, y: 0, z: 0}
        outSlope: {x: 0, y: 0, z: 0}
        tangentMode: 0
      m_PreInfinity: 2
      m_PostInfinity: 2
      m_RotationOrder: 4
    path: RigHead/RigLArm1/RigLArm2/RigLArmPalm
  - curve:
      serializedVersion: 2
      m_Curve:
      - time: 0
        value: {x: 1.0000001, y: 1.0000001, z: 0.9999999}
        inSlope: {x: 0, y: 0, z: 0}
        outSlope: {x: 0, y: 0, z: 0}
        tangentMode: 0
      - time: 0.5
        value: {x: 1.0000001, y: 1.0000001, z: 0.9999999}
        inSlope: {x: 0, y: 0, z: 0}
        outSlope: {x: 0, y: 0, z: 0}
        tangentMode: 0
      m_PreInfinity: 2
      m_PostInfinity: 2
      m_RotationOrder: 4
    path: RigHead/RigRArm1
  - curve:
      serializedVersion: 2
      m_Curve:
      - time: 0
        value: {x: 1, y: 1.0000007, z: 1.0000002}
        inSlope: {x: 0, y: 0, z: 0}
        outSlope: {x: 0, y: 0, z: 0}
        tangentMode: 0
      - time: 0.5
        value: {x: 1, y: 1.0000007, z: 1.0000002}
        inSlope: {x: 0, y: 0, z: 0}
        outSlope: {x: 0, y: 0, z: 0}
        tangentMode: 0
      m_PreInfinity: 2
      m_PostInfinity: 2
      m_RotationOrder: 4
    path: RigHead/RigRArm1/RigRArm2
  - curve:
      serializedVersion: 2
      m_Curve:
      - time: 0
        value: {x: 0.9999985, y: 1.0000018, z: 0.9999992}
        inSlope: {x: 0, y: 0, z: 0}
        outSlope: {x: 0, y: 0, z: 0}
        tangentMode: 0
      - time: 0.5
        value: {x: 0.9999985, y: 1.0000018, z: 0.9999992}
        inSlope: {x: 0, y: 0, z: 0}
        outSlope: {x: 0, y: 0, z: 0}
        tangentMode: 0
      m_PreInfinity: 2
      m_PostInfinity: 2
      m_RotationOrder: 4
    path: RigHead/RigRArm1/RigRArm2/RigRArmPalm
  m_FloatCurves: []
  m_PPtrCurves: []
  m_SampleRate: 30
  m_WrapMode: 0
  m_Bounds:
    m_Center: {x: -0.034249604, y: 0.70092463, z: -0.16191196}
    m_Extent: {x: 0.98059314, y: 0.5696533, z: 0.67918515}
  m_ClipBindingConstant:
    genericBindings: []
    pptrCurveMapping: []
  m_AnimationClipSettings:
    serializedVersion: 2
    m_AdditiveReferencePoseClip: {fileID: 0}
    m_AdditiveReferencePoseTime: 0
    m_StartTime: 0
    m_StopTime: 0.5
    m_OrientationOffsetY: 0
    m_Level: 0
    m_CycleOffset: 0
    m_HasAdditiveReferencePose: 0
    m_LoopTime: 0
    m_LoopBlend: 0
    m_LoopBlendOrientation: 0
    m_LoopBlendPositionY: 0
    m_LoopBlendPositionXZ: 0
    m_KeepOriginalOrientation: 0
    m_KeepOriginalPositionY: 1
    m_KeepOriginalPositionXZ: 0
    m_HeightFromFeet: 0
    m_Mirror: 0
  m_EditorCurves: []
  m_EulerEditorCurves: []
  m_HasGenericRootTransform: 0
  m_HasMotionFloatCurves: 0
  m_GenerateMotionCurves: 0
  m_Events: []
