%YAML 1.1
%TAG !u! tag:unity3d.com,2011:
--- !u!74 &7400000
AnimationClip:
  m_ObjectHideFlags: 0
  m_PrefabParentObject: {fileID: 0}
  m_PrefabInternal: {fileID: 0}
  m_Name: die
  serializedVersion: 6
  m_Legacy: 1
  m_Compressed: 0
  m_UseHighQualityCurve: 1
  m_RotationCurves:
  - curve:
      serializedVersion: 2
      m_Curve:
      - time: 0
        value: {x: 0.50000006, y: -0.50000006, z: -0.49999994, w: 0.49999994}
        inSlope: {x: 0, y: 0, z: 0, w: 0}
        outSlope: {x: 0, y: 0, z: 0, w: 0}
        tangentMode: 0
      - time: 1.3333334
        value: {x: 0.50000006, y: -0.50000006, z: -0.49999994, w: 0.49999994}
        inSlope: {x: 0, y: 0, z: 0, w: 0}
        outSlope: {x: 0, y: 0, z: 0, w: 0}
        tangentMode: 0
      m_PreInfinity: 2
      m_PostInfinity: 2
      m_RotationOrder: 4
    path: MushroomRig
  - curve:
      serializedVersion: 2
      m_Curve:
      - time: 0
        value: {x: -0.45942023, y: 0.5375251, z: 0.45942, w: -0.53752494}
        inSlope: {x: -0.0184831, y: -0.015304684, z: -0.028538702, w: -0.023839472}
        outSlope: {x: -0.0184831, y: -0.015304684, z: -0.028538702, w: -0.023839472}
        tangentMode: 0
      - time: 0.3
        value: {x: -0.489913, y: 0.5100579, z: 0.42865592, w: -0.5622102}
        inSlope: {x: -0.05795047, y: -0.058648292, z: -0.07662714, w: -0.061389513}
        outSlope: {x: -0.05795047, y: -0.058648292, z: -0.07662714, w: -0.061389513}
        tangentMode: 0
      - time: 0.6333334
        value: {x: -0.41665083, y: 0.5774292, z: 0.46263197, w: -0.5281565}
        inSlope: {x: 0.37174928, y: 0.2273199, z: 0.34551507, w: 0.25846928}
        outSlope: {x: 0.37174928, y: 0.2273199, z: 0.34551507, w: 0.25846928}
        tangentMode: 0
      - time: 0.6666667
        value: {x: -0.4038782, y: 0.58448327, z: 0.47483996, w: -0.5194119}
        inSlope: {x: 0.9924249, y: 0.60036033, z: 0.40111184, w: 0.32661074}
        outSlope: {x: 0.9924249, y: 0.60036033, z: 0.40111184, w: 0.32661074}
        tangentMode: 0
      - time: 0.70000005
        value: {x: -0.35048914, y: 0.6174532, z: 0.48937276, w: -0.50638247}
        inSlope: {x: 2.4085593, y: 1.3673549, z: 0.77131647, w: 0.96064264}
        outSlope: {x: 2.4085593, y: 1.3673549, z: 0.77131647, w: 0.96064264}
        tangentMode: 0
      - time: 0.73333335
        value: {x: -0.24330765, y: 0.6756402, z: 0.52626103, w: -0.4553691}
        inSlope: {x: 3.273077, y: 1.4530575, z: 1.504133, w: 2.301831}
        outSlope: {x: 3.273077, y: 1.4530575, z: 1.504133, w: 2.301831}
        tangentMode: 0
      - time: 0.7666667
        value: {x: -0.13228402, y: 0.7143237, z: 0.5896483, w: -0.35292703}
        inSlope: {x: 2.77642, y: 0.62007165, z: 1.879172, w: 3.2165008}
        outSlope: {x: 2.77642, y: 0.62007165, z: 1.879172, w: 3.2165008}
        tangentMode: 0
      - time: 0.8000001
        value: {x: -0.05821283, y: 0.7169784, z: 0.65153927, w: -0.24093555}
        inSlope: {x: 1.489084, y: -0.069626704, z: 1.3233497, w: 2.4576826}
        outSlope: {x: 1.489084, y: -0.069626704, z: 1.3233497, w: 2.4576826}
        tangentMode: 0
      - time: 0.8333334
        value: {x: -0.033011712, y: 0.7096819, z: 0.67787164, w: -0.18908149}
        inSlope: {x: 0.37801743, y: -0.10944675, z: 0.39498606, w: 0.7778114}
        outSlope: {x: 0.37801743, y: -0.10944675, z: 0.39498606, w: 0.7778114}
        tangentMode: 0
      - time: 0.86666673
        value: {x: -0.033011694, y: 0.7096819, z: 0.67787164, w: -0.1890815}
        inSlope: {x: 0.00000027939655, y: 0, z: 0, w: -0.00000022351723}
        outSlope: {x: 0.00000027939655, y: 0, z: 0, w: -0.00000022351723}
        tangentMode: 0
      - time: 1.3333334
        value: {x: -0.033011694, y: 0.7096819, z: 0.67787164, w: -0.1890815}
        inSlope: {x: 0, y: 0, z: 0, w: 0}
        outSlope: {x: 0, y: 0, z: 0, w: 0}
        tangentMode: 0
      m_PreInfinity: 2
      m_PostInfinity: 2
      m_RotationOrder: 4
    path: MushroomRigRibcage
  - curve:
      serializedVersion: 2
      m_Curve:
      - time: 0
        value: {x: 0.0000000023555426, y: -0.0000002890542, z: -0.038105067, w: 0.9992738}
        inSlope: {x: -0.006551065, y: -0.051435597, z: 0.0000069290395, w: -0.00004470348}
        outSlope: {x: -0.006551065, y: -0.051435597, z: 0.0000069290395, w: -0.00004470348}
        tangentMode: 0
      - time: 0.43333337
        value: {x: -0.0005972201, y: -0.04186684, z: -0.036427207, w: 0.99845874}
        inSlope: {x: 0.13054895, y: 0.35073528, z: 0.018972384, w: 0.014902354}
        outSlope: {x: 0.13054895, y: 0.35073528, z: 0.018972384, w: 0.014902354}
        tangentMode: 0
      - time: 0.6666667
        value: {x: 0.04452868, y: 0.06889146, z: -0.039823856, w: 0.99583393}
        inSlope: {x: 0.24751925, y: 0.47140443, z: -0.086576715, w: -0.048018686}
        outSlope: {x: 0.24751925, y: 0.47140443, z: -0.086576715, w: -0.048018686}
        tangentMode: 0
      - time: 0.8333334
        value: {x: 0.096003115, y: 0.14313027, z: -0.070324376, w: 0.9825231}
        inSlope: {x: 0.055225633, y: 0.0984405, z: -0.042003557, w: -0.02225699}
        outSlope: {x: 0.055225633, y: 0.0984405, z: -0.042003557, w: -0.02225699}
        tangentMode: 0
      - time: 1.1
        value: {x: 0.07569528, y: 0.14917563, z: -0.053382527, w: 0.9844629}
        inSlope: {x: -0.06431979, y: 0.011163796, z: 0.054566942, w: 0.006260273}
        outSlope: {x: -0.06431979, y: 0.011163796, z: 0.054566942, w: 0.006260273}
        tangentMode: 0
      - time: 1.3333334
        value: {x: 0.07332195, y: 0.14956312, z: -0.051366948, w: 0.9846909}
        inSlope: {x: 0, y: 0, z: 0, w: 0}
        outSlope: {x: 0, y: 0, z: 0, w: 0}
        tangentMode: 0
      m_PreInfinity: 2
      m_PostInfinity: 2
      m_RotationOrder: 4
    path: MushroomRigRibcage/MushroomRigNeck
  - curve:
      serializedVersion: 2
      m_Curve:
      - time: 0
        value: {x: -0.0000000148328985, y: 0.0000002103364, z: -0.007971854, w: 0.99996823}
        inSlope: {x: -0.0034384998, y: -0.05170782, z: 0.00000058673317, w: -0.00004470348}
        outSlope: {x: -0.0034384998, y: -0.05170782, z: 0.00000058673317, w: -0.00004470348}
        tangentMode: 0
      - time: 0.43333337
        value: {x: 0.0019211939, y: -0.041810427, z: -0.0064248643, w: 0.99910307}
        inSlope: {x: 0.109246165, y: 0.35777014, z: 0.021090308, w: 0.014323891}
        outSlope: {x: 0.109246165, y: 0.35777014, z: 0.021090308, w: 0.014323891}
        tangentMode: 0
      - time: 0.6666667
        value: {x: 0.040301707, y: 0.07139047, z: -0.010197679, w: 0.9965818}
        inSlope: {x: 0.21890655, y: 0.48441952, z: -0.093337655, w: -0.045388333}
        outSlope: {x: 0.21890655, y: 0.48441952, z: -0.093337655, w: -0.045388333}
        tangentMode: 0
      - time: 0.8333334
        value: {x: 0.08726548, y: 0.14812616, z: -0.042442434, w: 0.9841961}
        inSlope: {x: 0.049401212, y: 0.10068261, z: -0.044873632, w: -0.02098294}
        outSlope: {x: 0.049401212, y: 0.10068261, z: -0.044873632, w: -0.02098294}
        tangentMode: 0
      - time: 1.1
        value: {x: 0.06673374, y: 0.15312867, z: -0.02535068, w: 0.9856245}
        inSlope: {x: -0.06462444, y: 0.007903125, z: 0.055105396, w: 0.004612503}
        outSlope: {x: -0.06462444, y: 0.007903125, z: 0.055105396, w: 0.004612503}
        tangentMode: 0
      - time: 1.3333334
        value: {x: 0.06435024, y: 0.15339597, z: -0.023315337, w: 0.9857916}
        inSlope: {x: 0, y: 0, z: 0, w: 0}
        outSlope: {x: 0, y: 0, z: 0, w: 0}
        tangentMode: 0
      m_PreInfinity: 2
      m_PostInfinity: 2
      m_RotationOrder: 4
    path: MushroomRigRibcage/MushroomRigNeck/MushroomRigHead
  - curve:
      serializedVersion: 2
      m_Curve:
      - time: 0
        value: {x: -0.000000020655483, y: -0.0000000853037, z: -0.57277405, w: 0.8197133}
        inSlope: {x: 0, y: 0, z: 0, w: 0}
        outSlope: {x: 0, y: 0, z: 0, w: 0}
        tangentMode: 0
      - time: 1.3333334
        value: {x: -0.000000020655483, y: -0.0000000853037, z: -0.57277405, w: 0.8197133}
        inSlope: {x: 0, y: 0, z: 0, w: 0}
        outSlope: {x: 0, y: 0, z: 0, w: 0}
        tangentMode: 0
      m_PreInfinity: 2
      m_PostInfinity: 2
      m_RotationOrder: 4
    path: MushroomRigRibcage/MushroomRigNeck/MushroomRigHead/MushroomRigJawUp
  - curve:
      serializedVersion: 2
      m_Curve:
      - time: 0
        value: {x: 0.000000025596957, y: 0.00000012048342, z: 0.72881526, w: -0.68471044}
        inSlope: {x: 0.021653606, y: -0.010296606, z: 0.037872788, w: 0.040403005}
        outSlope: {x: 0.021653606, y: -0.010296606, z: 0.037872788, w: 0.040403005}
        tangentMode: 0
      - time: 0.40000004
        value: {x: 0.02295971, y: -0.01419988, z: 0.7865907, w: -0.61688435}
        inSlope: {x: -0.050280817, y: 0.0115296, z: 0.036027413, w: 0.043783464}
        outSlope: {x: -0.050280817, y: 0.0115296, z: 0.036027413, w: 0.043783464}
        tangentMode: 0
      - time: 0.6333334
        value: {x: -0.008495669, y: 0.010614072, z: 0.791522, w: -0.6109894}
        inSlope: {x: -0.21656978, y: 0.2557853, z: 0.06789656, w: 0.0961152}
        outSlope: {x: -0.21656978, y: 0.2557853, z: 0.06789656, w: 0.0961152}
        tangentMode: 0
      - time: 0.70000005
        value: {x: -0.0179777, y: 0.047747698, z: 0.81193966, w: -0.58150744}
        inSlope: {x: 0.1436655, y: 1.1593441, z: 0.7534596, w: 1.2065018}
        outSlope: {x: 0.1436655, y: 1.1593441, z: 0.7534596, w: 1.2065018}
        tangentMode: 0
      - time: 0.73333335
        value: {x: -0.006486995, y: 0.0974075, z: 0.8444871, w: -0.52660364}
        inSlope: {x: 0.52996194, y: 1.5363978, z: 0.9310798, w: 1.7957585}
        outSlope: {x: 0.52996194, y: 1.5363978, z: 0.9310798, w: 1.7957585}
        tangentMode: 0
      - time: 0.8000001
        value: {x: 0.043847077, y: 0.18974526, z: 0.8918998, w: -0.40815303}
        inSlope: {x: 0.5874023, y: 0.8220092, z: 0.35487667, w: 1.1371641}
        outSlope: {x: 0.5874023, y: 0.8220092, z: 0.35487667, w: 1.1371641}
        tangentMode: 0
      - time: 0.90000004
        value: {x: 0.05651328, y: 0.20497485, z: 0.8976701, w: -0.38597924}
        inSlope: {x: -0.0000002235183, y: -0.00000022351684, z: 0, w: 0}
        outSlope: {x: -0.0000002235183, y: -0.00000022351684, z: 0, w: 0}
        tangentMode: 0
      - time: 1.3333334
        value: {x: 0.0565133, y: 0.20497483, z: 0.8976701, w: -0.38597924}
        inSlope: {x: 0, y: 0, z: 0, w: 0}
        outSlope: {x: 0, y: 0, z: 0, w: 0}
        tangentMode: 0
      m_PreInfinity: 2
      m_PostInfinity: 2
      m_RotationOrder: 4
    path: MushroomRigRibcage/MushroomRigNeck/MushroomRigHead/MushroomRigJawDown
  - curve:
      serializedVersion: 2
      m_Curve:
      - time: 0
        value: {x: 0.000000029370996, y: 0.00000008897727, z: 0.8685771, w: 0.49555397}
        inSlope: {x: -0.013940029, y: -0.005401441, z: -0.000075101845, w: 0.00012516975}
        outSlope: {x: -0.013940029, y: -0.005401441, z: -0.000075101845, w: 0.00012516975}
        tangentMode: 0
      - time: 0.4666667
        value: {x: -0.020399416, y: -0.007654879, z: 0.868381, w: 0.49541864}
        inSlope: {x: -0.0012499376, y: -0.00040108812, z: -0.000059902704, w: 0.000046938716}
        outSlope: {x: -0.0012499376, y: -0.00040108812, z: -0.000059902704, w: 0.000046938716}
        tangentMode: 0
      - time: 0.5666667
        value: {x: 0.0065374803, y: 0.00052530196, z: 0.8683832, w: 0.49585038}
        inSlope: {x: 0.6246787, y: 0.1894846, z: -0.0056120795, w: -0.0011332401}
        outSlope: {x: 0.6246787, y: 0.1894846, z: -0.0056120795, w: -0.0011332401}
        tangentMode: 0
      - time: 0.70000005
        value: {x: 0.03386851, y: 0.007371555, z: 0.865926, w: 0.49896967}
        inSlope: {x: -1.1465125, y: -0.4027957, z: -0.036119536, w: 0.105425574}
        outSlope: {x: -1.1465125, y: -0.4027957, z: -0.036119536, w: 0.105425574}
        tangentMode: 0
      - time: 0.7666667
        value: {x: -0.0869269, y: -0.03300548, z: 0.86091155, w: 0.50018567}
        inSlope: {x: -1.887383, y: -0.57827353, z: -0.11377564, w: -0.15465516}
        outSlope: {x: -1.887383, y: -0.57827353, z: -0.11377564, w: -0.15465516}
        tangentMode: 0
      - time: 0.8333334
        value: {x: -0.1790679, y: -0.055523418, z: 0.85408044, w: 0.48517892}
        inSlope: {x: -0.65967625, y: -0.065109044, z: -0.026039828, w: -0.18938902}
        outSlope: {x: -0.65967625, y: -0.065109044, z: -0.026039828, w: -0.18938902}
        tangentMode: 0
      - time: 0.9333334
        value: {x: -0.19946222, y: -0.056017373, z: 0.86220044, w: 0.46226335}
        inSlope: {x: -0.057348732, y: -0.039904624, z: 0.11227995, w: -0.23832187}
        outSlope: {x: -0.057348732, y: -0.039904624, z: 0.11227995, w: -0.23832187}
        tangentMode: 0
      - time: 1.2
        value: {x: -0.20030633, y: -0.05800087, z: 0.8670963, w: 0.45239064}
        inSlope: {x: 0, y: 0, z: 0, w: 0}
        outSlope: {x: 0, y: 0, z: 0, w: 0}
        tangentMode: 0
      - time: 1.3333334
        value: {x: -0.20030633, y: -0.05800087, z: 0.8670963, w: 0.45239064}
        inSlope: {x: 0, y: 0, z: 0, w: 0}
        outSlope: {x: 0, y: 0, z: 0, w: 0}
        tangentMode: 0
      m_PreInfinity: 2
      m_PostInfinity: 2
      m_RotationOrder: 4
    path: MushroomRigRibcage/MushroomRigThigh
  - curve:
      serializedVersion: 2
      m_Curve:
      - time: 0
        value: {x: 0.000000109498835, y: 0.0000001550521, z: 0.8204089, w: 0.5717773}
        inSlope: {x: 0.0034076183, y: 0.041261986, z: 0.00047028062, w: -0.0007241964}
        outSlope: {x: 0.0034076183, y: 0.041261986, z: 0.00047028062, w: -0.0007241964}
        tangentMode: 0
      - time: 0.40000004
        value: {x: 0.0040644943, y: 0.0440165, z: 0.81925964, w: 0.5717164}
        inSlope: {x: -0.0000586877, y: -0.13993001, z: -0.008674262, w: 0.022961492}
        outSlope: {x: -0.0000586877, y: -0.13993001, z: -0.008674262, w: 0.022961492}
        tangentMode: 0
      - time: 0.6333334
        value: {x: -0.0021032384, y: -0.006969421, z: 0.80112815, w: 0.5984486}
        inSlope: {x: -0.0739868, y: -0.168611, z: -0.18189135, w: 0.24097416}
        outSlope: {x: -0.0739868, y: -0.168611, z: -0.18189135, w: 0.24097416}
        tangentMode: 0
      - time: 0.70000005
        value: {x: -0.014639528, y: -0.010397283, z: 0.78101414, w: 0.6242552}
        inSlope: {x: -0.4214875, y: 0.16480157, z: -0.5321558, w: 0.646316}
        outSlope: {x: -0.4214875, y: 0.16480157, z: -0.5321558, w: 0.646316}
        tangentMode: 0
      - time: 0.8000001
        value: {x: -0.06840529, y: 0.026546845, z: 0.7131343, w: 0.69717675}
        inSlope: {x: -0.32550234, y: 0.2869875, z: -0.44417724, w: 0.422733}
        outSlope: {x: -0.32550234, y: 0.2869875, z: -0.44417724, w: 0.422733}
        tangentMode: 0
      - time: 0.90000004
        value: {x: -0.07124839, y: 0.032256912, z: 0.7048567, w: 0.705025}
        inSlope: {x: 0.08257024, y: -0.004425086, z: 0.011769532, w: -0.0032624598}
        outSlope: {x: 0.08257024, y: -0.004425086, z: 0.011769532, w: -0.0032624598}
        tangentMode: 0
      - time: 1.3333334
        value: {x: -0.06166833, y: 0.03176085, z: 0.7062217, w: 0.7045844}
        inSlope: {x: 0, y: 0, z: 0, w: 0}
        outSlope: {x: 0, y: 0, z: 0, w: 0}
        tangentMode: 0
      m_PreInfinity: 2
      m_PostInfinity: 2
      m_RotationOrder: 4
    path: MushroomRigRibcage/MushroomRigThigh/MushroomRigFoot
  m_CompressedRotationCurves: []
  m_EulerCurves: []
  m_PositionCurves:
  - curve:
      serializedVersion: 2
      m_Curve:
      - time: 0
        value: {x: -0, y: 0, z: 0}
        inSlope: {x: 0, y: 0, z: 0}
        outSlope: {x: 0, y: 0, z: 0}
        tangentMode: 0
      - time: 1.3333334
        value: {x: -0, y: 0, z: 0}
        inSlope: {x: 0, y: 0, z: 0}
        outSlope: {x: 0, y: 0, z: 0}
        tangentMode: 0
      m_PreInfinity: 2
      m_PostInfinity: 2
      m_RotationOrder: 4
    path: MushroomRig
  - curve:
      serializedVersion: 2
      m_Curve:
      - time: 0
        value: {x: -0.0000000014196672, y: 0.22292043, z: -0.032479234}
        inSlope: {x: -0.015982201, y: 6.661338e-15, z: -2.7755573e-16}
        outSlope: {x: -0.015982201, y: 6.661338e-15, z: -2.7755573e-16}
        tangentMode: 0
      - time: 0.033333335
        value: {x: -0.00053274154, y: 0.22292043, z: -0.032479234}
        inSlope: {x: -0.029681232, y: 2.8548593e-15, z: -1.1895246e-16}
        outSlope: {x: -0.029681245, y: 6.661338e-15, z: -2.7755573e-16}
        tangentMode: 0
      - time: 0.06666667
        value: {x: -0.0019787506, y: 0.22292043, z: -0.032479234}
        inSlope: {x: -0.05365455, y: 2.8548593e-15, z: -1.1895246e-16}
        outSlope: {x: -0.05365456, y: 6.6613386e-15, z: -2.7755576e-16}
        tangentMode: 0
      - time: 0.23333333
        value: {x: -0.014916726, y: 0.22292043, z: -0.032479234}
        inSlope: {x: -0.070778385, y: 2.8548595e-15, z: -1.1895248e-16}
        outSlope: {x: -0.07077827, y: 6.661335e-15, z: -2.7755565e-16}
        tangentMode: 0
      - time: 0.3
        value: {x: -0.018493695, y: 0.22292043, z: -0.032479234}
        inSlope: {x: -0.029680938, y: 2.8548595e-15, z: -1.1895248e-16}
        outSlope: {x: -0.029681271, y: 6.6613386e-15, z: -2.7755576e-16}
        tangentMode: 0
      - time: 0.36666667
        value: {x: -0.01900743, y: 0.22292043, z: -0.032479234}
        inSlope: {x: 0.0022808125, y: 2.8548595e-15, z: -1.1895248e-16}
        outSlope: {x: 0.0022810642, y: 6.6613386e-15, z: -2.7755576e-16}
        tangentMode: 0
      - time: 0.6333333
        value: {x: -0.0051705902, y: 0.22292043, z: -0.032479234}
        inSlope: {x: 0.13912904, y: 2.854862e-15, z: -1.1895258e-16}
        outSlope: {x: 0.13912793, y: 0.00000067855115, z: -2.7755552e-16}
        tangentMode: 0
      - time: 0.6666667
        value: {x: -0.000019788742, y: 0.22292043, z: -0.032479234}
        inSlope: {x: 0.5736281, y: -0.08872638, z: -1.1895237e-16}
        outSlope: {x: 0.5736328, y: -0.088731445, z: -2.7755602e-16}
        tangentMode: 0
      - time: 0.7
        value: {x: 0.033071406, y: 0.21700506, z: -0.032479234}
        inSlope: {x: 1.5563284, y: -0.300322, z: -1.1895258e-16}
        outSlope: {x: 1.5563073, y: -0.3003138, z: -2.7755552e-16}
        tangentMode: 0
      - time: 0.73333335
        value: {x: 0.10373524, y: 0.20289914, z: -0.032479234}
        inSlope: {x: 2.2963533, y: -0.46412218, z: -1.1895237e-16}
        outSlope: {x: 2.2963822, y: -0.464133, z: 0.00000018392309}
        tangentMode: 0
      - time: 0.76666665
        value: {x: 0.18616302, y: 0.18606305, z: -0.032479238}
        inSlope: {x: 2.2621684, y: -0.4641357, z: 0.00000018392309}
        outSlope: {x: 2.2621434, y: -0.46412754, z: -2.7755552e-16}
        tangentMode: 0
      - time: 0.8
        value: {x: 0.25454608, y: 0.17195712, z: -0.032479238}
        inSlope: {x: 1.4536707, y: -0.30031914, z: -1.1895237e-16}
        outSlope: {x: 1.453694, y: -0.300322, z: -2.7755602e-16}
        tangentMode: 0
      - time: 0.8333333
        value: {x: 0.2830757, y: 0.16604175, z: -0.032479238}
        inSlope: {x: 0.4279482, y: -0.088731445, z: -1.1895258e-16}
        outSlope: {x: 0.4279467, y: -0.08872638, z: -2.7755552e-16}
        tangentMode: 0
      - time: 0.8666667
        value: {x: 0.2830757, y: 0.16604175, z: -0.032479238}
        inSlope: {x: 0.0000006939492, y: 0.00000067855115, z: -1.1895237e-16}
        outSlope: {x: 5.0753096e-15, y: 1.9032413e-15, z: -2.7755602e-16}
        tangentMode: 0
      - time: 1.3333334
        value: {x: 0.2830757, y: 0.16604175, z: -0.032479238}
        inSlope: {x: -5.075292e-15, y: 4.4408802e-15, z: -1.1895216e-16}
        outSlope: {x: -5.075292e-15, y: 4.4408802e-15, z: -1.1895216e-16}
        tangentMode: 0
      m_PreInfinity: 2
      m_PostInfinity: 2
      m_RotationOrder: 4
    path: MushroomRigRibcage
  - curve:
      serializedVersion: 2
      m_Curve:
      - time: 0
        value: {x: -0, y: 0, z: 0}
        inSlope: {x: 0, y: 0, z: 0}
        outSlope: {x: 0, y: 0, z: 0}
        tangentMode: 0
      - time: 1.3333334
        value: {x: -0, y: 0, z: 0}
        inSlope: {x: 0, y: 0, z: 0}
        outSlope: {x: 0, y: 0, z: 0}
        tangentMode: 0
      m_PreInfinity: 2
      m_PostInfinity: 2
      m_RotationOrder: 4
    path: MushroomRigRibcage/MushroomRigNeck
  - curve:
      serializedVersion: 2
      m_Curve:
      - time: 0
        value: {x: -0.25399667, y: 0, z: -9.094947e-15}
        inSlope: {x: 0, y: 0, z: 0}
        outSlope: {x: 0, y: 0, z: 0}
        tangentMode: 0
      - time: 1.3333334
        value: {x: -0.25399667, y: 0, z: -9.094947e-15}
        inSlope: {x: 0, y: 0, z: 0}
        outSlope: {x: 0, y: 0, z: 0}
        tangentMode: 0
      m_PreInfinity: 2
      m_PostInfinity: 2
      m_RotationOrder: 4
    path: MushroomRigRibcage/MushroomRigNeck/MushroomRigHead
  - curve:
      serializedVersion: 2
      m_Curve:
      - time: 0
        value: {x: 0.014662857, y: 0.110572115, z: -0.000000020025881}
        inSlope: {x: -0.0000022036684, y: -0.00000073569163, z: -0.00000011894911}
        outSlope: {x: -0.0000022036684, y: -0.00000073569163, z: -0.00000011894911}
        tangentMode: 0
      - time: 0.76666665
        value: {x: 0.014662894, y: 0.110572115, z: -0.000000038146972}
        inSlope: {x: -0.0000000051091638, y: 0.00000073569237, z: -1.1058086e-12}
        outSlope: {x: 0.0000000051091553, y: -0.00000073569106, z: -5.142701e-12}
        tangentMode: 0
      - time: 0.9
        value: {x: 0.014662894, y: 0.11057211, z: 0.000000019073486}
        inSlope: {x: 0.0000013044909, y: -0.0000004632135, z: -0.0000014305137}
        outSlope: {x: 0.0000012397757, y: 0.0000014850058, z: -0.0000014304768}
        tangentMode: 0
      - time: 0.93333334
        value: {x: 0.014662857, y: 0.110572144, z: -0.000000076293944}
        inSlope: {x: -0.0000004632126, y: 0.0000028473964, z: -0.00000085828276}
        outSlope: {x: -0.00000046832264, y: -0.00000028610256, z: -0.0000008583055}
        tangentMode: 0
      - time: 0.96666664
        value: {x: 0.014662857, y: 0.11057214, z: -0.000000038146972}
        inSlope: {x: 0.000000042574772, y: -0.0000016484956, z: 0.0000014305211}
        outSlope: {x: -0.000000042574698, y: 0.0000014713821, z: 0.0000014304914}
        tangentMode: 0
      - time: 1.0333333
        value: {x: 0.014662894, y: 0.11057214, z: 0.000000057220458}
        inSlope: {x: -0.0000012397779, y: -0.0000014713847, z: 3.5279494e-12}
        outSlope: {x: -0.0000011767622, y: 0.00000073568975, z: 2.1897652e-11}
        tangentMode: 0
      - time: 1.1
        value: {x: 0.014662857, y: 0.11057214, z: -0.000000019073486}
        inSlope: {x: 0.0000013521749, y: -0.0000031198806, z: -0.0000011444062}
        outSlope: {x: 0.0000012772435, y: -0.0000028474014, z: -0.0000011444163}
        tangentMode: 0
      - time: 1.1333333
        value: {x: 0.014662857, y: 0.1105721, z: -0.000000057220458}
        inSlope: {x: -0.0000004257478, y: -0.0000014850084, z: 0.00000057220296}
        outSlope: {x: -0.0000004632135, y: -0.0000014713847, z: 0.00000057220245}
        tangentMode: 0
      - time: 1.3333334
        value: {x: 0.014662819, y: 0.110572115, z: 0.000000019073486}
        inSlope: {x: 1.1895216e-16, y: 1.427426e-15, z: 1.1344162e-22}
        outSlope: {x: 1.1895216e-16, y: 1.427426e-15, z: 1.1344162e-22}
        tangentMode: 0
      m_PreInfinity: 2
      m_PostInfinity: 2
      m_RotationOrder: 4
    path: MushroomRigRibcage/MushroomRigNeck/MushroomRigHead/MushroomRigJawUp
  - curve:
      serializedVersion: 2
      m_Curve:
      - time: 0
        value: {x: 0.09220302, y: 0.10558742, z: -0.0000000139687835}
        inSlope: {x: -0.0000022888178, y: -0.0000014713833, z: -0.0000005778242}
        outSlope: {x: -0.0000022888178, y: -0.0000014713833, z: -0.0000005778242}
        tangentMode: 0
      - time: 0.36666667
        value: {x: 0.09220295, y: 0.10558742, z: -0.000000019073486}
        inSlope: {x: -0.000001485007, y: 0.0000007356917, z: -0.0000002861003}
        outSlope: {x: -0.0000008991788, y: 0.0000011989048, z: -0.00000028610182}
        tangentMode: 0
      - time: 0.8333333
        value: {x: 0.09220302, y: 0.10558746, z: -0.000000038146972}
        inSlope: {x: -0.0000028474014, y: -0.00000073569237, z: -0.0000011444122}
        outSlope: {x: -0.000002288816, y: -0.0000011989038, z: -0.0000011443863}
        tangentMode: 0
      - time: 0.8666667
        value: {x: 0.09220295, y: 0.10558743, z: -0.000000095367426}
        inSlope: {x: 0.00000043596538, y: -0.0000011989038, z: 0.00000057222104}
        outSlope: {x: -0.0000009945477, y: -0.00000073569237, z: 0.0000005722096}
        tangentMode: 0
      - time: 0.9
        value: {x: 0.09220306, y: 0.105587445, z: 0}
        inSlope: {x: 0.00000036784553, y: -0.00000073569237, z: 0.0000008583193}
        outSlope: {x: -0.00000012261508, y: 1.903238e-15, z: 0.0000008583161}
        tangentMode: 0
      - time: 0.93333334
        value: {x: 0.09220302, y: 0.105587445, z: -0.000000038146972}
        inSlope: {x: -0.000004209787, y: 4.4408883e-15, z: -0.0000017166027}
        outSlope: {x: -0.0000043324103, y: 0.00000073569237, z: -0.0000017166151}
        tangentMode: 0
      - time: 0.96666664
        value: {x: 0.09220295, y: 0.10558743, z: -0.000000114440915}
        inSlope: {x: -0.0000043324103, y: 0.00000073569237, z: -7.833842e-12}
        outSlope: {x: -0.000000899178, y: 0.00000073569106, z: -2.4477162e-11}
        tangentMode: 0
      - time: 1
        value: {x: 0.092202984, y: 0.10558742, z: -0.000000038146972}
        inSlope: {x: 0.0000018256034, y: 0.00000073569106, z: 0.000002002698}
        outSlope: {x: 0.0000028474014, y: -0.0000014713847, z: 0.000002002716}
        tangentMode: 0
      - time: 1.2333333
        value: {x: 0.09220295, y: 0.10558743, z: 0}
        inSlope: {x: 2.3790516e-16, y: -0, z: -0}
        outSlope: {x: 5.5511204e-16, y: -0, z: -0}
        tangentMode: 0
      - time: 1.3333334
        value: {x: 0.09220295, y: 0.10558743, z: 0}
        inSlope: {x: 2.3790432e-16, y: -0, z: -0}
        outSlope: {x: 2.3790432e-16, y: -0, z: -0}
        tangentMode: 0
      m_PreInfinity: 2
      m_PostInfinity: 2
      m_RotationOrder: 4
    path: MushroomRigRibcage/MushroomRigNeck/MushroomRigHead/MushroomRigJawDown
  - curve:
      serializedVersion: 2
      m_Curve:
      - time: 0
        value: {x: 0.068338156, y: 0.024839973, z: -0.000000001536057}
        inSlope: {x: 0, y: 0, z: 0}
        outSlope: {x: 0, y: 0, z: 0}
        tangentMode: 0
      - time: 1.3333334
        value: {x: 0.068338156, y: 0.024839973, z: -0.000000001536057}
        inSlope: {x: 0, y: 0, z: 0}
        outSlope: {x: 0, y: 0, z: 0}
        tangentMode: 0
      m_PreInfinity: 2
      m_PostInfinity: 2
      m_RotationOrder: 4
    path: MushroomRigRibcage/MushroomRigThigh
  - curve:
      serializedVersion: 2
      m_Curve:
      - time: 0
        value: {x: -0.11899036, y: -0.000000009536743, z: -4.5474734e-15}
        inSlope: {x: 0, y: 0, z: 0}
        outSlope: {x: 0, y: 0, z: 0}
        tangentMode: 0
      - time: 1.3333334
        value: {x: -0.11899036, y: -0.000000009536743, z: -4.5474734e-15}
        inSlope: {x: 0, y: 0, z: 0}
        outSlope: {x: 0, y: 0, z: 0}
        tangentMode: 0
      m_PreInfinity: 2
      m_PostInfinity: 2
      m_RotationOrder: 4
    path: MushroomRigRibcage/MushroomRigThigh/MushroomRigFoot
  m_ScaleCurves:
  - curve:
      serializedVersion: 2
      m_Curve:
      - time: 0
        value: {x: 1, y: 1, z: 1}
        inSlope: {x: 0, y: 0, z: 0}
        outSlope: {x: 0, y: 0, z: 0}
        tangentMode: 0
      - time: 1.3333334
        value: {x: 1, y: 1, z: 1}
        inSlope: {x: 0, y: 0, z: 0}
        outSlope: {x: 0, y: 0, z: 0}
        tangentMode: 0
      m_PreInfinity: 2
      m_PostInfinity: 2
      m_RotationOrder: 4
    path: MushroomRig
  - curve:
      serializedVersion: 2
      m_Curve:
      - time: 0
        value: {x: 1, y: 1, z: 1}
        inSlope: {x: 0, y: 0, z: 0}
        outSlope: {x: 0, y: 0, z: 0}
        tangentMode: 0
      - time: 1.3333334
        value: {x: 1, y: 1, z: 1}
        inSlope: {x: 0, y: 0, z: 0}
        outSlope: {x: 0, y: 0, z: 0}
        tangentMode: 0
      m_PreInfinity: 2
      m_PostInfinity: 2
      m_RotationOrder: 4
    path: MushroomRigRibcage
  - curve:
      serializedVersion: 2
      m_Curve:
      - time: 0
        value: {x: 0.99999994, y: 0.99999994, z: 1}
        inSlope: {x: 0, y: 0, z: 0}
        outSlope: {x: 0, y: 0, z: 0}
        tangentMode: 0
      - time: 1.3333334
        value: {x: 0.99999994, y: 0.99999994, z: 1}
        inSlope: {x: 0, y: 0, z: 0}
        outSlope: {x: 0, y: 0, z: 0}
        tangentMode: 0
      m_PreInfinity: 2
      m_PostInfinity: 2
      m_RotationOrder: 4
    path: MushroomRigRibcage/MushroomRigNeck
  - curve:
      serializedVersion: 2
      m_Curve:
      - time: 0
        value: {x: 1.0000004, y: 1.0000004, z: 1.0000001}
        inSlope: {x: 0, y: 0, z: 0}
        outSlope: {x: 0, y: 0, z: 0}
        tangentMode: 0
      - time: 1.3333334
        value: {x: 1.0000004, y: 1.0000004, z: 1.0000001}
        inSlope: {x: 0, y: 0, z: 0}
        outSlope: {x: 0, y: 0, z: 0}
        tangentMode: 0
      m_PreInfinity: 2
      m_PostInfinity: 2
      m_RotationOrder: 4
    path: MushroomRigRibcage/MushroomRigNeck/MushroomRigHead
  - curve:
      serializedVersion: 2
      m_Curve:
      - time: 0
        value: {x: 0.99999994, y: 1, z: 1}
        inSlope: {x: 0, y: 0, z: 0}
        outSlope: {x: 0, y: 0, z: 0}
        tangentMode: 0
      - time: 1.3333334
        value: {x: 0.99999994, y: 1, z: 1}
        inSlope: {x: 0, y: 0, z: 0}
        outSlope: {x: 0, y: 0, z: 0}
        tangentMode: 0
      m_PreInfinity: 2
      m_PostInfinity: 2
      m_RotationOrder: 4
    path: MushroomRigRibcage/MushroomRigNeck/MushroomRigHead/MushroomRigJawUp
  - curve:
      serializedVersion: 2
      m_Curve:
      - time: 0
        value: {x: 0.99999976, y: 0.99999994, z: 1}
        inSlope: {x: 0, y: 0, z: 0}
        outSlope: {x: 0, y: 0, z: 0}
        tangentMode: 0
      - time: 1.3333334
        value: {x: 0.99999976, y: 0.99999994, z: 1}
        inSlope: {x: 0, y: 0, z: 0}
        outSlope: {x: 0, y: 0, z: 0}
        tangentMode: 0
      m_PreInfinity: 2
      m_PostInfinity: 2
      m_RotationOrder: 4
    path: MushroomRigRibcage/MushroomRigNeck/MushroomRigHead/MushroomRigJawDown
  - curve:
      serializedVersion: 2
      m_Curve:
      - time: 0
        value: {x: 1.0000001, y: 1.0000001, z: 1.0000001}
        inSlope: {x: 0, y: 0, z: 0}
        outSlope: {x: 0, y: 0, z: 0}
        tangentMode: 0
      - time: 1.3333334
        value: {x: 1.0000001, y: 1.0000001, z: 1.0000001}
        inSlope: {x: 0, y: 0, z: 0}
        outSlope: {x: 0, y: 0, z: 0}
        tangentMode: 0
      m_PreInfinity: 2
      m_PostInfinity: 2
      m_RotationOrder: 4
    path: MushroomRigRibcage/MushroomRigThigh
  - curve:
      serializedVersion: 2
      m_Curve:
      - time: 0
        value: {x: 0.99999994, y: 0.9999998, z: 1.0000001}
        inSlope: {x: 0, y: 0, z: 0}
        outSlope: {x: 0, y: 0, z: 0}
        tangentMode: 0
      - time: 1.3333334
        value: {x: 0.99999994, y: 0.9999998, z: 1.0000001}
        inSlope: {x: 0, y: 0, z: 0}
        outSlope: {x: 0, y: 0, z: 0}
        tangentMode: 0
      m_PreInfinity: 2
      m_PostInfinity: 2
      m_RotationOrder: 4
    path: MushroomRigRibcage/MushroomRigThigh/MushroomRigFoot
  m_FloatCurves: []
  m_PPtrCurves: []
  m_SampleRate: 30
  m_WrapMode: 0
  m_Bounds:
    m_Center: {x: 0.20175529, y: 0.3131842, z: -0.07607129}
    m_Extent: {x: 0.5621623, y: 0.4032774, z: 0.38594204}
  m_ClipBindingConstant:
    genericBindings: []
    pptrCurveMapping: []
  m_AnimationClipSettings:
    serializedVersion: 2
    m_AdditiveReferencePoseClip: {fileID: 0}
    m_AdditiveReferencePoseTime: 0
    m_StartTime: 0
    m_StopTime: 1.3333334
    m_OrientationOffsetY: 0
    m_Level: 0
    m_CycleOffset: 0
    m_HasAdditiveReferencePose: 0
    m_LoopTime: 0
    m_LoopBlend: 0
    m_LoopBlendOrientation: 0
    m_LoopBlendPositionY: 0
    m_LoopBlendPositionXZ: 0
    m_KeepOriginalOrientation: 0
    m_KeepOriginalPositionY: 1
    m_KeepOriginalPositionXZ: 0
    m_HeightFromFeet: 0
    m_Mirror: 0
  m_EditorCurves: []
  m_EulerEditorCurves: []
  m_HasGenericRootTransform: 0
  m_HasMotionFloatCurves: 0
  m_GenerateMotionCurves: 0
  m_Events: []
