%YAML 1.1
%TAG !u! tag:unity3d.com,2011:
--- !u!74 &7400000
AnimationClip:
  m_ObjectHideFlags: 0
  m_PrefabParentObject: {fileID: 0}
  m_PrefabInternal: {fileID: 0}
  m_Name: FlashLight
  serializedVersion: 6
  m_Legacy: 1
  m_Compressed: 0
  m_UseHighQualityCurve: 1
  m_RotationCurves: []
  m_CompressedRotationCurves: []
  m_EulerCurves: []
  m_PositionCurves: []
  m_ScaleCurves: []
  m_FloatCurves:
  - curve:
      serializedVersion: 2
      m_Curve:
      - time: 0
        value: 0
        inSlope: 0
        outSlope: -0
        tangentMode: 21
      - time: 0.033333335
        value: 0
        inSlope: 0
        outSlope: 18.000002
        tangentMode: 21
      - time: 0.05
        value: 0.3
        inSlope: 18.000002
        outSlope: 101.999985
        tangentMode: 21
      - time: 0.06666667
        value: 2
        inSlope: 101.999985
        outSlope: -45.000004
        tangentMode: 21
      - time: 0.1
        value: 0.5
        inSlope: -45.000004
        outSlope: -7.4999995
        tangentMode: 21
      - time: 0.16666667
        value: 0
        inSlope: -7.4999995
        outSlope: 0
        tangentMode: 21
      m_PreInfinity: 2
      m_PostInfinity: 2
      m_RotationOrder: 4
    attribute: m_Intensity
    path: 
    classID: 108
    script: {fileID: 0}
  m_PPtrCurves: []
  m_SampleRate: 60
  m_WrapMode: 0
  m_Bounds:
    m_Center: {x: 0, y: 0, z: 0}
    m_Extent: {x: 0, y: 0, z: 0}
  m_ClipBindingConstant:
    genericBindings: []
    pptrCurveMapping: []
  m_AnimationClipSettings:
    serializedVersion: 2
    m_AdditiveReferencePoseClip: {fileID: 0}
    m_AdditiveReferencePoseTime: 0
    m_StartTime: 0
    m_StopTime: 1
    m_OrientationOffsetY: 0
    m_Level: 0
    m_CycleOffset: 0
    m_HasAdditiveReferencePose: 0
    m_LoopTime: 0
    m_LoopBlend: 0
    m_LoopBlendOrientation: 0
    m_LoopBlendPositionY: 0
    m_LoopBlendPositionXZ: 0
    m_KeepOriginalOrientation: 0
    m_KeepOriginalPositionY: 1
    m_KeepOriginalPositionXZ: 0
    m_HeightFromFeet: 0
    m_Mirror: 0
  m_EditorCurves:
  - curve:
      serializedVersion: 2
      m_Curve:
      - time: 0
        value: 0
        inSlope: 0
        outSlope: -0
        tangentMode: 21
      - time: 0.033333335
        value: 0
        inSlope: 0
        outSlope: 18.000002
        tangentMode: 21
      - time: 0.05
        value: 0.3
        inSlope: 18.000002
        outSlope: 101.999985
        tangentMode: 21
      - time: 0.06666667
        value: 2
        inSlope: 101.999985
        outSlope: -45.000004
        tangentMode: 21
      - time: 0.1
        value: 0.5
        inSlope: -45.000004
        outSlope: -7.4999995
        tangentMode: 21
      - time: 0.16666667
        value: 0
        inSlope: -7.4999995
        outSlope: 0
        tangentMode: 21
      m_PreInfinity: 2
      m_PostInfinity: 2
      m_RotationOrder: 4
    attribute: m_Intensity
    path: 
    classID: 108
    script: {fileID: 0}
  m_EulerEditorCurves: []
  m_HasGenericRootTransform: 0
  m_HasMotionFloatCurves: 0
  m_GenerateMotionCurves: 0
  m_Events: []
